1.0 48756:10000.0 167546:1.0 201676:1.0 667374:1.0 682968:1.0 857581:10000.0 2243125:10000.0 2621755:10000.0 2712160:10000.0 2744221:10000.0 2782786:1.0 2802840:1.0 3334615:10000.0 3505026:1.0 3573608:10000.0 3815751:10000.0 3969756:1.0 4153504:1.0
0.0 13012:29.0 24993:1.0 47891:4.0 52294:12.0 66133:1.0 88630:2.0 90039:1.0 95144:1.0 127501:2.0 131154:2.0 145175:1.0 145188:7.0 316839:100000.0 333063:3.0 338925:1.0 355876:2.0 440130:20.0 440135:2.0 447940:20.0 448798:2.0 455255:20.0 470909:2.0 474156:2.0 477664:8.0 484417:1.0 484811:2.0 509556:85.0 532957:7.0 551804:1.0 559434:1.0 612252:1.0 633619:1.0 667374:1.0 721134:4.0 721954:3.0 753075:10.0 776167:3.0 835915:49.0 838858:1.0 850806:20.0 869794:1.0 882110:1.0 885221:2.0 893685:137.0 917606:1.0 927788:77.0 932050:100000.0 933583:100000.0 935656:1.0 978684:3.0 1008898:3.0 1038306:5.0 1055511:2.0 1090653:137.0 1109891:157.0 1206213:80.0 1241911:8.0 1257033:2.0 1266238:2.0 1272142:1.0 1290448:157.0 1375188:10.0 1382010:3.0 1396858:1.0 1450451:2.0 1468959:2.0 1584688:2.0 1601459:100000.0 1640927:4.0 1705108:1.0 1711870:2.0 1716840:6.0 1809421:12.0 1844571:4.0 1856264:157.0 1864840:2.0 1892790:1.0 1896752:1.0 1900906:1.0 1912224:50000.0 1918388:4.0 1928316:1.0 1976628:3.0 2018202:134.0 2022304:5.0 2076865:1.0 2097612:3.0 2110967:1.0 2177649:1.0 2180059:1.0 2184615:1.0 2200537:21.0 2236401:1.0 2243125:100000.0 2311363:3.0 2320313:100000.0 2324731:7.0 2325507:2.0 2329564:50000.0 2341613:1.0 2342393:20.0 2343191:3.0 2344080:2.0 2356204:10.0 2370331:1.0 2373074:3.0 2391301:11.0 2401222:5.0 2404062:2.0 2423721:1.0 2460611:100000.0 2471182:1.0 2490364:11.0 2491365:20.0 2493561:1.0 2504543:17.0 2545435:50000.0 2571751:16.0 2581227:1.0 2600131:12.0 2611209:20.0 2611377:1.0 2621755:200000.0 2634184:3.0 2671414:1.0 2681082:2.0 2720234:3.0 2744221:100000.0 2753998:8.0 2781647:3.0 2782786:1.0 2802840:3.0 2807056:4.0 2816938:5.0 2817276:3.0 2862923:2.0 2865840:134.0 2904690:85.0 2970879:8.0 2976515:7.0 3021254:1.0 3035536:20.0 3116106:1.0 3120233:3.0 3213347:1.0 3264826:50000.0 3266052:1.0 3276295:7.0 3277303:10.0 3287210:157.0 3304868:100000.0 3313845:1.0 3320733:1.0 3334615:200000.0 3346992:1.0 3392119:7.0 3453314:4.0 3463409:2.0 3505026:1.0 3564028:1.0 3579473:3.0 3625498:3.0 3628003:1.0 3652393:12.0 3666001:1.0 3676175:100000.0 3698550:2.0 3702957:157.0 3729150:5.0 3775306:1.0 3785431:3.0 3795776:1.0 3800531:1.0 3804786:12.0 3815751:100000.0 3822719:157.0 3836293:1.0 3857788:1.0 3957084:1.0 3981686:1.0 3985173:1.0 4058809:1.0 4065300:2.0 4121743:100000.0 4145634:1.0 4150227:1.0 4153504:3.0 4158165:157.0 4161235:4.0 4183384:1.0
1.0 131154:4.0 147260:20000.0 509556:3.0 600035:13.0 667374:1.0 774210:1.0 885757:1.0 919867:13.0 927788:13.0 929878:13.0 1013564:1.0 1079224:2.0 1083643:13.0 1095000:1.0 1109891:13.0 1253476:13.0 1536656:3.0 1544209:1.0 1567443:1.0 1701010:1.0 1711870:4.0 1760366:20000.0 1811781:20000.0 1856264:13.0 1997607:2.0 2018202:3.0 2133760:10.0 2210684:1.0 2243125:20000.0 2257376:20000.0 2491365:10.0 2596654:1.0 2604560:2.0 2621755:20000.0 2622701:2.0 2802840:1.0 2815084:13.0 2913083:1.0 2970964:1.0 3062130:4.0 3067740:20000.0 3287210:13.0 3320733:4.0 3334615:20000.0 3490760:1.0 3531259:13.0 3540235:1.0 3553993:4.0 3742758:10.0 3765141:20000.0 4019978:1.0 4084682:3.0 4153504:1.0 4158165:13.0
0.0 1230:39.0 8531:1.0 14959:2.0 30005:20.0 48092:2.0 52294:70.0 55971:2.0 64359:4.0 66133:6.0 82433:8.0 88069:18.0 104752:2.0 113753:1.0 115274:1.0 127501:2.0 131154:91.0 148703:1.0 162833:2.0 165553:55.0 167546:4.0 169209:1.0 177262:1.0 178966:2.0 218127:4.0 229559:48.0 231868:1.0 257883:1.0 263442:1.0 271409:1.0 272626:5.0 284425:2.0 284617:1.0 329613:4.0 348580:1.0 377458:2.0 394871:1.0 399143:1.0 408427:1.0 413160:4.0 440135:426.0 442586:4.0 455255:39.0 465450:1.0 472070:1.0 472116:2.0 474408:1.0 480036:4.0 511957:2.0 514185:3.0 516053:1.0 549705:5.0 558942:4.0 589602:3.0 604847:2.0 641380:2.0 643947:1.0 645439:1.0 667374:4.0 672862:3.0 682968:4.0 692045:1.0 697764:2.0 704268:7.0 710807:2.0 713394:2.0 721134:23.0 743475:1.0 753075:6.0 760320:7.0 763389:2.0 775474:1.0 790653:2.0 793600:1.0 794429:3.0 796009:1.0 797474:1.0 803617:3.0 809983:2.0 821129:4.0 828203:78.0 843931:2.0 850806:46.0 857581:630000.0 886041:600000.0 893685:59.0 902219:1.0 909798:4.0 922950:11.0 925633:1.0 927788:343.0 930820:1.0 932050:600000.0 935656:1.0 953783:74.0 962401:1.0 977020:1.0 986343:3.0 996065:2.0 996820:11.0 1005847:2.0 1008898:4.0 1014814:126.0 1039445:2.0 1040427:5.0 1041690:13.0 1055470:1.0 1077647:4.0 1087150:3.0 1090653:604.0 1097886:1.0 1109891:604.0 1132432:1.0 1138899:55.0 1142786:1.0 1147366:1.0 1149998:2.0 1150918:2.0 1153209:1.0 1162910:1.0 1179069:4.0 1184975:4.0 1191164:18.0 1197202:1.0 1198414:10.0 1201460:300000.0 1206213:247.0 1213061:1.0 1225254:2.0 1257033:2.0 1273620:2.0 1282314:1.0 1284989:1.0 1286452:1.0 1296643:8.0 1298108:90.0 1304618:1.0 1314119:5.0 1314860:2.0 1336264:14.0 1355793:2.0 1359718:2.0 1361044:2.0 1375188:5.0 1377006:4.0 1382010:8.0 1382566:3.0 1388944:1.0 1399946:2.0 1435616:5.0 1442920:1.0 1456864:1.0 1465372:3.0 1468582:2.0 1471895:1.0 1484849:2.0 1496273:1.0 1498932:5.0 1525908:1.0 1528868:406.0 1539114:1.0 1551603:1.0 1584688:20.0 1596741:2.0 1606138:2.0 1616394:1.0 1617333:1.0 1619735:1.0 1620588:1.0 1642132:1.0 1642590:3.0 1650230:2.0 1657954:1.0 1658216:1.0 1681365:2.0 1700525:3.0 1708643:7.0 1711870:91.0 1716840:40.0 1721399:2.0 1727739:2.0 1737796:4.0 1742931:604.0 1746858:1.0 1784617:1.0 1785506:1.0 1786963:4.0 1808835:1.0 1809421:31.0 1831468:4.0 1832126:2.0 1833824:1.0 1842625:4.0 1856264:604.0 1873867:12.0 1877011:1.0 1877894:1.0 1878599:2.0 1896577:2.0 1900906:7.0 1918388:6.0 1970295:3.0 1976022:1.0 1988520:2.0 2006565:1.0 2013133:2.0 2016180:1.0 2018202:74.0 2019419:13.0 2022304:8.0 2026623:2.0 2074729:17.0 2086151:3.0 2101497:4.0 2101585:5.0 2115434:1.0 2119047:39.0 2137882:1.0 2168569:2.0 2180059:2.0 2189280:2.0 2193163:1.0 2200537:36.0 2216515:1.0 2224914:3.0 2238749:1.0 2243125:630000.0 2251383:1.0 2265878:2.0 2273872:2.0 2311077:1.0 2324731:42.0 2325507:4.0 2325628:1.0 2342393:545.0 2343191:4.0 2346587:6.0 2349835:1.0 2355127:1.0 2356204:41.0 2357677:2.0 2381359:1.0 2385242:1.0 2391301:21.0 2401222:8.0 2401990:1.0 2404062:20.0 2405087:1.0 2408493:7.0 2409788:5.0 2422865:14.0 2434516:3.0 2438007:5.0 2472152:2.0 2474457:1.0 2487529:1.0 2490364:65.0 2501044:1.0 2504543:16.0 2551899:1.0 2571751:2.0 2575237:2.0 2581227:3.0 2591676:1.0 2594437:1.0 2595518:17.0 2596814:4.0 2598520:1.0 2600131:53.0 2613962:5.0 2616866:1.0 2620998:300000.0 2621755:1230000.0 2634184:7.0 2676682:1.0 2681082:7.0 2689886:5.0 2734896:1.0 2735237:2.0 2743230:1.0 2747971:4.0 2802840:6.0 2810596:1.0 2816938:12.0 2817276:9.0 2822101:1.0 2839414:3.0 2852806:2.0 2853417:2.0 2857129:1.0 2865840:123.0 2866098:2.0 2875853:2.0 2887255:1.0 2919818:2.0 2945570:3.0 2965758:3.0 2965940:1.0 2970188:1.0 2970879:42.0 2975932:20.0 2976515:2.0 2995485:1.0 3008283:1.0 3033735:11.0 3035536:55.0 3036211:3.0 3054091:1.0 3082573:14.0 3103059:3.0 3105317:1.0 3107080:3.0 3115600:1.0 3121652:630000.0 3132202:1.0 3138531:10.0 3149793:4.0 3160093:1.0 3199137:14.0 3219589:1.0 3220337:1.0 3225675:300000.0 3234207:2.0 3250025:1.0 3287210:604.0 3301840:1.0 3304868:600000.0 3320733:8.0 3329334:1.0 3332719:1.0 3334615:1230000.0 3352854:1.0 3358540:128.0 3360025:4.0 3361178:1.0 3362925:1.0 3368218:2.0 3377088:5.0 3389708:6.0 3391697:4.0 3392438:6.0 3411897:2.0 3453314:20.0 3458145:4.0 3492619:1.0 3496058:630000.0 3498014:1.0 3505026:4.0 3540498:2.0 3548620:1.0 3556650:4.0 3573608:630000.0 3574853:14.0 3576894:2.0 3584272:1.0 3590026:1.0 3593054:1.0 3600086:2.0 3625498:7.0 3627464:1.0 3628003:10.0 3652393:53.0 3656623:406.0 3666001:7.0 3666550:2.0 3666944:1.0 3683821:4.0 3702957:604.0 3759729:1.0 3795776:3.0 3798443:15.0 3800531:31.0 3804786:4.0 3815751:630000.0 3822719:604.0 3841496:600000.0 3875283:600000.0 3895188:5.0 3900774:1.0 3957847:4.0 3990710:2.0 3992853:14.0 4004517:3.0 4012480:23.0 4012758:610000.0 4014333:2.0 4019255:1.0 4028218:3.0 4029384:1.0 4031267:1.0 4052883:20000.0 4058809:7.0 4061080:300000.0 4061677:1.0 4073703:2.0 4074536:1.0 4074625:1.0 4080350:3.0 4084005:2.0 4084682:44.0 4097901:1.0 4108622:1.0 4123020:1.0 4128634:6.0 4151872:2.0 4153504:6.0 4158165:604.0 4161235:12.0 4178991:1.0 4183384:10.0 4193014:1.0
0.0 6779:1.0 29488:1.0 31466:19.0 32046:3.0 52294:76.0 79715:2.0 127501:8.0 131154:18.0 147260:1.0769E7 155440:7.0 155512:2945000.0 177213:3.0 196959:2.0 229559:30.0 254113:2.0 304526:958161.0 316839:1.5266032E7 324189:9.0 328967:1.0 331463:2.0 353268:8.0 374260:1.0 386695:3.0 404123:2.0 416405:5.0 423385:9.0 435008:12.0 440135:60.0 443618:1.0 448798:8.0 452848:1.0 475359:53.0 535696:2.0 546972:4019000.0 557680:1.0 589602:6.0 600115:1.0 622197:7.0 622273:2.0 638434:3538032.0 653675:16.0 666202:6.0 667374:6.0 682096:805000.0 706748:1.0 721134:19.0 753075:45.0 760320:1.0 788149:805000.0 795073:27.0 821129:1.0 828203:208.0 829249:1.0 832470:6.0 835915:70.0 850806:59.0 857442:1.0 881040:2.0 888538:2.0 893685:273.0 899133:4.0 900388:3538032.0 925809:1.0 932050:1.5266032E7 933583:1.5266032E7 943897:805000.0 953783:208.0 981741:805000.0 1008898:12.0 1013562:5.0 1013564:4.0 1015730:2.0 1027509:4.0 1034562:5.0 1055511:8.0 1063281:1.0 1098845:1.0 1109891:481.0 1123317:5.0 1134835:2.0 1138899:53.0 1145716:3.0 1159567:2.0 1159858:1.0 1161200:3.0 1164711:2.0 1170627:3.0 1184779:2.0 1201870:10.0 1206213:366.0 1228275:1.0 1231759:18.0 1235953:2.0 1241911:3.0 1257033:8.0 1261066:3.0 1269817:1.0 1298108:13.0 1356224:2.0 1374592:2.0 1375188:35.0 1382010:16.0 1393641:3.0 1401796:2945000.0 1441938:6.0 1465208:3.0 1468959:8.0 1480112:481.0 1485895:1.0 1499229:9.0 1536656:1.0 1546887:805000.0 1567443:4.0 1571860:1.0 1584688:60.0 1585477:1.0 1617333:5.0 1626053:1.0 1628722:1.0 1680265:3.0 1698793:4.0 1701010:4.0 1710043:3.0 1711870:18.0 1716840:15.0 1760366:1.0769E7 1763412:3.0 1763563:26.0 1792973:7.0 1795096:1.0 1802812:1.0 1807223:1.0 1809421:3.0 1809532:2.0 1811781:1.0769E7 1826518:1.0 1853943:1.0 1854679:1.0 1863637:1.0 1873729:1.0 1873867:8.0 1878599:3.0 1878939:958161.0 1892790:3.0 1910668:4.0 1911033:3000000.0 1918388:1.0 1966716:4.0 1999156:2.0 2003071:1.0 2018202:278.0 2020633:3000000.0 2022304:3.0 2022511:3.0 2025979:1.0 2031880:1.0 2061837:7.0 2114048:2.0 2115403:3.0 2163992:12.0 2178844:1.0 2188184:4978000.0 2200537:82.0 2208698:10.0 2243125:1.2532161E7 2251238:1.0 2267116:1.0 2286531:2.0 2322227:13.0 2324731:18.0 2325507:2.0 2342393:208.0 2343191:12.0 2356046:1.0 2356204:21.0 2361908:1.0 2366870:3.0 2391301:48.0 2401222:3.0 2404062:60.0 2422865:8.0 2444141:2.0 2490336:5.0 2490364:37.0 2493202:958161.0 2504543:32.0 2509217:1.0 2511863:2.0 2515711:8.0 2540840:1.0 2548704:2.0 2571751:20.0 2591075:2.0 2595518:1.0 2595601:2.0 2596654:4.0 2600131:42.0 2611377:143.0 2613962:2.0 2618193:958161.0 2621755:2.4260161E7 2653601:1.0 2664102:7.0 2705931:5.0 2708129:805000.0 2727051:2.0 2753998:1.0 2796652:2.0 2802840:14.0 2816258:1.0 2816689:2.0 2816938:9.0 2817276:20.0 2820017:481.0 2837279:1.4461032E7 2865840:278.0 2882167:1.0 2906907:1.0 2913083:4.0 2945375:1.0 2967183:1.0 2970879:51.0 2975932:9.0 2976515:16.0 2984914:2.0 3002090:7.0 3018661:805000.0 3028441:1.0 3035259:6.0 3055673:2.0 3067740:1.0769E7 3088054:2.0 3152408:1.0 3170684:2.0 3176195:1.0 3195948:2.0 3240030:3.0 3240898:1.0 3252611:1.0 3256803:481.0 3267196:1.0 3272108:1.0 3287210:481.0 3291593:3.0 3304868:1.5266032E7 3310805:1.0 3326564:2.0 3334615:2.7798193E7 3344629:2.0 3366590:1.0 3401673:1.0 3418488:1.0 3453314:14.0 3487508:4.0 3492619:10.0 3505026:1.0 3527524:1.0 3568187:2.0 3576720:5.0 3601221:3.0 3628003:90.0 3652393:42.0 3660770:805000.0 3666001:7.0 3676175:1.5266032E7 3702957:481.0 3730347:1.0 3737181:1.0 3763745:2.0 3765141:1.0769E7 3768404:2.0 3780853:1.0 3800531:150.0 3804786:23.0 3815751:958161.0 3821365:15.0 3822719:481.0 3847859:2.0 3873083:2.0 3912618:1.0 3938459:958161.0 3970548:2.0 3982935:6.0 3993023:3.0 4001631:3.0 4011084:2.0 4029384:3.0 4084682:53.0 4092985:21.0 4096278:7.0 4128634:2.0 4153504:12.0 4158165:481.0 4161235:19.0 4164218:5.0 4176853:5.0 4180841:805000.0 4183384:90.0
1.0 24993:1.0 25064:10000.0 52294:6.0 71057:132.0 74217:1.0 145175:1.0 145188:4.0 239406:3.0 262813:15.0 345399:3.0 375670:1.0 530528:1.0 552319:1.0 568028:1.0 667374:1.0 721134:2.0 828203:36.0 850806:32.0 893685:132.0 908444:15.0 929051:3.0 956252:1.0 977537:6.0 979328:2.0 1001675:2.0 1008898:1.0 1090653:132.0 1102218:10000.0 1109891:132.0 1138899:132.0 1170627:4.0 1206213:132.0 1241911:20.0 1375188:10.0 1382010:1.0 1450451:1.0 1465372:1.0 1576172:5.0 1601459:10000.0 1674386:5.0 1716840:1.0 1730708:1.0 1737465:1.0 1809421:20.0 1848298:1.0 1856264:132.0 1918388:1.0 1991392:2.0 2012991:1.0 2022304:1.0 2114048:2.0 2121966:4.0 2200537:12.0 2243125:10000.0 2279151:1.0 2309904:5.0 2324731:4.0 2343191:1.0 2356204:18.0 2380793:1.0 2391301:3.0 2401222:1.0 2417041:2.0 2422865:1.0 2467685:1.0 2490364:6.0 2504543:29.0 2508902:1.0 2549903:4.0 2571751:10.0 2591075:2.0 2600131:6.0 2621755:10000.0 2643628:5.0 2681082:1.0 2744221:10000.0 2753998:3.0 2782786:1.0 2802840:1.0 2816938:2.0 2817276:1.0 2865840:132.0 2871726:23.0 2905045:1.0 2970208:1.0 2970879:4.0 2975932:6.0 2976515:6.0 3004720:1.0 3034723:1.0 3214804:1.0 3287210:132.0 3312115:2.0 3323109:1.0 3334615:10000.0 3360427:1.0 3453314:2.0 3505026:1.0 3569115:1.0 3589376:3.0 3600126:3.0 3652393:6.0 3666001:1.0 3702957:132.0 3804786:27.0 3815751:10000.0 3822719:132.0 3848286:1.0 3891374:132.0 3941377:1.0 4084682:96.0 4121743:10000.0 4153504:1.0 4158165:132.0 4161235:3.0
0.0 12022:14.0 18545:1.0 24282:12.0 26319:1.0 30005:182.0 37410:1.0 52294:37.0 66133:12.0 75966:1.0 81352:2.0 88069:16.0 88630:19.0 95184:1.0 105179:4.0 115955:1.0 127501:3.0 131154:72.0 145188:3.0 167546:2.0 192010:2.0 196959:2.0 226483:1.0 229559:28.0 233015:2.0 271273:2.0 279727:9.0 290147:1.0 300089:3.0 328967:1.0 342512:2.0 351106:8.0 366240:1.0 380902:11.0 381894:2.0 424708:1.0 439907:1.0 443618:1.0 455255:57.0 472116:1.0 478070:1.0 485236:1.0 493064:2.0 527509:2.0 570653:1.0 572069:1.0 583076:8.0 589602:1.0 593131:13.0 599858:1.0 607189:1.0 609501:44.0 610941:1.0 663372:1.0 667374:3.0 672624:1.0 682968:2.0 700991:1.0 716172:1.0 721134:12.0 734377:2.0 753075:17.0 760320:1.0 775135:4.0 778744:2.0 786324:5.0 788926:1.0 793600:1.0 795073:25.0 821129:3.0 837443:2.0 841969:2700000.0 846421:7.0 850806:21.0 857581:210000.0 860834:1.0 871085:8.0 885622:3.0 893685:120.0 898032:1.0 911714:4.0 922950:39.0 932050:2700000.0 933583:2700000.0 940560:1.0 962401:2.0 972922:1.0 974016:3.0 974124:1.0 989989:200000.0 1008898:5.0 1014814:10.0 1028797:1.0 1041219:1.0 1041690:41.0 1057171:1.0 1064791:16.0 1079224:1.0 1103897:1.0 1109891:611.0 1112341:1.0 1137321:2.0 1142786:1.0 1144960:1.0 1145604:4.0 1155835:6.0 1184975:1.0 1186493:5.0 1191164:16.0 1202645:2.0 1206213:603.0 1234374:3.0 1257033:3.0 1262346:1.0 1271371:1.0 1280059:2.0 1281542:1.0 1334374:1.0 1348673:1.0 1359861:1.0 1363143:2.0 1365906:1.0 1382010:7.0 1390262:23.0 1391337:2.0 1400585:81.0 1402147:1.0 1402390:4.0 1420936:3.0 1450451:1.0 1465372:4.0 1468959:3.0 1500915:2.0 1504346:19.0 1507627:1.0 1512496:1.0 1538740:14.0 1546328:4.0 1559105:611.0 1561185:1.0 1584230:3.0 1605749:2.0 1647013:1.0 1655946:1.0 1669785:8.0 1672202:2.0 1678874:2.0 1687437:8.0 1695499:1.0 1706724:2.0 1711870:72.0 1712536:1.0 1716840:37.0 1733235:2.0 1753782:57.0 1791133:2700000.0 1809421:42.0 1818468:182.0 1819191:1.0 1838243:1.0 1839468:1.0 1842625:4.0 1856264:611.0 1873867:9.0 1878599:16.0 1896793:3.0 1899929:2.0 1900764:3.0 1908227:3.0 1908317:1.0 1910303:1.0 1912616:8.0 1918388:3.0 1927096:2.0 1931258:2.0 1931328:1.0 1942191:1.0 1965210:3.0 1984980:1037000.0 1999156:1.0 2002549:2.0 2019419:44.0 2021089:6.0 2022247:4.0 2022304:7.0 2031584:182.0 2037225:3.0 2105531:1.0 2114048:2.0 2119047:93.0 2133040:13.0 2133760:144.0 2149926:10000.0 2160442:3.0 2190874:8.0 2200537:82.0 2243125:1247000.0 2243485:1.0 2244961:1200000.0 2279695:3.0 2324731:27.0 2325507:7.0 2342328:4.0 2342393:491.0 2343191:5.0 2356204:21.0 2358622:1.0 2386861:1.0 2387910:1.0 2389203:1.0 2391301:21.0 2401222:7.0 2404062:285.0 2409788:11.0 2422865:28.0 2450704:1.0 2452664:4.0 2469647:2.0 2478767:1.0 2483096:1.0 2486680:1.0 2490364:39.0 2493202:1037000.0 2499636:2.0 2504543:21.0 2510841:1.0 2524994:2.0 2540160:44.0 2571751:18.0 2581227:2.0 2591075:12.0 2595518:1.0 2600131:49.0 2605269:2.0 2611377:388.0 2613962:9.0 2618193:1037000.0 2621755:3947000.0 2622701:1.0 2624363:7.0 2632631:4.0 2636914:1.0 2638648:4.0 2645331:1.0 2647572:125.0 2663671:1.0 2672056:1.0 2681082:7.0 2704889:2.0 2713365:1.0 2714299:8.0 2718235:3.0 2725569:3.0 2732366:1.0 2744221:10000.0 2747980:2.0 2765582:1.0 2767874:1.0 2781953:1.0 2782786:1.0 2790720:1.0 2791986:1.0 2796025:2.0 2802840:6.0 2816938:12.0 2817276:9.0 2865840:223.0 2872497:1.0 2874652:8.0 2885790:1.0 2902308:3.0 2939500:1.0 2941141:1.0 2944011:1.0 2944980:1.0 2947106:1.0 2970879:25.0 2975932:34.0 2976515:2.0 2991108:3.0 2995485:1.0 2998417:200000.0 3008283:16.0 3031251:1.0 3071231:5.0 3079231:1.0 3085579:1.0 3090678:6.0 3102925:4.0 3104702:2.0 3110011:9.0 3111272:2.0 3121652:200000.0 3125089:2.0 3141494:1.0 3145101:3.0 3145373:8.0 3160995:1.0 3164896:2.0 3177897:8.0 3211938:4.0 3239639:103.0 3250025:1.0 3279671:2.0 3285614:1.0 3287210:611.0 3304868:2700000.0 3311233:9.0 3315631:1.0 3317144:1.0 3318067:2.0 3320733:16.0 3334615:3947000.0 3356026:1.0 3358540:28.0 3365964:1.0 3376241:10000.0 3391065:3.0 3395834:3.0 3396041:3.0 3400617:1.0 3402137:1.0 3414938:2.0 3418488:1.0 3439052:1.0 3451941:3.0 3453314:11.0 3465197:2.0 3465254:1.0 3498014:2.0 3505026:3.0 3522897:2.0 3524104:1.0 3525123:1.0 3536816:4.0 3553993:5.0 3556650:2.0 3570798:1.0 3573608:210000.0 3580478:1.0 3592575:3.0 3598988:1.0 3619973:6.0 3628003:125.0 3634207:1.0 3640970:1.0 3645802:23.0 3648298:4.0 3652393:49.0 3661366:1.0 3666001:5.0 3674677:3.0 3675853:1.0 3686757:1.0 3693630:1.0 3702393:1500000.0 3702957:611.0 3727161:1037000.0 3742758:19.0 3745314:1.0 3769544:1.0 3782729:10.0 3795776:2.0 3804786:9.0 3815751:1247000.0 3822719:611.0 3844050:1.0 3866045:3.0 3876696:1.0 3896279:7.0 3898690:1.0 3916440:1.0 3918389:2.0 3938459:1037000.0 3952256:2.0 3967791:1.0 3976660:1.0 3983064:2.0 3983514:5.0 4002323:2.0 4004435:2700000.0 4012385:3.0 4029384:5.0 4043635:2.0 4061677:1.0 4084005:1.0 4125557:1.0 4128634:10.0 4148697:6.0 4153504:6.0 4155118:1.0 4158165:611.0 4161235:10.0 4180634:2.0 4181265:611.0 4188763:1.0 4193014:1.0
0.0 18906:1.0 24993:4.0 26089:2.0 30005:84.0 40459:1.0 42221:1.0 51575:1.0 52294:39.0 66133:1.0 96707:1.0 101193:1.0 107558:3.0 115269:2.0 127501:5.0 131154:38.0 136548:10000.0 145175:4.0 145188:7.0 147260:210000.0 165267:8.0 165553:61.0 167546:2.0 168575:3.0 186280:1.0 255091:6.0 257738:1.0 261006:9.0 316839:330000.0 341361:2.0 391759:1.0 404227:1.0 419037:1.0 423822:97.0 435008:11.0 437585:10.0 440130:54.0 441963:20000.0 448798:5.0 450817:422.0 451709:1.0 455255:54.0 475359:122.0 481750:3.0 504737:1.0 519912:6.0 543782:2.0 558564:1.0 589602:2.0 595247:3.0 609734:1.0 626028:2.0 667374:9.0 682968:2.0 700991:4.0 706320:6.0 721134:13.0 728080:1.0 747674:1.0 753075:32.0 754601:1.0 754892:4.0 758969:3.0 760320:6.0 775804:1.0 793600:1.0 795073:178.0 805144:1.0 816178:2.0 821129:8.0 828203:98.0 850806:23.0 857103:1.0 857581:40000.0 864099:1.0 869065:10000.0 893685:87.0 918706:4.0 925633:1.0 926606:3.0 929878:422.0 931876:20000.0 932050:330000.0 933583:330000.0 937008:3.0 939648:2.0 943897:210000.0 949757:2.0 962401:4.0 975771:1.0 991304:1.0 992447:3.0 1007932:1.0 1008898:14.0 1013564:3.0 1014814:31.0 1040821:2.0 1052586:2.0 1055511:5.0 1056564:2.0 1090097:5.0 1102218:10000.0 1103904:2.0 1109891:422.0 1116508:2.0 1127667:2.0 1132432:2.0 1138647:3.0 1138899:239.0 1145603:2.0 1163055:1.0 1247465:1.0 1248125:1.0 1257033:5.0 1263018:50000.0 1319095:2.0 1330789:9.0 1352551:2.0 1352993:4.0 1358531:5.0 1359353:2.0 1375188:10.0 1381508:1.0 1382010:14.0 1382094:1.0 1396744:1.0 1412412:1.0 1431184:5.0 1433183:1.0 1434814:1.0 1438666:2.0 1450451:2.0 1456864:4.0 1468959:5.0 1491023:2.0 1515261:4.0 1518551:2.0 1564154:1.0 1567443:3.0 1596106:1.0 1601459:40000.0 1607812:10000.0 1627882:2.0 1632977:5.0 1633325:330000.0 1633618:1.0 1649906:4.0 1661128:1.0 1679871:4.0 1692284:10.0 1701010:3.0 1711870:38.0 1715692:10000.0 1716840:31.0 1731173:5.0 1737796:3.0 1757504:5.0 1760366:210000.0 1802219:1.0 1811781:210000.0 1821680:2.0 1822976:2.0 1840947:1.0 1873867:10.0 1878447:2.0 1900661:14.0 1902556:6.0 1918388:8.0 1965926:5.0 1983601:20000.0 1984420:2.0 2005139:1.0 2022304:7.0 2074056:2.0 2114370:3.0 2119047:31.0 2163992:11.0 2180059:2.0 2188573:50000.0 2193766:3.0 2200537:56.0 2234986:1.0 2243125:290000.0 2324731:29.0 2336479:1.0 2342393:335.0 2343191:14.0 2349835:4.0 2356204:13.0 2370180:6.0 2391301:55.0 2401222:7.0 2409788:2.0 2415607:2.0 2421646:1.0 2430200:10000.0 2452798:1.0 2475168:2.0 2475556:1.0 2481662:2.0 2490364:42.0 2504543:15.0 2505294:1.0 2571751:3.0 2584071:2.0 2586009:1.0 2595518:6.0 2596654:3.0 2600131:30.0 2621755:620000.0 2622971:2.0 2634184:4.0 2665159:2.0 2681082:4.0 2683636:180000.0 2734554:1.0 2744221:80000.0 2752464:10000.0 2761863:1.0 2766514:1.0 2782786:6.0 2783588:2.0 2789437:1.0 2794543:3.0 2802840:14.0 2815084:422.0 2816938:12.0 2817276:27.0 2817547:1.0 2838100:2.0 2865840:307.0 2890293:7.0 2913083:3.0 2919818:8.0 2931172:1.0 2934279:12.0 2964171:1.0 2966932:1.0 2970879:24.0 2976515:3.0 2984914:4.0 2995485:1.0 2995926:10000.0 3028332:2.0 3035536:115.0 3055673:5.0 3067740:210000.0 3080813:1.0 3086616:2.0 3102292:4.0 3136260:4.0 3188286:1.0 3214804:1.0 3250878:2.0 3266087:5.0 3287210:422.0 3289807:3.0 3302365:1.0 3304868:330000.0 3320733:8.0 3334615:620000.0 3390564:1.0 3392438:12.0 3399698:2.0 3401026:2.0 3402137:4.0 3404623:4.0 3444770:1.0 3453314:10.0 3460597:325.0 3486805:1.0 3489037:1.0 3492619:1.0 3498014:4.0 3505026:6.0 3553993:2.0 3556594:2.0 3573608:40000.0 3612766:2.0 3617044:8.0 3625498:4.0 3628003:98.0 3629299:1.0 3633350:1.0 3652393:30.0 3656623:31.0 3665431:2.0 3666001:9.0 3673302:6.0 3676175:330000.0 3687049:31.0 3691083:1.0 3700842:422.0 3704384:1.0 3722491:1.0 3746157:5.0 3765141:210000.0 3804786:3.0 3813454:5.0 3814768:1.0 3815751:80000.0 3821365:10.0 3822719:422.0 3846121:2.0 3847086:3.0 3853991:1.0 3877347:422.0 3879372:1.0 3891374:56.0 3894390:2.0 3899513:11.0 3912618:3.0 3954859:1.0 3958714:1.0 4000786:3.0 4009267:4.0 4017502:1.0 4018183:1.0 4029384:4.0 4054133:2.0 4055984:3.0 4075053:50000.0 4080818:1.0 4091764:3.0 4107539:1.0 4121743:40000.0 4131348:20000.0 4149449:1.0 4153504:14.0 4158165:422.0 4161235:23.0 4175994:1.0 4183384:98.0 4191989:1.0 4192451:1.0 4193014:1.0
0.0 22242:1.0 57590:1.0 127501:1.0 131154:18.0 147260:5000000.0 255994:2.0 316839:5000000.0 435008:7.0 448798:1.0 455255:23.0 559406:2.0 578740:77.0 585138:77.0 619056:1.0 667374:1.0 795073:54.0 820631:1.0 850641:1.0 855409:2.0 885757:2.0 900445:1.0 927788:54.0 929878:77.0 932050:5000000.0 933583:5000000.0 1008898:1.0 1013564:1.0 1052268:54.0 1055511:1.0 1079224:3.0 1112438:1.0 1161025:1.0 1206213:23.0 1225714:2.0 1257033:1.0 1299138:2.0 1366423:1.0 1382010:1.0 1404650:7.0 1468959:1.0 1514267:1.0 1521273:2.0 1536656:7.0 1567443:1.0 1604287:2.0 1701010:1.0 1711870:18.0 1716840:13.0 1753782:23.0 1760366:5000000.0 1783982:1.0 1799886:2.0 1811781:5000000.0 1842625:1.0 1873867:4.0 2055540:3.0 2071555:3.0 2134572:2.0 2163992:7.0 2180059:1.0 2188993:5000000.0 2210684:3.0 2243125:5000000.0 2325507:4.0 2343191:1.0 2391301:4.0 2409788:1.0 2426530:1.0 2491365:23.0 2581227:3.0 2596654:1.0 2600131:4.0 2620410:77.0 2621755:1.0E7 2622701:3.0 2634184:2.0 2720293:1.0 2745932:4.0 2759455:1.0 2802840:2.0 2813897:77.0 2815084:77.0 2817276:2.0 2866309:1.0 2910738:1.0 2913083:1.0 2921645:4.0 2984914:1.0 2998252:1.0 3010942:5000000.0 3024471:2.0 3055673:5.0 3067740:5000000.0 3099058:77.0 3146672:1.0 3176399:5000000.0 3287210:77.0 3304868:5000000.0 3320733:4.0 3334615:1.0E7 3433747:1.0 3487022:1.0 3490760:2.0 3519227:1.0 3548620:2.0 3553993:2.0 3588193:2.0 3606691:1.0 3618319:1.0 3625498:2.0 3628003:54.0 3652393:4.0 3666001:1.0 3676175:5000000.0 3765141:5000000.0 3795776:3.0 3822719:77.0 3865727:1.0 3870296:77.0 3904536:2.0 3919083:77.0 4004797:12.0 4012506:1.0 4013809:1.0 4020572:6.0 4054967:1.0 4126341:1.0 4153504:2.0 4161235:6.0 4189874:1.0
0.0 13012:42.0 24993:3.0 30005:76.0 34229:3.0 48756:20000.0 52294:52.0 61003:6.0 66133:7.0 76124:5.0 76489:1.0 127501:5.0 131154:48.0 133937:1.0 145175:5.0 145188:3.0 165553:29.0 167546:1.0 188332:1.0 211756:1.0 217187:1.0 227397:1.0 234308:2.0 234586:6.0 267802:300000.0 293961:1.0 312650:1.0 316839:930000.0 349267:1.0 359919:2.0 368346:1.0 385054:1.0 401090:65.0 410387:1.0 413160:4.0 428893:1.0 435008:19.0 440130:422.0 440135:483.0 442586:3.0 448798:5.0 455255:422.0 477584:1.0 483870:11.0 490763:1.0 499951:1.0 523378:300000.0 561720:2.0 578740:1305.0 585138:1305.0 589602:1.0 589603:3.0 597561:14.0 604195:20000.0 609501:371.0 622876:3.0 632755:1.0 634099:60.0 638434:300000.0 654753:1.0 662422:1.0 667374:6.0 682968:1.0 695146:7.0 711550:10.0 712161:1.0 714955:3.0 718219:1.0 721134:15.0 721884:15.0 736087:5.0 753075:29.0 760320:10.0 766645:1.0 775565:1.0 793600:1.0 800337:1.0 821129:4.0 828203:66.0 848202:1.0 850806:79.0 856166:1.0 857581:20000.0 858531:1.0 879197:50000.0 893685:371.0 900263:12.0 901065:1.0 902469:62.0 922950:19.0 925633:1.0 927788:1074.0 929878:1305.0 932050:930000.0 933583:930000.0 938385:1.0 962401:2.0 968144:1.0 981886:1.0 989644:1.0 1004123:3.0 1008898:8.0 1018481:1.0 1019811:8.0 1024089:1.0 1028470:5.0 1029623:300000.0 1041690:17.0 1052268:483.0 1055511:5.0 1077458:2.0 1080744:11.0 1088990:1.0 1102218:100000.0 1132432:4.0 1133991:3.0 1136348:49.0 1138899:29.0 1151247:10.0 1157263:9.0 1159946:1.0 1161478:1.0 1166104:8.0 1175765:4.0 1180177:1.0 1200592:1.0 1205039:1.0 1218814:7.0 1221611:1.0 1225612:2.0 1241911:12.0 1248214:2.0 1255756:1.0 1257033:5.0 1263150:6.0 1263517:1.0 1264476:2.0 1273620:1.0 1273967:1.0 1296066:1.0 1309485:12.0 1327162:1.0 1335177:2.0 1338654:1.0 1368437:1.0 1369741:2.0 1375188:48.0 1382010:16.0 1388131:2.0 1391879:2.0 1408423:1.0 1415987:3.0 1443145:2.0 1450451:1.0 1456864:7.0 1465594:1.0 1466963:1.0 1468959:5.0 1475729:3.0 1497000:20000.0 1556975:1.0 1574484:1.0 1574682:1.0 1582933:3.0 1583061:2.0 1600637:50000.0 1601459:710000.0 1604889:1.0 1607812:50000.0 1609492:12.0 1630306:1.0 1639861:16.0 1651415:4.0 1657526:1.0 1673079:1.0 1677058:1.0 1711870:48.0 1716840:33.0 1717933:3.0 1730708:1.0 1745606:1.0 1752289:6.0 1761594:1.0 1765759:2.0 1766559:1.0 1773688:16.0 1778836:1.0 1783364:1.0 1785506:2.0 1790090:5.0 1809421:30.0 1818468:262.0 1842625:1.0 1850638:6.0 1873867:9.0 1875635:1.0 1889748:2.0 1891278:3.0 1892790:3.0 1918388:9.0 1923519:2.0 1931258:2.0 1958875:1.0 1973123:1.0 1979210:8.0 1983828:50000.0 2014212:1.0 2019419:22.0 2022304:8.0 2027273:1.0 2033732:210000.0 2035171:1.0 2044985:2.0 2052819:1.0 2066637:5.0 2091577:510000.0 2119047:159.0 2119277:1.0 2133040:2.0 2135086:1.0 2144062:3.0 2145599:1.0 2149018:12.0 2158459:62.0 2163992:19.0 2169523:1.0 2177915:1.0 2180059:21.0 2186241:1.0 2200537:49.0 2200630:2.0 2227449:7.0 2243125:730000.0 2252163:14.0 2271871:160000.0 2278298:7.0 2279149:2.0 2289609:2.0 2292272:1.0 2323166:3.0 2324731:319.0 2325507:4.0 2341631:8.0 2342393:934.0 2343191:8.0 2349835:7.0 2354535:7.0 2356204:31.0 2372009:5.0 2391227:2.0 2391301:46.0 2401222:8.0 2409788:10.0 2416609:1.0 2418023:6.0 2439873:59.0 2442317:249.0 2467838:1.0 2478492:1.0 2490364:334.0 2491365:263.0 2504543:321.0 2508318:2.0 2514717:4.0 2516406:1.0 2548704:1.0 2557463:4.0 2568479:7.0 2571751:22.0 2578388:4.0 2593697:2.0 2595518:10.0 2600131:52.0 2608643:1.0 2609478:2.0 2612598:1.0 2620410:1305.0 2621755:1360000.0 2625974:24.0 2634184:35.0 2636780:2.0 2638725:4.0 2641268:1.0 2654483:400000.0 2654845:1.0 2659699:4.0 2670798:1.0 2677436:1.0 2681082:4.0 2687892:1.0 2707923:2.0 2719811:1.0 2744221:220000.0 2753998:6.0 2755874:8.0 2757805:4.0 2759455:4.0 2767874:1.0 2769771:2.0 2782786:4.0 2784978:71.0 2787255:1.0 2788444:14.0 2799813:1.0 2802840:11.0 2803012:2.0 2815084:1305.0 2816938:302.0 2817276:19.0 2820435:2.0 2845257:18.0 2852144:8.0 2856037:2.0 2865840:371.0 2868441:1.0 2869915:8.0 2870396:3.0 2880518:3.0 2880853:11.0 2883583:4.0 2894925:1305.0 2895977:3.0 2898322:1.0 2904690:103.0 2919818:10.0 2921157:510000.0 2964224:2.0 2970879:35.0 2975471:1.0 2975932:1.0 2976515:7.0 2988940:1.0 2995485:4.0 2998252:1.0 3002611:5.0 3005627:1.0 3006020:1.0 3008283:4.0 3014938:1.0 3018255:1.0 3035536:451.0 3053718:4.0 3076674:6.0 3082764:7.0 3099257:2.0 3116064:1305.0 3119315:1.0 3130139:1.0 3136260:7.0 3141699:3.0 3181602:50000.0 3182827:1.0 3209321:1.0 3214804:1.0 3236239:19.0 3240229:2.0 3269928:1.0 3274257:1.0 3287210:1305.0 3289378:3.0 3290545:3.0 3304868:930000.0 3306458:3.0 3308783:45.0 3310352:1.0 3320733:47.0 3334615:1660000.0 3337868:12.0 3345242:1.0 3358540:1.0 3359769:1.0 3360848:2.0 3387104:5.0 3392044:6.0 3392438:17.0 3395594:1.0 3395834:3.0 3424477:1.0 3431413:1.0 3431533:1.0 3435480:2.0 3435853:4.0 3453314:15.0 3463037:7.0 3467039:3.0 3472148:1.0 3477515:6.0 3482332:9.0 3482590:5.0 3489987:2.0 3492939:5.0 3496631:2.0 3498014:2.0 3505026:6.0 3512334:1.0 3514457:16.0 3548620:1.0 3551263:6.0 3553993:12.0 3554837:1.0 3556650:1.0 3573608:20000.0 3592663:1.0 3611558:2.0 3620425:1.0 3625498:35.0 3625731:2.0 3628003:854.0 3633350:1.0 3652393:52.0 3652608:2.0 3666001:8.0 3671562:8.0 3672059:3.0 3673711:5.0 3676175:930000.0 3703039:1.0 3710367:19.0 3716084:1.0 3723229:5.0 3769101:3.0 3782536:1.0 3785724:1.0 3804786:19.0 3815751:730000.0 3822719:1305.0 3836942:11.0 3842337:1.0 3848478:5.0 3858868:2.0 3864975:2.0 3867687:1.0 3870571:2.0 3870857:1.0 3876902:1.0 3896279:1.0 3910093:400000.0 3916934:3.0 3921920:1.0 3941377:3.0 3946570:6.0 3957211:1.0 3960343:510000.0 3968504:160000.0 3969756:1.0 3979719:2.0 3993879:20000.0 4029384:1.0 4038040:6.0 4051072:1.0 4055742:1.0 4055768:3.0 4057010:8.0 4059680:1.0 4061416:59.0 4061677:1.0 4069140:3.0 4073537:1.0 4083934:1.0 4084005:2.0 4084682:22.0 4093850:50000.0 4097807:1.0 4121743:200000.0 4130618:2.0 4149982:100000.0 4153504:10.0 4161235:26.0 4178991:1.0 4193014:1.0
0.0 1523:1.0 13012:28.0 24993:1.0 26928:1.0 30005:23.0 37762:2.0 52294:36.0 127501:3.0 131073:1.0 131154:5.0 133055:2.0 145175:1.0 145188:4.0 147260:840000.0 153599:500000.0 159100:4.0 199552:1.0 316839:940000.0 322994:4.0 325831:1.0 345820:2.0 396310:2.0 406712:1.0 411119:4.0 427657:1.0 435008:4.0 440130:26.0 441897:3.0 443955:1.0 445639:1.0 448798:3.0 455255:28.0 480696:1.0 523378:340000.0 556265:340000.0 571380:10.0 589602:5.0 609501:72.0 654828:6.0 667374:3.0 688568:254.0 692264:1.0 721134:7.0 753075:16.0 767497:1.0 789188:500000.0 811758:3.0 821129:1.0 850806:46.0 861230:1.0 893685:226.0 932050:940000.0 933583:940000.0 949275:1.0 962401:2.0 1004475:2.0 1008898:6.0 1013564:2.0 1014814:80.0 1039573:1.0 1041442:1.0 1055511:3.0 1059353:100000.0 1088960:1.0 1090653:254.0 1109891:254.0 1118777:1.0 1130515:6.0 1135802:3.0 1170627:2.0 1206213:254.0 1213986:51.0 1218783:1.0 1227280:1.0 1241911:12.0 1257033:3.0 1329697:3.0 1375188:31.0 1380105:2.0 1382010:6.0 1402360:2.0 1408415:4.0 1417044:1.0 1422377:1.0 1450451:1.0 1468959:3.0 1476615:1.0 1490489:1.0 1564007:2.0 1567443:2.0 1597839:3.0 1601459:100000.0 1634335:1.0 1665856:2.0 1667334:1.0 1696673:100000.0 1701010:2.0 1711870:5.0 1716840:3.0 1730708:3.0 1737796:1.0 1757649:1.0 1760366:840000.0 1809421:12.0 1811781:840000.0 1818468:51.0 1823219:3.0 1892790:1.0 1916719:1.0 1918388:1.0 1919933:4.0 1926485:6.0 1958808:8.0 2022304:6.0 2046866:4.0 2050257:5.0 2090485:4.0 2099822:2.0 2119047:42.0 2131208:1.0 2133760:51.0 2163992:4.0 2178977:1.0 2184615:1.0 2200537:28.0 2242761:1.0 2243125:940000.0 2253297:3.0 2280391:6.0 2299892:10.0 2324731:15.0 2325507:1.0 2342393:26.0 2343191:6.0 2356204:13.0 2391301:18.0 2401222:6.0 2450697:1.0 2483200:2.0 2490364:22.0 2504543:24.0 2519060:2.0 2545435:100000.0 2571751:15.0 2590593:2.0 2596654:2.0 2600131:21.0 2604082:3.0 2611377:51.0 2618873:6.0 2621755:1880000.0 2632197:2.0 2634184:3.0 2635799:4.0 2642170:100000.0 2681082:1.0 2744221:100000.0 2748470:1.0 2753998:2.0 2755659:1.0 2763748:1.0 2770212:3.0 2782786:1.0 2783777:1.0 2801413:1.0 2802840:6.0 2816938:7.0 2817276:6.0 2823133:4.0 2865840:175.0 2866879:1.0 2866941:1.0 2881935:2.0 2913083:2.0 2955300:2.0 2970879:23.0 2976515:9.0 2981391:2.0 3035536:26.0 3037186:1.0 3054290:3.0 3067740:840000.0 3071521:5.0 3127139:1.0 3145624:2.0 3154877:4.0 3166054:1.0 3190640:1.0 3226640:2.0 3287210:254.0 3304868:940000.0 3334477:254.0 3334615:1880000.0 3343077:3.0 3343286:1.0 3347696:2.0 3358540:30.0 3393956:3.0 3453314:7.0 3462001:1.0 3498014:2.0 3505026:1.0 3537837:1.0 3552377:1.0 3564796:1.0 3577339:4.0 3613509:2.0 3625498:3.0 3628003:72.0 3647138:7.0 3652393:21.0 3656623:103.0 3666001:3.0 3673006:2.0 3676175:940000.0 3687049:103.0 3702957:254.0 3757566:1.0 3765141:840000.0 3778713:3.0 3791252:1.0 3804786:17.0 3810126:840000.0 3815751:100000.0 3821365:6.0 3822719:254.0 3854072:1.0 3856907:4.0 3867687:1.0 3918596:6.0 4100926:2.0 4121743:100000.0 4153504:6.0 4158165:254.0 4161235:9.0 4190175:3.0
1.0 13012:115.0 24993:1.0 30005:55.0 37762:67.0 52294:20.0 72838:4.0 88630:4.0 98751:1.0 127501:5.0 131154:25.0 145159:2.0 145175:1.0 145188:14.0 158909:6.0 167546:4.0 167670:10.0 177856:1.0 181590:3.0 231140:28.0 241849:1.0 268165:1.0 276803:6.0 285636:61.0 312650:1.0 316839:170000.0 319274:10.0 355769:10000.0 406102:2.0 407435:50000.0 423822:65.0 435008:8.0 440135:261.0 447940:197.0 448798:5.0 452877:4.0 489401:2.0 519405:1.0 569457:2.0 572175:2.0 573587:2.0 578740:573.0 585138:573.0 598769:1.0 604774:1.0 615357:2.0 652017:12.0 667374:5.0 679640:4.0 682968:4.0 689430:2.0 697930:50000.0 700991:2.0 710239:10000.0 723709:2.0 725213:15.0 730434:2.0 742434:6.0 753075:28.0 760320:6.0 821129:4.0 823715:54.0 827883:1.0 850806:31.0 854829:1.0 857581:160000.0 860570:1.0 879301:2.0 885757:1.0 887281:1.0 893685:195.0 915419:4.0 928002:1.0 929878:573.0 932050:170000.0 933583:170000.0 944386:6.0 985537:4.0 988069:1.0 1007220:4.0 1008898:10.0 1015561:2.0 1049743:2.0 1055511:5.0 1087417:2.0 1097303:1.0 1103216:1.0 1117780:1.0 1138899:134.0 1170627:4.0 1206213:508.0 1230871:1.0 1241911:5.0 1244998:3.0 1257033:5.0 1265300:1.0 1268841:2.0 1288270:1.0 1328185:30000.0 1335395:2.0 1358414:49.0 1364197:3.0 1375188:9.0 1382010:12.0 1405293:1.0 1421677:1.0 1450451:5.0 1456864:3.0 1468959:5.0 1476998:80000.0 1513366:2.0 1516822:573.0 1528868:261.0 1536656:3.0 1541271:1.0 1551887:1.0 1565115:1.0 1565772:1.0 1587421:1.0 1601459:10000.0 1606737:9.0 1639026:2.0 1651469:2.0 1663651:2.0 1685834:2.0 1711870:25.0 1716840:38.0 1722144:1.0 1752505:50000.0 1800963:1.0 1809421:5.0 1818468:196.0 1833797:1.0 1852233:1.0 1863198:2.0 1873867:8.0 1884206:1.0 1913689:1.0 1918388:16.0 1927238:9.0 1931756:3.0 1958179:25.0 1975838:2.0 1993302:1.0 1993572:1.0 2009557:2.0 2011054:1.0 2016198:2.0 2018202:4.0 2022304:6.0 2023414:2.0 2031584:63.0 2043747:2.0 2061848:2.0 2080382:1.0 2083889:2.0 2088513:2.0 2119047:6.0 2132989:5.0 2133760:50.0 2140535:4.0 2163992:8.0 2170693:1.0 2183228:30000.0 2186383:5.0 2194946:2.0 2200537:54.0 2210684:1.0 2216685:4.0 2224137:1.0 2243125:170000.0 2271760:1.0 2278990:10000.0 2296013:2.0 2324731:122.0 2325507:3.0 2342393:311.0 2343191:10.0 2349835:3.0 2356204:18.0 2356242:9.0 2369317:4.0 2383939:11.0 2391301:38.0 2394303:8.0 2401222:6.0 2404062:63.0 2404196:4.0 2415632:1.0 2471831:1.0 2474827:10000.0 2490364:128.0 2504543:137.0 2571751:7.0 2581095:1.0 2581227:1.0 2589625:15.0 2595518:6.0 2600131:22.0 2606199:1.0 2611377:61.0 2620410:573.0 2621755:340000.0 2652150:2.0 2677458:50.0 2681082:7.0 2712958:3.0 2730249:1.0 2744221:170000.0 2782786:5.0 2802840:10.0 2808179:4.0 2815084:573.0 2816938:129.0 2817276:16.0 2821659:50000.0 2843278:1.0 2865840:184.0 2880518:4.0 2886295:2.0 2919818:6.0 2970879:12.0 2976515:7.0 2981391:67.0 2985591:1.0 2995485:4.0 3018298:1.0 3065550:1.0 3083438:1.0 3094081:3.0 3107931:1.0 3116064:573.0 3136260:3.0 3147419:1.0 3150051:5.0 3176399:160000.0 3183101:1.0 3207525:5.0 3209326:6.0 3216826:4.0 3222366:1.0 3285456:1.0 3287210:573.0 3302013:1.0 3304868:170000.0 3334615:340000.0 3392438:15.0 3401555:5.0 3402137:2.0 3425415:8.0 3431533:1.0 3431956:1.0 3446255:30000.0 3449420:1.0 3450252:2.0 3453314:6.0 3490760:1.0 3505026:5.0 3519227:4.0 3533660:1.0 3552477:1.0 3556650:1.0 3569977:5.0 3573608:160000.0 3582009:2.0 3582850:6.0 3584723:10.0 3592860:5.0 3630748:2.0 3643044:30000.0 3652393:22.0 3656623:322.0 3658555:1.0 3666001:7.0 3671087:1.0 3676175:170000.0 3679827:2.0 3728479:1.0 3781269:2.0 3795776:1.0 3801483:5.0 3802363:1.0 3804786:8.0 3811381:1.0 3815751:170000.0 3822719:573.0 3891374:134.0 3925643:30000.0 3926082:6.0 3946472:3.0 3992177:1.0 3993534:2.0 4028224:1.0 4029384:6.0 4053546:50000.0 4071969:1.0 4107890:11.0 4121743:10000.0 4144137:2.0 4145054:1.0 4153504:10.0 4157585:4.0 4161235:17.0 4183509:2.0 4184576:3.0 4184651:4.0 4190329:4.0
0.0 5038:3.0 24993:3.0 52294:16.0 52429:3.0 88630:11.0 110637:5.0 127501:5.0 131154:10.0 145175:3.0 145188:3.0 153599:100000.0 154652:1.0 167546:2.0 242287:5.0 276948:3.0 285636:4.0 289224:1.0 295285:6.0 316839:310000.0 319637:50000.0 369794:2.0 381304:60000.0 437791:1.0 440135:10.0 447940:137.0 448798:5.0 477663:5.0 499218:1.0 503529:2.0 507990:1.0 545689:1.0 560673:50000.0 589602:1.0 600035:223.0 609501:43.0 638434:50000.0 657133:2.0 660320:6.0 667374:5.0 676659:1.0 682968:2.0 700991:2.0 702856:7.0 721134:8.0 730986:1.0 745082:1.0 753075:18.0 759373:1.0 760320:7.0 761598:4.0 762406:1.0 800337:4.0 811865:3.0 818263:1.0 821129:3.0 850806:21.0 857581:70000.0 871299:3.0 885908:1.0 893685:88.0 916142:2.0 932050:310000.0 933583:310000.0 938277:2.0 951685:20000.0 953783:69.0 995729:1.0 1008898:6.0 1027149:223.0 1033993:2.0 1055511:5.0 1056092:1.0 1080863:1.0 1109891:223.0 1129310:2.0 1139202:6.0 1170627:2.0 1181925:4.0 1206213:223.0 1216501:5.0 1255756:2.0 1257033:5.0 1257719:100000.0 1347867:1.0 1375188:12.0 1378437:1.0 1382010:8.0 1398479:3.0 1450451:1.0 1456864:5.0 1468959:5.0 1497445:1.0 1547201:1.0 1552705:1.0 1553350:1.0 1584688:10.0 1601459:150000.0 1607812:50000.0 1628143:1.0 1633898:3.0 1706773:1.0 1711870:10.0 1716840:29.0 1839204:1.0 1873867:7.0 1918388:13.0 1922813:1.0 1934118:1.0 1942832:3.0 1981249:1.0 1991939:1.0 2018202:135.0 2022304:7.0 2057744:1.0 2059898:1.0 2064806:20000.0 2065350:1.0 2086013:3.0 2116884:2.0 2123054:1.0 2133760:31.0 2169467:1.0 2193495:6.0 2200537:24.0 2205748:1.0 2231355:1.0 2240536:1.0 2243125:220000.0 2251723:1.0 2260874:1.0 2314921:1.0 2324731:11.0 2325507:4.0 2342393:135.0 2343191:6.0 2349835:5.0 2356204:7.0 2391301:28.0 2396422:1.0 2401222:7.0 2404062:10.0 2422179:1.0 2427180:1.0 2442317:69.0 2490364:19.0 2504543:14.0 2537619:4.0 2541017:1.0 2548704:1.0 2571751:5.0 2595518:7.0 2600131:11.0 2602680:2.0 2611377:70.0 2616352:50000.0 2616790:1.0 2621755:480000.0 2654483:210000.0 2659287:3.0 2681082:2.0 2727025:3.0 2744221:220000.0 2761181:1.0 2765796:1.0 2777219:1.0 2782786:5.0 2802840:10.0 2816938:8.0 2817276:13.0 2839533:4.0 2851752:1.0 2865840:143.0 2919818:9.0 2941749:1.0 2952293:1.0 2970879:11.0 2976515:5.0 2980904:5.0 3028210:2.0 3037186:1.0 3089942:1.0 3093642:1.0 3101507:66.0 3136260:4.0 3184404:1.0 3208331:1.0 3229618:50000.0 3256803:223.0 3287210:223.0 3290075:4.0 3291796:4.0 3304868:310000.0 3318831:50000.0 3334615:530000.0 3336589:50000.0 3344493:6.0 3392438:13.0 3402137:2.0 3444322:1.0 3453314:4.0 3488795:1.0 3505026:5.0 3513517:50000.0 3534367:1.0 3558203:1.0 3573608:70000.0 3627564:3.0 3628003:43.0 3633350:1.0 3636274:1.0 3652393:11.0 3656623:4.0 3666001:5.0 3676175:310000.0 3702957:223.0 3709660:1.0 3721030:1.0 3723009:3.0 3742758:31.0 3784477:1.0 3785724:1.0 3800531:6.0 3804786:6.0 3806511:3.0 3815751:220000.0 3822719:223.0 3859680:2.0 3868205:1.0 3902328:2.0 3910093:100000.0 3913228:2.0 3976243:5.0 3976477:2.0 4014163:2.0 4016136:1.0 4029384:2.0 4030132:1.0 4038728:3.0 4051072:1.0 4121743:150000.0 4123806:2.0 4131417:1.0 4153504:9.0 4158165:223.0 4158395:50000.0 4161235:12.0
0.0 24993:1.0 145175:1.0 167546:1.0 455255:1.0 600035:1.0 626206:20000.0 667374:2.0 774927:1.0 889026:1.0 919867:1.0 927788:1.0 929878:1.0 1055525:20000.0 1057681:20000.0 1083643:1.0 1109891:1.0 1184975:1.0 1253476:1.0 1536656:1.0 1601459:20000.0 1753782:1.0 1856264:1.0 2047558:1.0 2178099:1.0 2210684:1.0 2240536:1.0 2243125:40000.0 2616352:20000.0 2621755:40000.0 2744221:20000.0 2782786:1.0 2802840:2.0 2815084:1.0 3121652:20000.0 3287210:1.0 3334615:40000.0 3358540:1.0 3505026:2.0 3573608:20000.0 3784435:20000.0 3815751:40000.0 3869344:1.0 3925238:1.0 4121743:20000.0 4153504:2.0 4158165:1.0
0.0 21261:2.0 30005:17.0 33706:1.0 47301:3.0 52294:71.0 66133:2.0 75040:2.0 76724:1.0 91318:6.0 109404:1.0 112276:3.0 127501:2.0 129228:1.0 129638:4.0 131154:5.0 136056:3.0 145188:2.0 152271:1.0 156830:1.0 204116:4.0 220852:3.0 229559:33.0 232545:2.0 254411:1.0 259529:1.0 261649:7.0 281800:5.0 285184:1.0 301017:6.0 307315:4.0 312650:1.0 316839:100000.0 320567:1.0 320688:50000.0 328967:4.0 335500:4.0 337755:7.0 346483:6.0 352455:5.0 359919:3.0 367643:2.0 391915:5.0 402094:3.0 416878:2.0 429003:1.0 434374:3.0 435008:8.0 440135:181.0 443618:4.0 445670:2.0 447380:2.0 447940:57.0 448798:2.0 450044:17.0 454436:1.0 455255:97.0 462166:1.0 475359:38.0 483870:14.0 488891:8.0 502738:2.0 511408:1.0 516008:2.0 517421:2.0 522049:3.0 524190:5.0 526545:50000.0 532852:6.0 538215:4.0 538957:1.0 539544:10.0 542477:5.0 552266:1.0 558497:9.0 566063:1.0 569146:3.0 578740:1011.0 585138:1011.0 586620:2.0 589602:4.0 609501:397.0 621600:40000.0 627082:7.0 634162:7.0 652751:1.0 666394:15.0 667374:4.0 708796:9.0 721134:19.0 740307:3.0 746931:2.0 753075:11.0 779423:1.0 795073:47.0 817003:3.0 821129:2.0 828203:38.0 830086:1.0 835915:263.0 846420:1.0 850806:135.0 856652:3.0 885086:22.0 893685:994.0 905726:1.0 914985:3.0 922950:1.0 927788:1011.0 928258:2.0 929878:1011.0 932050:100000.0 933583:100000.0 934928:1.0 935656:2.0 941935:7.0 947966:2.0 957289:1.0 962861:1.0 1008898:2.0 1014814:24.0 1040114:1.0 1041690:2.0 1052268:17.0 1055511:2.0 1069215:1.0 1080744:14.0 1097666:2.0 1104495:2.0 1115237:1.0 1124501:2.0 1127910:1.0 1138899:38.0 1159103:406.0 1160105:1.0 1170627:8.0 1174685:5.0 1183076:23.0 1198737:1.0 1200592:1.0 1238598:30000.0 1241911:13.0 1249319:1.0 1257033:2.0 1279603:2.0 1296305:1.0 1298108:76.0 1303224:1.0 1305474:15.0 1308191:1.0 1324641:5.0 1325983:1.0 1340411:1.0 1343119:3.0 1375188:103.0 1380648:1.0 1382010:7.0 1386784:2.0 1387845:6.0 1395029:5.0 1395763:9.0 1397740:3.0 1441457:3.0 1448784:3.0 1450451:1.0 1456802:1.0 1468959:2.0 1481692:1.0 1484495:1.0 1491713:2.0 1535968:5.0 1537799:1.0 1558430:1.0 1564800:3.0 1579129:10.0 1584688:164.0 1585595:1.0 1612294:1.0 1621178:1.0 1630306:2.0 1640927:6.0 1663300:1.0 1682192:19.0 1688544:1.0 1691083:1.0 1707234:1.0 1707480:1.0 1709266:2.0 1711870:5.0 1716840:6.0 1732964:6.0 1746009:1.0 1753782:97.0 1779031:2.0 1804205:2.0 1809421:25.0 1824104:1.0 1824998:10.0 1853605:1.0 1869878:80000.0 1891278:6.0 1892790:9.0 1894740:2.0 1900906:9.0 1902449:1.0 1918388:4.0 1928574:7.0 1931258:8.0 1936347:6.0 1952193:1.0 1996521:1.0 2002823:5.0 2018202:263.0 2019419:1.0 2022304:12.0 2040700:3.0 2059450:1.0 2096111:2.0 2096503:1.0 2098339:1.0 2119999:1.0 2133040:6.0 2155391:1.0 2158288:2.0 2163992:8.0 2189502:1.0 2200537:25.0 2225227:3.0 2238886:2.0 2243125:200000.0 2260164:5.0 2273627:2.0 2278818:2.0 2311751:2.0 2324403:1.0 2324731:218.0 2342393:17.0 2343191:2.0 2346512:50.0 2356204:19.0 2356534:2.0 2369389:1.0 2382810:7.0 2391301:15.0 2393638:1.0 2393954:2.0 2401222:12.0 2404062:164.0 2415063:12.0 2421097:1.0 2442161:1.0 2442317:35.0 2453718:200000.0 2477240:4.0 2490364:237.0 2491365:34.0 2493202:200000.0 2499545:16.0 2499821:4.0 2502233:3.0 2504543:253.0 2508120:1.0 2523797:1.0 2540221:4.0 2542226:2.0 2552109:11.0 2557695:3.0 2571751:103.0 2579599:5.0 2592413:2.0 2596456:1.0 2600131:58.0 2611377:38.0 2618193:200000.0 2620410:1011.0 2621755:300000.0 2674104:1.0 2681082:3.0 2683762:4.0 2687337:1.0 2707351:1.0 2753998:58.0 2755645:4.0 2756004:3.0 2759455:5.0 2766140:2.0 2767128:1.0 2769771:1.0 2784922:4.0 2802840:6.0 2813872:1.0 2815084:1011.0 2816938:185.0 2817276:6.0 2825072:1.0 2865840:792.0 2875977:11.0 2876044:3.0 2889802:3.0 2909966:2.0 2912620:1.0 2921112:7.0 2935942:2.0 2937549:2.0 2970879:44.0 2975932:3.0 2976515:19.0 2984310:1.0 2989677:5.0 3003310:3.0 3003935:1.0 3008283:15.0 3044452:2.0 3057191:2.0 3057406:5.0 3079388:1.0 3082951:1.0 3111426:14.0 3112024:1.0 3121756:1.0 3149795:1011.0 3175927:3.0 3197510:4.0 3216306:1.0 3230676:1.0 3250025:1.0 3254110:1.0 3275535:7.0 3286294:1.0 3287210:1011.0 3292345:1.0 3304868:100000.0 3305588:1.0 3307459:1.0 3316678:1.0 3316988:2.0 3332130:3.0 3334615:300000.0 3358399:3.0 3358540:101.0 3360193:1.0 3363707:1.0 3378571:72.0 3381186:1.0 3394589:3.0 3404629:1.0 3418488:4.0 3430087:1.0 3431533:1.0 3447963:1.0 3450613:1.0 3453314:19.0 3476869:1.0 3483086:2.0 3501479:4.0 3505026:4.0 3507027:1.0 3518048:3.0 3519201:100000.0 3536719:4.0 3555820:3.0 3560716:8.0 3566486:2.0 3569662:4.0 3578700:1.0 3607917:4.0 3625679:1.0 3628003:414.0 3652393:58.0 3656623:35.0 3676175:100000.0 3686066:2.0 3687049:35.0 3742682:2.0 3758356:1.0 3765140:1.0 3765619:1.0 3781400:5.0 3804786:68.0 3812711:1.0 3815751:200000.0 3820462:9.0 3821303:1.0 3821365:1.0 3822719:1011.0 3823420:3.0 3842199:2.0 3842337:2.0 3846778:12.0 3848343:1.0 3861968:2.0 3870571:3.0 3885917:1.0 3890244:5.0 3895262:50000.0 3900750:1.0 3912861:3.0 3925153:1.0 3927318:3.0 3938459:200000.0 3938586:2.0 3959346:1.0 3981361:5.0 3994901:1.0 4017852:2.0 4030722:4.0 4034211:1.0 4058809:7.0 4073961:1.0 4078243:76.0 4080593:5.0 4084682:93.0 4088182:6.0 4088479:6.0 4094901:1.0 4149197:10.0 4153504:6.0 4161235:7.0 4177131:37.0 4179411:3.0 4186954:1011.0
