0.0 22242:1.0 131154:6.0 137284:1.0 167546:2.0 556525:2.0 600035:26.0 619056:1.0 667374:2.0 682968:1.0 760320:2.0 821129:1.0 857581:10000.0 877639:1.0 885757:1.0 889026:1.0 919867:26.0 927788:26.0 929878:26.0 983153:10000.0 1008898:1.0 1057681:15000.0 1079224:1.0 1109891:26.0 1164326:1.0 1184975:2.0 1245023:1.0 1377006:1.0 1382010:1.0 1506425:1.0 1536656:3.0 1620713:26.0 1641816:1.0 1711870:6.0 1716840:3.0 1744819:6.0 1771254:1.0 1784705:1.0 1805643:1.0 1818468:26.0 1840316:1.0 1856264:26.0 1873867:1.0 1909063:26.0 1918388:1.0 1925242:1.0 1943379:15000.0 2021443:1.0 2055521:1.0 2063195:1.0 2083353:1.0 2133760:26.0 2178099:1.0 2210684:1.0 2217525:1.0 2243125:25000.0 2343191:1.0 2346587:1.0 2391301:3.0 2595518:4.0 2621755:25000.0 2622701:1.0 2691432:1.0 2759455:1.0 2802840:2.0 2813897:26.0 2815084:26.0 2817276:1.0 2946609:1.0 2998252:1.0 3121652:25000.0 3203471:1.0 3244183:10000.0 3258535:1.0 3287210:26.0 3334615:25000.0 3335270:1.0 3490760:1.0 3505026:2.0 3573608:25000.0 3666001:1.0 3742758:26.0 3784435:15000.0 3815751:25000.0 3870296:26.0 3941377:1.0 4153504:2.0 4161235:5.0
1.0 167546:1.0 667374:1.0 889026:1.0 1057681:25000.0 1184975:1.0 1784705:1.0 1943379:25000.0 2178099:1.0 2243125:25000.0 2621755:25000.0 2802840:1.0 3121652:25000.0 3334615:25000.0 3505026:1.0 3573608:25000.0 3784435:25000.0 3815751:25000.0 4153504:1.0
1.0 37762:230.0 52294:9.0 88630:71.0 106043:1.0 127501:3.0 131154:38.0 312650:1.0 335426:1.0 357853:2.0 513004:1.0 534362:3.0 550419:1.0 578740:365.0 585138:365.0 589602:1.0 638434:60000.0 679754:1.0 699656:7.0 702160:1.0 709760:2.0 710419:3.0 721134:1.0 753075:15.0 756845:20000.0 760320:2.0 818579:4.0 821129:2.0 850806:15.0 885757:3.0 921742:2.0 922950:1.0 924277:3.0 929878:365.0 932050:60000.0 933583:60000.0 962401:2.0 969262:29.0 998902:1.0 1014814:58.0 1041690:1.0 1049743:1.0 1061840:2.0 1080169:1.0 1098293:1.0 1138899:192.0 1176469:1.0 1188823:18.0 1206213:365.0 1257033:3.0 1277576:8.0 1314141:2.0 1317010:2.0 1334725:7.0 1343209:1.0 1382010:3.0 1468959:3.0 1526728:1.0 1536656:11.0 1548099:60000.0 1578008:10.0 1711870:38.0 1716840:13.0 1719676:2.0 1727549:40000.0 1733443:1.0 1791133:60000.0 1809421:1.0 1818468:191.0 1846842:3.0 1848394:1.0 1873045:1.0 1873867:4.0 1896793:3.0 1918388:2.0 1975838:1.0 1978700:3.0 2019419:2.0 2022304:5.0 2081522:2.0 2119047:45.0 2133760:38.0 2200537:15.0 2210684:4.0 2242102:14.0 2243291:2.0 2271907:4.0 2317005:70.0 2321124:1.0 2323506:24.0 2324731:98.0 2325507:4.0 2342393:135.0 2346587:2.0 2352471:3.0 2356204:15.0 2360385:3.0 2380476:1.0 2391301:7.0 2401222:5.0 2404062:135.0 2487234:15.0 2490364:100.0 2502500:8.0 2504543:110.0 2529617:1.0 2548704:3.0 2581227:6.0 2581738:8.0 2595518:4.0 2600131:15.0 2617461:15.0 2620410:365.0 2647572:38.0 2650192:60000.0 2681211:1.0 2741531:1.0 2742917:3.0 2750639:1.0 2759455:2.0 2773495:1.0 2786976:2.0 2796555:12.0 2802840:3.0 2804296:1.0 2808131:1.0 2815084:365.0 2816938:110.0 2817276:3.0 2865840:65.0 2891018:29.0 2895257:192.0 2945082:1.0 2970879:6.0 2981391:230.0 3003381:1.0 3035536:70.0 3066374:1.0 3077411:20.0 3083505:1.0 3149795:365.0 3197836:1.0 3209326:1.0 3238524:1.0 3239639:65.0 3278814:1.0 3287210:365.0 3304868:60000.0 3334615:60000.0 3372812:1.0 3375029:1.0 3431533:1.0 3439238:1.0 3448979:1.0 3453314:2.0 3490760:3.0 3496391:3.0 3497993:4.0 3498014:2.0 3528599:1.0 3529207:1.0 3548620:2.0 3550937:2.0 3633938:1.0 3634268:1.0 3640213:8.0 3643518:34.0 3651177:2.0 3652393:15.0 3666001:1.0 3673721:2.0 3677041:1.0 3785724:1.0 3786228:1.0 3795776:6.0 3812182:3.0 3822719:365.0 3892453:4.0 4029384:1.0 4051072:1.0 4053643:2.0 4097711:1.0 4118007:1.0 4128910:365.0 4136355:1.0 4161235:6.0
0.0 4856:2.0 13012:30.0 24993:2.0 26998:2.0 29398:1.0 30005:61.0 31082:3.0 37762:18.0 45781:1.0 52294:108.0 57408:7.0 58716:4.0 66133:8.0 67753:1.0 79593:2.0 88573:2.0 91555:1.0 105264:1.0 116920:1.0 123229:1.0 126950:5.0 127501:6.0 131154:113.0 133486:1.0 145175:4.0 145994:1.0 147260:650000.0 147530:1.0 152944:1.0 159238:1.0 172786:1.0 177283:4.0 199696:4.0 204256:1.0 204620:4.0 216883:1.0 217052:3.0 217453:1.0 220852:1.0 228610:2.0 229559:276.0 254022:2.0 256892:2.0 261213:1.0 261219:2.0 265560:1.0 268177:2.0 284062:1.0 299709:1.0 316839:7365000.0 331552:15.0 350074:1.0 362410:5.0 393377:1.0 395112:10000.0 403066:2.0 411554:1.0 427818:1.0 435008:2.0 435425:2.0 438104:1.0 440135:158.0 444348:11.0 447940:48.0 448798:6.0 451707:3.0 455255:145.0 456874:1.0 463817:150000.0 472116:6.0 475359:170.0 483870:8.0 490881:1.0 491366:5.0 523446:3.0 546972:500000.0 550591:2.0 553045:2.0 557680:1.0 558994:1.0 571873:1.0 589602:2.0 592041:3.0 594032:1.0 620595:1.0 622174:1.0 637764:3.0 638434:2240000.0 640997:2.0 655512:1.0 667270:8.0 667374:6.0 687905:1.0 690478:1.0 700991:1.0 721134:34.0 744417:1.0 745013:2.0 753075:40.0 757349:1.0 760320:6.0 763135:5.0 771390:2.0 774254:1.0 784579:4.0 791801:1.0 793600:1.0 796145:1.0 808221:11.0 818274:2.0 820926:1.0 821129:1.0 835915:100.0 836556:1.0 839437:1.0 850806:124.0 856270:2.0 858896:1.0 866369:2.0 869065:10000.0 876990:1.0 879197:100000.0 885757:1.0 887108:4.0 893685:295.0 896273:1.0 909879:2.0 911409:2.0 920275:1.0 923795:3.0 927788:167.0 929878:1058.0 932050:7365000.0 933583:7365000.0 935656:3.0 944386:1.0 953783:52.0 962401:6.0 963691:3.0 967309:1.0 977126:1.0 983785:7.0 989999:1.0 995139:1.0 1004475:145.0 1008373:4.0 1008898:9.0 1009348:1.0 1011586:2.0 1011734:1.0 1013564:2.0 1014814:19.0 1021404:1.0 1030159:5.0 1034449:2.0 1055511:6.0 1079224:1.0 1080744:8.0 1083825:1.0 1086187:4.0 1106149:2240000.0 1109891:1058.0 1122913:3.0 1132432:6.0 1138899:170.0 1146080:1.0 1161941:2.0 1166104:5.0 1170627:6.0 1177925:5.0 1188225:9.0 1195627:3.0 1213817:2.0 1229862:1.0 1235065:1.0 1241911:1.0 1247378:1.0 1251425:1.0 1256484:1.0 1257033:6.0 1271586:1.0 1273620:1.0 1276042:60.0 1291173:1.0 1297395:4.0 1298108:158.0 1301639:1.0 1305373:9.0 1314080:1.0 1320551:15.0 1325137:6.0 1332809:2.0 1341621:1.0 1343106:1.0 1354000:6.0 1358693:2.0 1358730:1.0 1367776:6.0 1367788:8.0 1375188:44.0 1382010:14.0 1388808:1.0 1395557:1.0 1400585:206.0 1421149:3.0 1428019:2.0 1430512:1.0 1434165:1.0 1446395:1.0 1456864:6.0 1468033:2.0 1468959:6.0 1470150:6.0 1470952:3.0 1476998:20000.0 1487820:2.0 1493244:19.0 1507078:2.0 1516335:1.0 1517657:6.0 1521897:1.0 1522892:1.0 1525936:14.0 1528868:158.0 1530874:1.0 1536656:3.0 1545548:3.0 1559105:1058.0 1567443:2.0 1587955:1.0 1594694:2.0 1595526:2.0 1600817:1.0 1601459:4590000.0 1605305:5.0 1607672:1.0 1620293:1.0 1638883:1.0 1640927:2.0 1660463:2.0 1663651:1.0 1667499:1.0 1701010:2.0 1704957:1.0 1708971:1.0 1711870:113.0 1716840:48.0 1745091:10.0 1751964:3.0 1756046:6.0 1760366:650000.0 1764477:7.0 1765759:3.0 1767322:1.0 1767559:1.0 1805292:1.0 1807453:2.0 1809421:4.0 1809824:2.0 1811781:650000.0 1813556:1.0 1815688:7.0 1824979:4.0 1827795:1.0 1856264:1058.0 1873867:14.0 1878599:9.0 1891278:6.0 1892774:1.0 1899836:2.0 1900906:12.0 1905840:1.0 1918388:5.0 1921712:1.0 1954041:2.0 1958131:2.0 1970004:1.0 1972734:2.0 1992246:1.0 1993443:4480000.0 1993449:4.0 1995769:1.0 2001159:1.0 2008349:3.0 2018202:152.0 2022304:17.0 2032293:1.0 2043056:2.0 2054838:2.0 2058033:1.0 2059583:3.0 2066953:1.0 2078152:5.0 2083247:1.0 2091204:3.0 2091577:4480000.0 2115197:1.0 2118760:1.0 2119047:70.0 2128545:16.0 2133760:43.0 2145390:1.0 2163992:2.0 2167122:5.0 2177238:1.0 2180059:11.0 2181936:7.0 2199717:1.0 2200537:108.0 2210684:1.0 2228924:2240000.0 2242889:1.0 2243125:5240000.0 2253194:1.0 2257538:3.0 2259275:1.0 2261890:1.0 2262509:3.0 2274350:2220000.0 2294572:8.0 2298462:1.0 2309752:1.0 2317005:21.0 2324731:63.0 2325507:17.0 2327730:1.0 2337046:2.0 2341228:1.0 2342393:745.0 2343191:9.0 2344812:1.0 2346587:6.0 2349835:6.0 2352831:2.0 2356204:74.0 2366767:1.0 2368446:5.0 2380668:3.0 2388732:1.0 2391301:50.0 2395684:1.0 2401222:17.0 2404062:124.0 2409788:7.0 2416031:2.0 2422865:2.0 2436654:2.0 2439466:1.0 2452233:1.0 2468571:12.0 2470577:1.0 2473661:2.0 2490364:97.0 2504543:70.0 2516406:1.0 2516502:1.0 2525867:2.0 2529266:1.0 2534378:1.0 2539982:6.0 2547734:1.0 2548704:1.0 2552838:2.0 2560933:1.0 2563279:3.0 2568563:4.0 2570426:1.0 2571751:40.0 2573397:1.0 2581227:3.0 2584713:1.0 2587786:6.0 2588105:1.0 2593434:1.0 2595518:12.0 2596654:2.0 2600131:105.0 2603487:3.0 2610630:25.0 2611377:581.0 2614643:1.0 2621755:1.0365E7 2622701:1.0 2634184:28.0 2636806:2.0 2647572:18.0 2660584:2.0 2665960:2235000.0 2666260:1.0 2671924:5.0 2676805:21.0 2687775:2.0 2699296:4.0 2707980:2.0 2714882:500000.0 2731624:1.0 2744221:110000.0 2753998:12.0 2759455:4.0 2768091:1.0 2769771:4.0 2776422:1.0 2782786:2.0 2783075:2.0 2798894:1.0 2802464:1.0 2802489:1.0 2802840:12.0 2807305:2.0 2808739:1.0 2811839:2.0 2814040:2.0 2815084:1058.0 2815526:3.0 2816938:36.0 2817276:23.0 2817547:2.0 2820017:1058.0 2833000:2235000.0 2848361:1.0 2858162:1.0 2865840:280.0 2866444:2.0 2879392:4.0 2880110:3.0 2887313:1.0 2889659:1.0 2892688:4.0 2895028:1.0 2895122:1.0 2905467:1.0 2908620:1.0 2911918:2.0 2913083:2.0 2919818:6.0 2930028:1.0 2934330:1.0 2970879:72.0 2973354:4.0 2975932:55.0 2976515:16.0 2978342:11.0 2981391:18.0 2989677:4.0 2992084:1.0 2992507:1.0 2995485:2.0 3008244:1.0 3008283:1.0 3032316:1.0 3035536:21.0 3055673:2.0 3067740:650000.0 3133524:2.0 3136260:3.0 3142368:7.0 3152698:18.0 3154782:1.0 3170261:8.0 3174082:2240000.0 3176399:2760000.0 3190454:1.0 3225174:6.0 3239639:103.0 3250025:1.0 3275908:3.0 3278824:2.0 3287210:1058.0 3290763:1.0 3304868:7365000.0 3320733:28.0 3329328:1.0 3334615:1.2605E7 3360590:2.0 3360848:2.0 3377238:14.0 3383342:1.0 3384111:37.0 3386738:6.0 3392438:10.0 3400352:5.0 3402137:5.0 3412286:6.0 3439973:3.0 3453314:34.0 3464488:1.0 3469022:1.0 3482292:6.0 3490760:1.0 3492982:2.0 3498014:6.0 3505026:4.0 3507859:1.0 3507955:4.0 3508410:2.0 3519227:3.0 3520809:1.0 3548620:1.0 3553025:1.0 3553993:4.0 3558899:1.0 3569352:3.0 3570687:3.0 3577261:1.0 3579577:1.0 3580732:1.0 3588551:1.0 3589129:1.0 3607383:2.0 3609416:2.0 3625498:28.0 3627636:2.0 3628003:206.0 3631403:1.0 3637709:1.0 3638121:4.0 3647964:12.0 3652393:105.0 3652608:3.0 3656623:218.0 3657921:3.0 3665425:1.0 3666001:4.0 3666984:2.0 3671562:5.0 3676175:7365000.0 3686238:1.0 3690971:1.0 3704438:2.0 3735141:3.0 3742758:25.0 3744614:1.0 3745485:1.0 3750393:100000.0 3758528:12.0 3761101:1.0 3763841:2.0 3764834:9.0 3765141:650000.0 3774047:1.0 3785724:1.0 3795776:3.0 3800531:151.0 3804786:34.0 3805186:1.0 3805637:2.0 3810059:1.0 3810181:2.0 3810239:4.0 3815202:5.0 3815751:4590000.0 3821365:4.0 3822719:1058.0 3841123:4.0 3843089:1.0 3850849:1.0 3854474:1.0 3864975:3.0 3883051:2.0 3893920:3.0 3896279:2.0 3918326:2220000.0 3918389:2.0 3919107:2.0 3920620:5.0 3935125:150000.0 3936151:1.0 3941377:2.0 3958656:1.0 3960343:4480000.0 3973800:2.0 3975948:1.0 3976722:9.0 3979719:2.0 3981610:15.0 3986356:3.0 3993232:1.0 4007082:1.0 4011386:150000.0 4029384:5.0 4044056:1.0 4051072:1.0 4056887:3.0 4058809:12.0 4065404:1.0 4084682:245.0 4085743:8.0 4088732:4.0 4093470:1.0 4119274:3.0 4121743:110000.0 4122525:1.0 4122806:6.0 4131852:1.0 4142003:2.0 4153504:11.0 4153986:1.0 4158165:1058.0 4161235:21.0 4175994:1.0 4178991:1.0 4185705:1.0 4193014:1.0
1.0 13012:32.0 41761:1.0 52294:3.0 81237:10000.0 117744:1.0 148883:1.0 167546:1.0 301779:2.0 455255:32.0 462923:1.0 561709:1.0 600035:32.0 667374:1.0 682968:1.0 721134:1.0 821129:1.0 850806:7.0 857581:10000.0 893685:32.0 919867:32.0 927788:32.0 929878:32.0 1008898:1.0 1081862:4.0 1094397:1.0 1109891:32.0 1170627:1.0 1184975:1.0 1375188:5.0 1382010:1.0 1466783:10000.0 1698792:1.0 1716840:2.0 1753782:32.0 1851724:1.0 1856264:32.0 1886659:1.0 1918388:1.0 1949602:1.0 2022304:1.0 2037167:2.0 2145852:1.0 2200537:4.0 2243125:10000.0 2284885:1.0 2324731:1.0 2343191:1.0 2356204:1.0 2391301:3.0 2401222:1.0 2434477:1.0 2490364:2.0 2504543:3.0 2571751:1.0 2600131:2.0 2621755:10000.0 2681082:4.0 2759455:1.0 2802840:1.0 2815084:32.0 2816938:1.0 2817276:1.0 2865840:32.0 2970879:2.0 2976515:1.0 3077005:1.0 3121652:10000.0 3287210:32.0 3305343:1.0 3334615:10000.0 3359798:1.0 3449856:1.0 3453314:1.0 3505026:1.0 3573608:10000.0 3652393:2.0 3666001:1.0 3745409:5.0 3774256:1.0 3804786:2.0 3815751:10000.0 3926909:32.0 3941377:1.0 3984189:2.0 4126239:1.0 4153504:1.0 4158165:32.0 4161235:4.0
0.0 6421:4.0 22242:28.0 24993:9.0 30005:510.0 30273:1.0 45406:1.0 50069:2.0 66133:8.0 70777:1.0 70898:1.0 77537:98.0 88972:1.0 94084:2.0 94098:50000.0 110579:2.0 113710:1.0 120241:2.0 127501:9.0 131154:159.0 131813:3.0 140443:1.0 144470:1.0 145175:9.0 150928:150000.0 155627:1.0 167546:9.0 168973:4.0 171101:4.0 171270:3.0 176677:6.0 183120:6.0 196959:12.0 247863:6.0 257353:1.0 274313:1.0 275774:3.0 275858:9.0 300121:2.0 316839:970000.0 319637:10000.0 327761:1.0 327825:1.0 331148:100000.0 348637:1.0 353643:50000.0 360170:6.0 371701:2.0 380671:9.0 397966:2.0 402728:1.0 418401:70000.0 420633:3.0 435008:2.0 440054:4.0 440130:24.0 442038:10000.0 445845:5.0 447940:88.0 448798:9.0 455255:282.0 465640:1.0 465769:10.0 472232:1.0 475359:58.0 505296:2.0 515781:40000.0 519396:1.0 549415:1.0 568855:2.0 586996:883.0 595102:3.0 605720:2.0 608274:1.0 611957:10.0 614803:1.0 618419:12.0 619056:28.0 619087:4.0 638434:100000.0 655253:1.0 665485:3.0 666008:50000.0 667374:18.0 669180:10.0 671508:6.0 679529:1.0 679640:376.0 682968:9.0 691305:1.0 700991:2.0 723202:1.0 731549:6.0 737740:200000.0 748025:6.0 756977:1.0 760320:19.0 761814:1.0 775687:1.0 786118:2.0 793600:4.0 795073:6.0 797399:1.0 804936:100000.0 806462:4.0 815868:1.0 821129:9.0 841447:5.0 848895:1.0 853682:1.0 857581:320000.0 861728:140000.0 861732:1.0 869202:4.0 878659:1.0 885757:7.0 887494:4.0 890005:1.0 890843:4.0 900958:1.0 902469:47.0 905080:1.0 915838:1.0 919556:2.0 920883:2.0 925633:1.0 928253:3.0 932050:970000.0 933583:970000.0 935656:1.0 937194:3.0 944386:5.0 951647:1.0 956424:10.0 960651:49.0 962401:7.0 986874:8.0 997852:2.0 1002649:1.0 1004475:258.0 1008898:25.0 1012849:1.0 1014814:58.0 1023378:4.0 1023486:2.0 1055511:9.0 1062430:2.0 1075939:1.0 1079224:25.0 1101340:1.0 1109891:1033.0 1110460:1.0 1122299:3.0 1132249:16.0 1132432:6.0 1138815:1.0 1138899:58.0 1142786:1.0 1166104:13.0 1173159:8.0 1184975:2.0 1186733:2.0 1201129:1.0 1201379:2.0 1206213:1033.0 1220042:1.0 1248569:1.0 1257033:9.0 1260664:1.0 1273620:1.0 1296835:1.0 1299824:1.0 1305576:4.0 1316790:1.0 1320332:1.0 1330906:1.0 1345760:3.0 1347502:3.0 1353555:20000.0 1361234:1.0 1363339:1.0 1372793:2.0 1377006:2.0 1382010:30.0 1388307:9.0 1396372:1.0 1400585:47.0 1406768:1.0 1411741:3.0 1427150:11.0 1453224:100000.0 1456864:11.0 1465767:100000.0 1468959:9.0 1479682:22.0 1479909:1.0 1497461:1.0 1498843:2.0 1502182:3.0 1505128:4.0 1505319:2.0 1508865:2.0 1512496:1.0 1513001:2.0 1532029:1.0 1534861:1.0 1536656:21.0 1537069:1.0 1542080:4.0 1559105:1033.0 1567646:1.0 1574264:4.0 1578149:1.0 1584688:92.0 1588511:2.0 1591222:2.0 1601459:710000.0 1611713:2.0 1630627:1.0 1636762:3.0 1643785:6.0 1676734:2.0 1703127:1.0 1711187:2.0 1711870:159.0 1716118:4.0 1716840:106.0 1720497:4.0 1725375:2.0 1725692:2.0 1740857:1.0 1757096:24.0 1775827:3.0 1776439:20000.0 1785506:1.0 1818468:64.0 1834173:7.0 1842625:22.0 1844847:1.0 1856052:4.0 1856264:1033.0 1860537:1.0 1864699:1.0 1867083:7.0 1873867:31.0 1875604:1.0 1878599:5.0 1886084:1.0 1899014:5.0 1910746:1.0 1918388:19.0 1940351:2.0 1985036:3.0 1998120:3.0 1999156:1.0 2005140:1.0 2014084:1.0 2018202:382.0 2028074:4.0 2031584:98.0 2033680:1.0 2039720:1.0 2039844:13.0 2049979:9.0 2067055:1.0 2092080:1.0 2092956:1.0 2096735:1.0 2104906:4.0 2109154:2.0 2112343:50000.0 2114048:12.0 2117923:3.0 2119047:139.0 2133760:74.0 2143544:2.0 2146236:4.0 2153471:1.0 2163992:2.0 2167291:10.0 2175516:1.0 2180059:15.0 2200537:42.0 2205902:1.0 2209213:2.0 2210684:7.0 2214106:1.0 2229284:2.0 2234312:1.0 2243125:1030000.0 2258955:4.0 2260322:2.0 2280142:1.0 2285368:1.0 2325507:8.0 2330527:10000.0 2340409:4.0 2343191:25.0 2346587:21.0 2349835:11.0 2357559:1.0 2374748:70000.0 2381482:1.0 2382389:2.0 2387485:2.0 2391301:85.0 2404062:190.0 2409788:12.0 2409959:2.0 2415317:1.0 2415880:1.0 2422179:1.0 2422865:23.0 2426678:4.0 2466790:1.0 2488621:50000.0 2493746:1.0 2495097:1.0 2502972:1.0 2506821:2.0 2511015:10000.0 2518817:2.0 2541094:1.0 2545408:1.0 2548704:1.0 2557246:4.0 2558096:1.0 2568563:147.0 2572667:2.0 2581227:2.0 2591075:13.0 2595518:42.0 2597678:1.0 2600131:22.0 2609705:3.0 2613962:5.0 2617401:1.0 2621755:1900000.0 2622701:25.0 2632129:1.0 2634184:34.0 2647572:74.0 2653556:15.0 2664439:16.0 2670297:4.0 2675085:1.0 2681084:2.0 2693617:1.0 2700661:1.0 2700910:1.0 2705128:1.0 2725074:1.0 2732747:6.0 2739541:6.0 2742860:5.0 2743738:1.0 2744221:880000.0 2746050:1.0 2748275:1.0 2759529:1.0 2767874:3.0 2775864:7.0 2782786:16.0 2789643:200000.0 2796572:5.0 2797031:4.0 2802840:27.0 2804460:1.0 2813897:1033.0 2817276:30.0 2820017:1033.0 2840932:1.0 2852803:1.0 2860238:310000.0 2862533:2.0 2866188:100000.0 2875129:3.0 2880518:26.0 2901407:1.0 2901814:1.0 2919818:21.0 2940997:5.0 2941748:1.0 2956048:3.0 2973104:4.0 2975932:29.0 2995485:30.0 2998252:26.0 3008283:1.0 3012173:1.0 3014774:2.0 3024505:2.0 3026978:3.0 3031773:4.0 3058673:2.0 3081771:1.0 3101507:6.0 3102306:110000.0 3121652:150000.0 3136260:12.0 3152059:2.0 3152614:2.0 3155433:1.0 3157704:1.0 3169533:2.0 3172775:6.0 3181833:20000.0 3195334:1.0 3202148:1.0 3203468:6.0 3220332:5.0 3230305:2.0 3237590:8.0 3238562:1.0 3238997:1.0 3250025:1.0 3250918:1.0 3251034:100000.0 3251246:2.0 3261120:40000.0 3262166:2.0 3262440:11.0 3262546:220000.0 3264442:3.0 3287210:1033.0 3289407:3.0 3302569:6.0 3304868:970000.0 3320733:44.0 3334615:2000000.0 3348630:1.0 3350179:2.0 3352842:8.0 3358540:121.0 3361913:1.0 3367752:3.0 3379916:8.0 3381770:2.0 3392438:38.0 3402137:149.0 3405688:1.0 3411004:2.0 3430035:1.0 3433868:1.0 3437372:200000.0 3440809:2.0 3443395:1.0 3445097:2.0 3451250:1.0 3460213:3.0 3471612:1.0 3477646:7.0 3490760:7.0 3498014:7.0 3503083:3.0 3505026:18.0 3510206:1.0 3522991:1.0 3526400:1.0 3549264:1.0 3553993:11.0 3572883:20000.0 3573608:320000.0 3577187:2.0 3577247:1.0 3582776:1.0 3586891:1.0 3595098:1.0 3595695:2.0 3604024:10.0 3607995:2.0 3616224:1.0 3625498:34.0 3626993:1.0 3628003:47.0 3632457:4.0 3639297:1.0 3641068:1.0 3652393:22.0 3666001:20.0 3666308:1.0 3671562:13.0 3676175:970000.0 3679410:2.0 3691456:1.0 3699448:1.0 3702957:1033.0 3716459:1.0 3735178:1.0 3742770:5.0 3746711:2.0 3750691:4.0 3754190:8.0 3766575:1.0 3769968:3.0 3772111:10000.0 3772560:100000.0 3784580:2.0 3786095:3.0 3795776:2.0 3798280:3.0 3802039:2.0 3810318:1.0 3815751:1030000.0 3822643:1.0 3822719:150.0 3845318:2.0 3846575:970000.0 3857302:1.0 3870296:1033.0 3876408:3.0 3880491:2.0 3892453:39.0 3898987:1.0 3904536:1.0 3922129:1.0 3934547:16.0 3935262:6.0 3941377:5.0 3943083:1.0 3945775:3.0 3968102:1.0 3971439:2.0 3986355:4.0 3989540:1.0 3990965:1.0 3992277:2.0 4007406:6.0 4022171:3.0 4029384:11.0 4047451:2.0 4078797:100000.0 4080831:7.0 4094140:1.0 4117659:1.0 4121743:710000.0 4122942:1.0 4127172:4.0 4128634:5.0 4141870:1.0 4151133:100000.0 4153504:26.0 4158165:1033.0 4160950:6.0 4161235:77.0 4165832:2.0 4172905:4.0 4178991:1.0 4193014:4.0
0.0 6361:2.0 6984:6.0 24261:2.0 24993:1.0 30005:81.0 37762:910.0 47542:2.0 66133:1.0 74511:3.0 86997:7.0 88069:31.0 108823:1.0 125656:2.0 127501:1.0 131154:100.0 141558:2.0 145175:1.0 148470:2.0 149004:1.0 155106:7.0 165553:44.0 167546:3.0 172922:50000.0 177779:8.0 190425:3.0 202839:1.0 216690:16.0 228794:1.0 229559:2.0 244612:1.0 247503:1.0 312514:3.0 312613:1.0 316839:50000.0 327145:1.0 339123:1.0 343799:1.0 355129:2.0 392298:1.0 401082:1.0 413160:1.0 415383:1.0 435008:3.0 440130:2.0 442699:1.0 446760:3.0 447940:119.0 448798:1.0 455255:2.0 467839:1.0 542052:1.0 552252:1.0 578740:910.0 585138:910.0 632755:1.0 664680:50000.0 667374:4.0 670306:1.0 673738:1.0 682968:3.0 689455:1.0 719622:1.0 738379:7.0 753075:16.0 754717:27.0 760320:6.0 816752:3.0 821129:3.0 828203:45.0 835915:45.0 850806:33.0 856588:1.0 857581:250000.0 859960:8.0 880505:10.0 885757:15.0 918360:1.0 922950:36.0 925149:1.0 929878:910.0 932050:50000.0 933583:50000.0 961609:100000.0 968099:1.0 1003042:2.0 1005029:1.0 1008898:5.0 1036228:1.0 1041690:42.0 1052268:311.0 1054000:1.0 1055511:1.0 1071472:1.0 1074293:7.0 1074563:17.0 1094454:1.0 1104593:1.0 1120759:3.0 1133643:1.0 1138899:71.0 1146283:2.0 1156269:100000.0 1164386:10.0 1166104:3.0 1182670:2.0 1184975:3.0 1191164:31.0 1206213:910.0 1256782:7.0 1257033:1.0 1290216:8.0 1298108:237.0 1322798:1.0 1323766:1.0 1334206:9.0 1344303:16.0 1348842:2.0 1359012:6.0 1374644:1.0 1377006:3.0 1377628:7.0 1382010:5.0 1418289:1.0 1425166:18.0 1456864:3.0 1468959:1.0 1483069:1.0 1497118:1.0 1521068:1.0 1534107:1.0 1536656:49.0 1545601:1.0 1563044:1.0 1584181:4.0 1584688:44.0 1588229:11.0 1597411:18.0 1601459:50000.0 1604705:2.0 1622402:1.0 1638263:2.0 1648814:2.0 1663987:1.0 1704462:8.0 1711870:100.0 1716840:35.0 1733443:2.0 1735484:41.0 1767793:1.0 1784571:1.0 1799443:1.0 1804971:9.0 1805296:9.0 1809421:104.0 1817894:7.0 1831468:3.0 1837544:1.0 1838612:2.0 1842625:1.0 1852012:2.0 1860520:2.0 1864620:1.0 1871448:2.0 1873867:9.0 1878599:3.0 1900287:1.0 1918388:6.0 1945906:5.0 1960267:2.0 1971655:4.0 1994928:1.0 1996250:6.0 1999156:1.0 2017339:50000.0 2018202:45.0 2019419:38.0 2022304:11.0 2026145:36.0 2031584:42.0 2035293:1.0 2061440:910.0 2068531:2.0 2074729:61.0 2086863:1.0 2093256:2.0 2095262:2.0 2099150:2.0 2131241:1.0 2133760:152.0 2163992:3.0 2168138:1.0 2178549:1.0 2181448:2.0 2185394:1.0 2200537:25.0 2210684:17.0 2217117:1.0 2218585:7.0 2243125:300000.0 2251970:1.0 2275173:5.0 2281072:2.0 2284497:1.0 2287463:6.0 2296522:7.0 2324297:25.0 2324731:174.0 2325507:13.0 2343191:5.0 2346587:9.0 2349835:3.0 2356204:33.0 2360152:24.0 2365496:3.0 2372985:8.0 2391301:20.0 2401222:11.0 2404062:329.0 2409788:1.0 2422865:3.0 2452400:1.0 2456970:1.0 2464979:24.0 2478645:1.0 2479996:1.0 2490364:174.0 2491365:42.0 2493066:1.0 2496279:1.0 2504543:174.0 2555501:1.0 2581227:5.0 2583316:1.0 2591075:2.0 2595342:1.0 2595518:18.0 2600131:55.0 2606498:1.0 2613962:1.0 2620410:910.0 2621755:350000.0 2634184:3.0 2665861:1.0 2670798:1.0 2677458:119.0 2693090:3.0 2706738:1.0 2714569:1.0 2733538:1.0 2737337:2.0 2744221:50000.0 2753268:6.0 2769771:2.0 2782786:1.0 2798062:1.0 2802840:3.0 2814495:1.0 2815084:910.0 2816938:174.0 2817276:10.0 2824919:1.0 2830224:8.0 2843833:50000.0 2845547:1.0 2867663:1.0 2880690:3.0 2919818:4.0 2922321:2.0 2939692:1.0 2948617:3.0 2954587:1.0 2965618:2.0 2971674:2.0 2973737:11.0 2975932:5.0 2976193:8.0 2981391:910.0 3013092:39.0 3028619:1.0 3029421:4.0 3071644:1.0 3071751:1.0 3078797:5.0 3099058:910.0 3100483:150000.0 3102728:1.0 3121652:250000.0 3136051:1.0 3136260:1.0 3147722:50000.0 3148008:4.0 3178570:1.0 3180418:1.0 3212932:1.0 3239639:243.0 3287210:910.0 3289783:1.0 3291300:1.0 3296942:35.0 3304868:50000.0 3308211:2.0 3311233:1.0 3313940:3.0 3320733:1.0 3321633:2.0 3330896:1.0 3334615:200000.0 3342197:1.0 3343808:1.0 3358540:108.0 3388559:2.0 3392438:5.0 3446897:5.0 3457787:1.0 3474091:1.0 3476301:1.0 3490760:15.0 3496058:250000.0 3505026:4.0 3509117:2.0 3510567:2.0 3556039:1.0 3556650:1.0 3573608:250000.0 3625498:3.0 3628003:311.0 3633301:5.0 3652393:55.0 3658398:1.0 3666001:4.0 3671562:3.0 3676175:50000.0 3680379:6.0 3684070:6.0 3697475:1.0 3705912:10.0 3714020:1.0 3715366:15.0 3725948:1.0 3734504:1.0 3741616:1.0 3742758:33.0 3795776:5.0 3797813:43.0 3800531:56.0 3802015:6.0 3813392:4.0 3815751:300000.0 3821365:1.0 3822719:910.0 3841160:1.0 3844562:1.0 3856667:1.0 3860520:1.0 3902009:1.0 3921920:1.0 3930945:1.0 3941377:1.0 3954362:1.0 3956555:7.0 3963906:1.0 3974587:17.0 3974709:1.0 4013412:1.0 4029384:2.0 4048707:1.0 4048710:1.0 4061677:1.0 4072262:3.0 4084005:2.0 4084682:220.0 4121743:50000.0 4128634:1.0 4140577:7.0 4140749:12.0 4153504:5.0 4161235:10.0 4162112:1.0 4185345:1.0
0.0 5915:1.0 12881:1.0 24993:3.0 30005:58.0 50526:6.0 52294:46.0 59129:1.0 62142:2.0 66133:1.0 84296:2.0 95640:2.0 125288:1.0 127501:6.0 131154:20.0 145175:4.0 147260:50000.0 155440:3.0 161087:2.0 164048:1.0 167546:1.0 168287:1.0 176447:29.0 177233:1.0 184181:1.0 188954:2.0 196846:1.0 196959:1.0 202557:4.0 207722:1.0 219215:1.0 229559:81.0 232990:1.0 261203:1.0 265458:2.0 284365:1.0 285636:90.0 287919:1.0 316839:700000.0 328967:2.0 331349:1.0 339814:2.0 357310:2.0 369318:2.0 382121:1.0 390566:1.0 393078:1.0 413008:1.0 432472:100000.0 435008:5.0 440130:44.0 443618:2.0 447940:20.0 448798:5.0 450326:1.0 455255:44.0 461171:1.0 472186:1.0 475359:45.0 483870:4.0 493021:1.0 497947:1.0 509556:16.0 522055:4.0 546972:50000.0 549112:400000.0 557680:1.0 558918:1.0 560662:1.0 574319:1.0 586996:461.0 617316:2.0 629445:3.0 637510:1.0 647182:6.0 659447:1.0 664387:4.0 667374:8.0 682968:1.0 688568:461.0 700991:1.0 708075:1.0 713394:1.0 714689:2.0 721134:16.0 739921:1.0 744828:4.0 753075:31.0 753833:1.0 754717:20.0 760199:2.0 760320:1.0 773030:1.0 795965:1.0 814819:4.0 817727:5.0 821129:1.0 825242:2.0 828049:1.0 828203:74.0 831697:1.0 837919:250000.0 850806:62.0 851443:1.0 857581:10000.0 866002:8.0 874453:1.0 876784:1.0 876947:4.0 885757:1.0 886041:75000.0 893685:288.0 900169:1.0 929689:3.0 932050:775000.0 933583:700000.0 935656:1.0 952590:2.0 953783:58.0 958935:1.0 962401:6.0 963255:1.0 1008898:9.0 1013564:1.0 1052919:1.0 1055511:5.0 1061615:1.0 1080744:4.0 1094159:2.0 1094761:6.0 1109891:461.0 1111911:4.0 1114441:1.0 1123425:2.0 1132432:1.0 1138899:65.0 1139725:1.0 1141081:5.0 1149863:250000.0 1158021:1.0 1170627:2.0 1173327:2.0 1184975:1.0 1186114:1.0 1194750:1.0 1201460:75000.0 1206213:461.0 1213213:4.0 1213986:12.0 1216722:1.0 1221240:29.0 1225254:1.0 1239718:1.0 1241911:2.0 1256182:1.0 1257033:6.0 1261066:1.0 1265742:1.0 1276042:10.0 1280899:3.0 1286708:1.0 1298108:16.0 1369679:1.0 1371510:2.0 1374492:2.0 1375188:40.0 1377006:1.0 1382010:12.0 1409208:1.0 1414550:1.0 1435407:1.0 1437799:4.0 1463675:1.0 1468959:5.0 1481504:3.0 1492748:1.0 1512496:1.0 1526438:1.0 1528065:4.0 1536656:3.0 1536879:2.0 1544149:3.0 1567443:1.0 1580290:6.0 1600006:1.0 1601459:370000.0 1603755:6.0 1609694:1.0 1630306:2.0 1630627:1.0 1640927:1.0 1667996:1.0 1683327:1.0 1684992:2.0 1701010:1.0 1710738:2.0 1711870:20.0 1716840:14.0 1725349:1.0 1728095:2.0 1730708:2.0 1743037:1.0 1745288:1.0 1745945:1.0 1750868:10000.0 1760366:50000.0 1765759:1.0 1768721:1.0 1808835:1.0 1809421:3.0 1811781:50000.0 1842625:1.0 1847493:2.0 1872644:2.0 1873867:6.0 1878599:2.0 1889694:1.0 1892790:5.0 1892948:1.0 1899196:6.0 1899651:1.0 1907198:2.0 1907561:1.0 1918388:1.0 1939790:3.0 1952160:1.0 1955766:1.0 1975998:4.0 1983663:2.0 2002853:2.0 2014312:1.0 2018202:74.0 2022304:12.0 2028370:2.0 2031584:29.0 2076026:6.0 2091577:160000.0 2099524:1.0 2106352:1.0 2114048:2.0 2114622:2.0 2121267:4.0 2133760:149.0 2145250:5.0 2161378:5.0 2163992:5.0 2187984:2.0 2188184:20000.0 2188927:250000.0 2197501:2.0 2200537:54.0 2203326:1.0 2210684:1.0 2218318:2.0 2220227:2.0 2222125:1.0 2243125:830000.0 2266137:1.0 2275124:7.0 2285220:2.0 2286001:6.0 2322501:1.0 2324731:20.0 2325507:3.0 2342393:144.0 2342752:2.0 2343191:9.0 2346587:1.0 2356204:18.0 2372009:4.0 2372638:6.0 2391301:41.0 2401222:12.0 2404062:29.0 2409788:1.0 2422865:3.0 2427370:10000.0 2430554:1.0 2442317:10.0 2477240:1.0 2490364:36.0 2493202:400000.0 2504543:42.0 2531544:100000.0 2538345:1.0 2571751:27.0 2591075:4.0 2592413:2.0 2595518:4.0 2596654:1.0 2600131:48.0 2603526:1.0 2606304:1.0 2609131:1.0 2611377:165.0 2613962:1.0 2618193:400000.0 2621755:1605000.0 2642466:4.0 2675515:1.0 2678776:3.0 2690712:4.0 2710654:1.0 2718222:461.0 2744221:210000.0 2750148:1.0 2752336:80000.0 2753141:400000.0 2753998:6.0 2759455:3.0 2760195:100000.0 2762148:1.0 2765005:2.0 2782786:3.0 2802840:14.0 2804831:1.0 2816938:14.0 2817276:17.0 2817547:1.0 2818450:1.0 2826247:1.0 2834696:160000.0 2837279:370000.0 2839477:8.0 2841606:1.0 2852937:2.0 2856037:1.0 2859651:2.0 2865840:223.0 2866098:1.0 2866377:1.0 2875936:1.0 2876044:2.0 2879577:1.0 2902448:1.0 2904690:44.0 2907434:5.0 2913083:1.0 2915190:12.0 2916808:1.0 2921157:160000.0 2958108:1.0 2970879:31.0 2971031:3.0 2972367:1.0 2975932:4.0 2976515:10.0 2984914:1.0 2992769:1.0 3008168:1.0 3008283:2.0 3035536:44.0 3038714:1.0 3041070:1.0 3055673:2.0 3067740:50000.0 3087913:1.0 3089450:2.0 3121045:1.0 3121652:10000.0 3143726:2.0 3176682:1.0 3179445:1.0 3180709:1.0 3262562:2.0 3263747:2.0 3276991:100000.0 3287210:461.0 3304868:775000.0 3311233:1.0 3320733:2.0 3334615:1605000.0 3337920:1.0 3338086:1.0 3340226:1.0 3358540:90.0 3360848:1.0 3393910:6.0 3402137:1.0 3406353:3.0 3424000:75000.0 3437372:100000.0 3453314:15.0 3454173:2.0 3462071:2.0 3472268:1.0 3490760:1.0 3498014:6.0 3503146:1.0 3505026:7.0 3522012:1.0 3523064:1.0 3543804:2.0 3551263:7.0 3573608:10000.0 3585281:10000.0 3596224:1.0 3596499:2.0 3598493:12.0 3645874:2.0 3647432:1.0 3652393:48.0 3652608:1.0 3656623:100.0 3657522:5.0 3661978:1.0 3666001:4.0 3676175:700000.0 3700580:1.0 3702957:461.0 3710164:2.0 3711037:3.0 3714737:1.0 3727673:80000.0 3742758:137.0 3757328:2.0 3765141:50000.0 3774372:3.0 3800531:35.0 3804786:28.0 3815751:780000.0 3821365:4.0 3835127:3.0 3841496:75000.0 3842337:2.0 3856150:2.0 3864975:1.0 3872497:1.0 3875140:1.0 3875283:75000.0 3885236:1.0 3906548:1.0 3921547:12.0 3948136:2.0 3960343:560000.0 3979719:3.0 3984704:3.0 4022937:10000.0 4029384:2.0 4052579:2.0 4062366:1.0 4080593:2.0 4084682:33.0 4121743:210000.0 4121903:2.0 4128634:1.0 4130618:1.0 4142211:1.0 4153504:14.0 4158165:461.0 4161235:16.0 4181265:461.0 4189643:1.0 4191560:1.0
1.0 24993:1.0 52294:4.0 131154:4.0 144349:1.0 145175:1.0 473283:4.0 578740:50.0 585138:50.0 622296:20000.0 640800:1.0 667374:1.0 689430:1.0 700991:1.0 713713:1.0 752914:5.0 760320:1.0 843599:2.0 850806:1.0 919867:50.0 929878:50.0 933229:1.0 944386:3.0 1008898:1.0 1049743:1.0 1206213:50.0 1341152:8.0 1358908:1.0 1360475:1.0 1382010:1.0 1455980:3.0 1456864:1.0 1509233:1.0 1601459:20000.0 1711870:4.0 1716840:3.0 1734519:1.0 1873867:1.0 1918388:2.0 1975838:1.0 2018202:50.0 2069034:1.0 2116376:1.0 2243125:20000.0 2324731:8.0 2342393:50.0 2343191:1.0 2346587:1.0 2349835:1.0 2356204:1.0 2360792:1.0 2368116:1.0 2391301:4.0 2490364:9.0 2491365:50.0 2504543:5.0 2595518:2.0 2600131:3.0 2611377:50.0 2620410:50.0 2621755:20000.0 2660329:1.0 2744221:20000.0 2782786:1.0 2802840:1.0 2815084:50.0 2816938:5.0 2817276:2.0 2828955:3.0 2859489:1.0 2919818:6.0 2930080:2.0 2970879:2.0 3101507:50.0 3116064:50.0 3136260:1.0 3209326:1.0 3215861:50.0 3287210:50.0 3334615:20000.0 3373298:1.0 3392438:10.0 3402137:1.0 3453314:1.0 3505026:1.0 3572787:20000.0 3618227:2.0 3652393:3.0 3666001:1.0 3799455:1.0 3815751:20000.0 4005627:1.0 4121743:20000.0 4134450:6.0 4153504:1.0 4161235:2.0
0.0 1230:277.0 13012:141.0 23317:2.0 24993:4.0 30005:54.0 45076:1.0 51993:1.0 54565:50000.0 66133:2.0 75730:4.0 81540:1.0 121279:3.0 122979:4.0 127501:2.0 131154:59.0 136471:1.0 136548:50000.0 145175:4.0 167546:8.0 173844:1.0 176447:649.0 177647:1.0 184445:3.0 203220:1.0 204687:5.0 211655:1.0 221106:1.0 228440:2.0 235369:4.0 256757:2.0 280802:4.0 285636:51.0 287174:2.0 294014:1.0 299465:3.0 316839:240000.0 344850:1.0 386689:1.0 403005:3.0 404227:1.0 410801:1.0 427255:1.0 427427:1.0 428730:2.0 439914:1.0 442457:20000.0 445233:7.0 448798:2.0 454006:1.0 455255:277.0 455562:1.0 466411:2.0 467776:4.0 481938:1.0 485765:50000.0 502820:1.0 509556:54.0 526742:1.0 554144:20.0 556065:1.0 574327:1.0 581549:1.0 588497:5.0 589156:1.0 596369:4.0 596586:4.0 597980:7.0 613813:1.0 626458:1.0 653223:7.0 656969:1.0 667374:12.0 669086:1.0 682968:8.0 689993:1.0 700991:12.0 712096:1.0 713386:3.0 721134:14.0 729938:1.0 738520:2.0 745082:3.0 748291:3.0 753075:9.0 754717:173.0 758948:1.0 760320:21.0 799060:3.0 800863:1.0 802291:1.0 810255:5.0 812038:4.0 821129:3.0 824808:6.0 827882:1.0 850806:61.0 855534:1.0 857581:220000.0 885757:12.0 908382:7.0 924113:11.0 925633:1.0 931876:30000.0 932050:240000.0 933583:240000.0 935656:1.0 940960:4.0 942303:3.0 944386:7.0 947142:2.0 947825:12.0 951685:50000.0 962401:1.0 978229:1.0 981384:1.0 984153:2.0 991809:4.0 1008898:14.0 1009926:6.0 1010006:1.0 1015362:7.0 1021236:443.0 1026230:2.0 1027446:1.0 1037337:1.0 1038189:10.0 1040689:1.0 1050337:30000.0 1055511:2.0 1074012:200000.0 1076740:2.0 1109891:649.0 1115340:40000.0 1118078:1.0 1132432:2.0 1138899:173.0 1141894:1.0 1165125:2.0 1166104:3.0 1185221:5.0 1190316:5.0 1191947:5.0 1195877:1.0 1206213:649.0 1213986:36.0 1215507:7.0 1215711:1.0 1221240:649.0 1257033:2.0 1270711:1.0 1298108:136.0 1302989:1.0 1305271:12.0 1315373:1.0 1324829:2.0 1337771:50000.0 1343947:12.0 1371140:1.0 1380032:5.0 1382010:18.0 1399281:1.0 1400863:1.0 1409208:1.0 1456177:1.0 1456864:19.0 1462707:1.0 1467147:2.0 1467960:1.0 1468959:2.0 1499084:2.0 1519836:38.0 1536656:37.0 1584688:25.0 1601459:120000.0 1607681:1.0 1607812:30000.0 1613374:4.0 1625796:1.0 1628027:10.0 1663377:5.0 1710253:1.0 1711005:3.0 1711870:59.0 1716840:80.0 1720426:5.0 1727739:1.0 1737935:2.0 1750868:10000.0 1765590:10.0 1765759:2.0 1770335:2.0 1777153:1.0 1780703:1.0 1785506:1.0 1789571:2.0 1795349:3.0 1818468:209.0 1827119:1.0 1830260:1.0 1831337:1.0 1850307:3.0 1856264:443.0 1873867:25.0 1884465:1.0 1896577:1.0 1915247:1.0 1918388:36.0 1919331:1.0 1922464:1.0 1935665:1.0 1963590:1.0 2018202:54.0 2022187:2.0 2022304:8.0 2039279:1.0 2073625:2.0 2100683:4.0 2133760:36.0 2165727:1.0 2168251:1.0 2173939:1.0 2180022:2.0 2180059:8.0 2197665:2.0 2200537:32.0 2204319:5.0 2210684:13.0 2224382:4.0 2243125:340000.0 2245606:1.0 2271964:1.0 2278264:1.0 2289818:1.0 2294145:2.0 2304494:1.0 2311946:2.0 2320386:2.0 2324731:27.0 2325507:8.0 2327162:1.0 2340777:1.0 2343191:14.0 2344285:50000.0 2345032:1.0 2346587:21.0 2349835:19.0 2351242:2.0 2354844:1.0 2356204:61.0 2356976:1.0 2372009:21.0 2374313:7.0 2391225:1.0 2391301:64.0 2401222:8.0 2404062:58.0 2409788:7.0 2430740:1.0 2442317:33.0 2458907:4.0 2467198:2.0 2476837:1.0 2490364:41.0 2504543:12.0 2505294:2.0 2517667:1.0 2544560:8.0 2544854:1.0 2569479:7.0 2579784:1.0 2579917:3.0 2581227:1.0 2586035:1.0 2589553:1.0 2595518:42.0 2600131:36.0 2608994:3.0 2621755:580000.0 2632309:6.0 2634184:21.0 2648419:2.0 2659790:200000.0 2664429:1.0 2707123:7.0 2738322:1.0 2744221:340000.0 2766785:3.0 2772476:1.0 2782786:12.0 2798835:1.0 2802840:14.0 2809684:1.0 2816938:12.0 2817276:30.0 2820017:649.0 2849012:3.0 2854325:4.0 2854657:3.0 2867702:3.0 2900829:50000.0 2910561:1.0 2919818:27.0 2931570:3.0 2946109:2.0 2955808:1.0 2965312:1.0 2987418:2.0 2993984:1.0 2995461:1.0 3008283:1.0 3024471:2.0 3039020:1.0 3083362:1.0 3136260:16.0 3139661:1.0 3148450:2.0 3149922:40000.0 3154843:1.0 3158611:3.0 3170335:7.0 3191635:2.0 3198918:1.0 3208557:1.0 3234656:1.0 3239639:33.0 3250025:1.0 3274348:1.0 3276595:11.0 3287210:649.0 3287297:1.0 3304868:240000.0 3305904:1.0 3320733:28.0 3327418:4.0 3334615:580000.0 3358540:71.0 3392438:50.0 3395775:1.0 3395834:1.0 3402137:12.0 3407760:6.0 3409042:40000.0 3417853:1.0 3425602:4.0 3428198:4.0 3444770:1.0 3446914:2.0 3447294:5.0 3461330:2.0 3462031:9.0 3472899:1.0 3475372:20000.0 3490760:12.0 3492619:1.0 3492656:1.0 3498014:1.0 3505026:12.0 3507204:1.0 3538098:1.0 3553993:11.0 3556650:4.0 3565805:2.0 3571843:1.0 3573608:220000.0 3605256:30000.0 3625498:21.0 3633350:1.0 3637991:5.0 3652393:36.0 3652608:2.0 3656623:51.0 3666001:16.0 3671562:3.0 3675231:4.0 3676175:240000.0 3696453:10000.0 3702957:649.0 3717588:30000.0 3767863:9.0 3795776:4.0 3800531:3.0 3804542:1.0 3805236:1.0 3815751:340000.0 3822719:649.0 3830088:1.0 3864975:2.0 3875845:8.0 3911989:1.0 3941377:3.0 3972130:2.0 3994848:1.0 3996647:1.0 3998936:10000.0 4048629:1.0 4070583:1.0 4080862:4.0 4084682:2.0 4112340:30000.0 4121743:120000.0 4131348:40000.0 4153504:14.0 4158165:649.0 4161235:33.0 4164543:1.0 4177048:1.0
0.0 11594:1.0 24993:1.0 37762:98.0 52294:11.0 69853:2.0 76875:10.0 117578:1.0 127501:2.0 131154:20.0 141243:2.0 142594:1.0 145175:3.0 155440:1.0 164488:254.0 167546:1.0 178344:2.0 187744:5.0 239108:1.0 274926:1.0 279854:1.0 312650:1.0 316839:700000.0 359119:2.0 400904:1.0 448798:2.0 483309:4.0 495418:1.0 495723:4.0 501350:200000.0 570248:2.0 578740:254.0 585138:254.0 638434:506000.0 667374:4.0 682968:1.0 689430:2.0 700991:2.0 705859:1.0 723395:2.0 753075:11.0 760320:4.0 795073:81.0 818056:2.0 818300:1.0 821129:1.0 850806:5.0 857581:200000.0 885757:2.0 895892:1.0 927788:254.0 929878:254.0 932050:700000.0 933583:700000.0 944028:254.0 944386:4.0 956678:2.0 962401:2.0 997638:1.0 1008898:4.0 1021154:1.0 1040689:1.0 1049743:2.0 1055511:2.0 1101340:1.0 1156901:2.0 1159103:98.0 1233571:6.0 1242410:3.0 1257033:2.0 1276042:98.0 1287602:100000.0 1342201:1.0 1373295:1.0 1382010:8.0 1427185:2.0 1442578:1.0 1456864:3.0 1468959:2.0 1536656:6.0 1601459:606000.0 1602846:1.0 1691549:10.0 1711870:20.0 1716840:17.0 1742754:2.0 1788306:1.0 1799268:506000.0 1873867:4.0 1909393:2.0 1918388:7.0 1922626:2.0 1975838:2.0 1979040:1.0 1999155:254.0 2010306:2.0 2015148:2.0 2018202:75.0 2020135:100000.0 2022304:3.0 2044471:1.0 2083844:1.0 2091577:506000.0 2142489:4.0 2189338:6.0 2200537:11.0 2210684:2.0 2243125:806000.0 2324731:47.0 2342393:156.0 2343191:4.0 2346587:4.0 2349835:3.0 2356204:5.0 2387915:16.0 2391301:26.0 2401222:3.0 2423691:1.0 2490364:50.0 2491365:75.0 2504543:44.0 2511015:200000.0 2530573:8.0 2531780:3.0 2548704:2.0 2595518:8.0 2600131:15.0 2611377:75.0 2620410:254.0 2621755:1000000.0 2638104:1.0 2706446:13.0 2744221:300000.0 2750731:1.0 2759455:1.0 2767874:1.0 2770684:506000.0 2782786:2.0 2802840:6.0 2815084:254.0 2816938:44.0 2817276:14.0 2824503:200000.0 2837279:200000.0 2861866:1.0 2865840:81.0 2866257:5.0 2876437:2.0 2896536:21.0 2919818:6.0 2919884:1.0 2970879:6.0 2981391:98.0 3006239:2.0 3018136:1.0 3033410:1.0 3101507:75.0 3115297:2.0 3136260:3.0 3139925:2.0 3149922:500000.0 3174781:8.0 3205134:2.0 3209326:3.0 3213696:1.0 3248376:1.0 3252492:6.0 3287210:254.0 3304868:700000.0 3309531:2.0 3313917:2.0 3317654:500000.0 3334615:1506000.0 3358689:2.0 3360848:2.0 3392438:13.0 3402137:2.0 3428375:4.0 3431533:1.0 3447696:4.0 3453314:3.0 3474174:2.0 3490760:2.0 3498014:2.0 3505026:4.0 3509943:2.0 3548620:2.0 3573608:200000.0 3628003:81.0 3633094:2.0 3652393:15.0 3656623:98.0 3666001:6.0 3669644:1.0 3676175:700000.0 3677963:1.0 3753983:1.0 3766697:2.0 3785061:7.0 3815751:806000.0 3960343:506000.0 3979719:2.0 4029384:2.0 4051072:2.0 4086423:2.0 4094262:1.0 4101145:2.0 4117567:21.0 4121743:100000.0 4138722:5.0 4153504:4.0 4161235:15.0 4183384:81.0
1.0 29231:539000.0 52294:6.0 66133:1.0 115022:83.0 127501:3.0 145175:1.0 145188:9.0 167546:1.0 203941:9.0 229559:84.0 259330:1.0 316839:689000.0 350916:1.0 388945:1.0 438385:1.0 448798:3.0 483870:3.0 555773:2.0 592707:2.0 592924:3.0 609501:84.0 622234:4.0 638434:150000.0 667374:2.0 668960:2.0 682968:1.0 688568:72.0 721134:1.0 753075:6.0 774254:1.0 785051:83.0 794064:2.0 830533:2.0 835915:71.0 840395:1.0 850806:12.0 857581:20000.0 872120:2.0 880570:3.0 888718:1.0 893685:155.0 929878:72.0 932050:689000.0 933583:689000.0 935656:1.0 962401:1.0 989090:2.0 1008898:1.0 1050771:2.0 1055511:3.0 1059915:20000.0 1068639:1.0 1080744:3.0 1090653:83.0 1109891:155.0 1154094:72.0 1184975:1.0 1206213:155.0 1241911:16.0 1257033:3.0 1275258:9.0 1312629:16.0 1324898:1.0 1375188:11.0 1382010:6.0 1398853:1.0 1450451:2.0 1465733:1.0 1468959:3.0 1544145:4.0 1572309:3.0 1601459:539000.0 1633985:3.0 1640927:2.0 1716840:4.0 1743123:2.0 1809421:18.0 1818253:1.0 1831468:1.0 1892790:3.0 1900906:2.0 1918388:4.0 1946924:1.0 2015341:6.0 2018202:71.0 2022304:2.0 2091577:539000.0 2124682:2.0 2196079:539000.0 2200537:30.0 2243125:559000.0 2324731:5.0 2343191:1.0 2351699:3.0 2355993:1.0 2356204:1.0 2376278:13.0 2391301:14.0 2401222:2.0 2490364:6.0 2491365:71.0 2504543:18.0 2548704:2.0 2571751:15.0 2600131:6.0 2621755:1098000.0 2681082:13.0 2708190:1.0 2718040:5.0 2753998:8.0 2759455:5.0 2784666:4.0 2798598:1.0 2802840:5.0 2815084:72.0 2816938:1.0 2817276:5.0 2820017:72.0 2838354:2.0 2865840:155.0 2970879:4.0 2976515:4.0 2998252:1.0 3054532:1.0 3064537:3.0 3121652:20000.0 3176399:150000.0 3287210:155.0 3304868:689000.0 3320746:1.0 3334615:1248000.0 3360848:1.0 3387675:3.0 3400613:7.0 3426976:2.0 3453314:2.0 3496058:20000.0 3498014:1.0 3502843:3.0 3505026:2.0 3519227:2.0 3548620:4.0 3573608:20000.0 3628003:84.0 3652393:6.0 3656714:2.0 3662236:2.0 3666001:3.0 3676175:689000.0 3702957:83.0 3785724:2.0 3791241:1.0 3804786:17.0 3814566:1.0 3815751:559000.0 3822719:155.0 3907143:4.0 3934589:150000.0 3935125:539000.0 3938685:2.0 3941377:1.0 3960343:539000.0 3979719:1.0 4019845:2.0 4048522:1.0 4051072:2.0 4058809:2.0 4125421:4.0 4126007:539000.0 4153504:3.0 4158165:155.0 4161235:17.0
0.0 1230:46.0 4426:9.0 22737:2.0 23690:2.0 24272:4.0 24993:10.0 27036:1.0 30005:46.0 37762:66.0 50801:5.0 52294:54.0 67268:4.0 76647:1.0 83091:4.0 88630:74.0 90495:1.0 96778:1.0 119908:1.0 125596:2.0 127501:7.0 128982:1.0 131154:55.0 131161:2.0 143363:3.0 145175:10.0 145188:23.0 145400:2.0 150250:1.0 152364:2.0 153801:8.0 155440:5.0 156454:1.0 167546:4.0 191583:5.0 200418:100000.0 212911:1.0 215455:1.0 219795:1.0 224832:2.0 227094:1.0 229559:51.0 251004:1.0 269196:1.0 297157:1.0 312650:2.0 316839:1320000.0 326651:1.0 339123:2.0 352408:100000.0 358454:2.0 358564:1.0 360930:1.0 362349:1.0 366787:2.0 376744:2.0 393634:1.0 396259:2.0 396820:4.0 404227:1.0 408431:26.0 432472:100000.0 432721:540000.0 440130:70.0 440135:260.0 448798:7.0 455255:137.0 455513:1.0 497301:3.0 503149:11.0 534730:3.0 553645:1.0 553734:4.0 561311:1.0 570248:1.0 578740:920.0 585138:920.0 589602:5.0 603675:1.0 637510:1.0 638434:200000.0 651612:2.0 652889:1.0 667374:15.0 668727:2.0 673622:1.0 679640:66.0 682968:4.0 685395:1.0 700991:7.0 710005:1.0 721134:13.0 728405:1.0 736664:107840.0 737351:1.0 745082:1.0 745605:1.0 746669:1.0 753075:33.0 754222:10.0 754717:51.0 760320:12.0 786459:8.0 793000:2.0 794763:500000.0 794906:1.0 795073:53.0 813897:1.0 818264:4.0 821129:2.0 828203:96.0 835915:109.0 850806:40.0 856936:1.0 857581:80000.0 858522:1.0 875196:2.0 885757:2.0 888956:1.0 889026:1.0 890799:2.0 893685:313.0 899269:1.0 902469:183.0 921838:3.0 925633:1.0 929878:920.0 931876:20000.0 932050:1320000.0 932613:1.0 933583:1320000.0 943984:1.0 944386:10.0 951685:20000.0 953011:18.0 955174:1.0 955258:1.0 962401:2.0 971673:1.0 983726:1.0 1008898:19.0 1014814:63.0 1017997:2.0 1019755:200000.0 1030140:2.0 1048550:5.0 1052268:167.0 1055125:1.0 1055511:7.0 1057681:107840.0 1067619:2.0 1076947:1.0 1090038:9.0 1124131:1.0 1132432:2.0 1135384:1.0 1138899:51.0 1170627:3.0 1172948:2.0 1183748:300000.0 1184975:2.0 1192880:1.0 1196127:1.0 1206213:920.0 1213986:17.0 1220042:1.0 1225327:1.0 1225740:4.0 1232977:2.0 1257033:7.0 1263132:2.0 1276042:63.0 1279603:1.0 1282858:3.0 1287183:1.0 1295025:2.0 1305951:1.0 1325071:1.0 1331382:1.0 1351431:2.0 1353555:20000.0 1356908:1.0 1359733:9.0 1365529:3.0 1367388:1.0 1372108:70000.0 1375188:21.0 1378669:1.0 1378999:1.0 1382010:21.0 1413805:1.0 1424867:1.0 1425946:13.0 1437080:1.0 1446317:1.0 1450451:6.0 1453984:3.0 1456864:10.0 1468640:1.0 1468959:7.0 1471477:7.0 1478022:20000.0 1491785:1.0 1500415:1.0 1501990:1.0 1506085:2.0 1533016:1.0 1536075:1.0 1536656:6.0 1579243:1.0 1580001:1.0 1584214:107840.0 1584688:47.0 1601459:950000.0 1628683:2.0 1642627:1.0 1645033:1.0 1648980:1.0 1649050:50000.0 1654790:1.0 1691383:1.0 1705415:1.0 1711870:55.0 1712736:2.0 1716840:54.0 1717532:2.0 1753782:21.0 1765759:3.0 1766932:1.0 1768594:1.0 1772804:20000.0 1775796:4.0 1785506:1.0 1792789:1.0 1831468:1.0 1860070:1.0 1873867:12.0 1876120:1.0 1878599:3.0 1880360:1.0 1917928:4.0 1918388:34.0 1920345:2.0 1921643:1.0 1929938:4.0 1939459:2.0 1962338:107840.0 1976598:500000.0 1984073:1.0 1987187:20000.0 1991556:2.0 1996389:3.0 2010613:1.0 2011718:1.0 2014243:1.0 2018097:1.0 2018202:175.0 2022304:13.0 2035658:1.0 2037716:1.0 2038012:4.0 2051413:2.0 2051896:20000.0 2054610:16.0 2061440:66.0 2064782:4.0 2073920:2.0 2102572:2.0 2103071:1.0 2115761:5.0 2121391:11.0 2122213:22.0 2132362:5.0 2133760:17.0 2147440:4.0 2163779:4.0 2180059:4.0 2181749:1.0 2184798:1.0 2200537:79.0 2210684:2.0 2214615:1.0 2234211:1.0 2240361:1.0 2243125:1137840.0 2248768:1.0 2252781:4.0 2262567:2.0 2282004:1.0 2283660:20000.0 2304340:8.0 2305684:1.0 2314035:2.0 2315714:2.0 2317005:74.0 2323170:8.0 2324731:163.0 2325507:1.0 2339519:13.0 2342393:541.0 2343191:19.0 2346587:12.0 2349835:10.0 2352379:13.0 2356204:16.0 2370331:1.0 2380461:1.0 2391301:75.0 2401222:13.0 2404062:121.0 2409788:3.0 2427074:5.0 2436997:2.0 2439724:24.0 2443586:1.0 2454533:2.0 2473635:6.0 2473917:1.0 2482811:13.0 2483134:20000.0 2490364:176.0 2500161:5.0 2501746:2.0 2504543:174.0 2517188:1.0 2523027:1.0 2526103:4.0 2534598:1.0 2540160:17.0 2548704:1.0 2550767:1.0 2571751:11.0 2572493:2.0 2574236:100000.0 2581227:1.0 2594644:200000.0 2595518:24.0 2600131:45.0 2611377:114.0 2617615:1.0 2620410:920.0 2621755:2257840.0 2634184:6.0 2638044:1.0 2646126:2.0 2649723:1.0 2668954:3.0 2677961:1.0 2680614:3.0 2681082:12.0 2698730:5.0 2701385:1.0 2703056:1.0 2716757:2.0 2723376:220000.0 2743325:6.0 2744221:1010000.0 2759797:7.0 2767874:1.0 2771486:6.0 2782786:13.0 2795161:2.0 2795290:1.0 2795650:2.0 2802840:22.0 2813359:1.0 2815084:920.0 2816938:163.0 2817276:32.0 2828363:1.0 2830728:3.0 2837279:720000.0 2862742:1.0 2865840:336.0 2883712:2.0 2919818:19.0 2953066:1.0 2955548:3.0 2969467:5.0 2970879:36.0 2971885:2.0 2975932:2.0 2976515:11.0 2981391:66.0 3010774:1.0 3013614:1.0 3024595:20000.0 3033707:16.0 3035536:144.0 3035559:1.0 3047743:1.0 3060988:4.0 3061050:1.0 3074377:1.0 3080404:4.0 3086522:1.0 3091040:2.0 3101172:1.0 3107092:2.0 3111061:3.0 3121652:127840.0 3123553:4.0 3136260:9.0 3149795:854.0 3170320:1.0 3171976:8.0 3189495:2.0 3214502:1.0 3221220:2.0 3222250:1.0 3230567:1.0 3239990:1.0 3242967:5.0 3265678:2.0 3282663:5.0 3284207:2.0 3287210:920.0 3299835:1.0 3299931:100000.0 3304868:1320000.0 3307826:5.0 3320467:1.0 3320733:10.0 3323943:2.0 3334615:2457840.0 3348896:5.0 3349606:1.0 3358540:137.0 3380640:20000.0 3384963:1.0 3387947:1.0 3389874:10.0 3392438:38.0 3400084:1.0 3401714:1.0 3402137:7.0 3431533:2.0 3433182:3.0 3435762:2.0 3440973:2.0 3451301:6.0 3453314:13.0 3461995:5.0 3476128:1.0 3490760:2.0 3491397:4.0 3496058:20000.0 3498014:2.0 3505026:15.0 3516094:4.0 3520430:2.0 3529982:6.0 3531217:5.0 3542650:1.0 3544202:1.0 3553993:1.0 3556402:1.0 3564028:1.0 3571297:20000.0 3573608:80000.0 3578907:2.0 3587243:8.0 3612295:2.0 3625498:6.0 3627285:1.0 3628003:220.0 3652393:45.0 3652608:3.0 3656623:199.0 3659066:4.0 3666001:15.0 3676175:1320000.0 3685764:200000.0 3687049:136.0 3692333:1.0 3701729:16.0 3713901:1.0 3716352:5.0 3752987:1.0 3771934:3.0 3783670:1.0 3795272:2.0 3795776:1.0 3804786:11.0 3807283:2.0 3812561:2.0 3815751:1137840.0 3822719:920.0 3826648:1.0 3833932:4.0 3839483:20000.0 3841963:4.0 3864975:3.0 3871249:3.0 3872563:14.0 3872678:2.0 3882790:2.0 3923435:3.0 3944285:2.0 3951510:4.0 3967322:1.0 3975471:24.0 3992130:920.0 3995855:3.0 4016586:8.0 4029384:1.0 4059317:1.0 4080199:1.0 4084682:200.0 4088440:1.0 4090629:2.0 4095412:4.0 4114908:20000.0 4121743:950000.0 4122121:400000.0 4124257:6.0 4146458:10.0 4153504:21.0 4156296:6.0 4161235:34.0 4168896:1.0 4178452:7.0 4183384:53.0 4192457:1.0 4193901:2.0
0.0 52294:6.0 110608:1.0 110835:1.0 131154:12.0 286290:2.0 312650:1.0 328967:11.0 355129:11.0 370226:1.0 443618:11.0 483870:1.0 575829:8.0 638434:7149000.0 667374:11.0 688568:44.0 721134:2.0 850806:2.0 929878:44.0 1052825:4.0 1080744:1.0 1109891:44.0 1206213:44.0 1238262:6.0 1382010:1.0 1659175:2.0 1660494:1.0 1711870:12.0 1948992:1.0 2031584:43.0 2133760:1.0 2194988:1.0 2231090:2.0 2243125:7149000.0 2324731:2.0 2342393:44.0 2356204:2.0 2391301:2.0 2402753:1.0 2404062:43.0 2409788:1.0 2442317:43.0 2445687:2.0 2458316:12.0 2460950:1.0 2490364:4.0 2493202:7149000.0 2504543:2.0 2548704:11.0 2600131:6.0 2611377:44.0 2618193:7149000.0 2647572:1.0 2718222:44.0 2759455:1.0 2789584:1.0 2815084:44.0 2816938:2.0 2817276:1.0 2895122:1.0 2938552:2077000.0 2970879:4.0 2995485:3.0 3008283:1.0 3083424:1.0 3100483:7149000.0 3161275:11.0 3250025:1.0 3287210:44.0 3320733:2.0 3453314:2.0 3505026:11.0 3514590:2.0 3544301:1.0 3548620:1.0 3553993:1.0 3652393:6.0 3657837:2.0 3724088:7149000.0 3815751:7149000.0 3822719:44.0 3960343:7149000.0 3978005:2.0 3979719:11.0 3994295:1.0 4002493:3.0 4083448:5072000.0 4158165:44.0 4161235:2.0 4181265:44.0
0.0 34182:44.0 37762:594.0 48568:1.0 52294:6.0 54054:5.0 88069:11.0 103661:71.0 127501:2.0 127692:14.0 131154:85.0 139293:1.0 143228:4.0 155440:2.0 157322:1.0 167546:4.0 193006:3.0 196325:4.0 221216:1.0 247748:15.0 252867:1.0 279783:1.0 296993:1.0 312613:1.0 312650:1.0 316839:20000.0 334503:2.0 338459:1.0 351515:4.0 359919:11.0 364337:71.0 372178:1.0 401543:2.0 413160:2.0 421329:2.0 424782:7.0 440135:107.0 441423:1.0 442586:2.0 443632:1.0 447940:172.0 448798:2.0 454830:1.0 472951:2.0 489564:6.0 498674:2.0 504856:2.0 515781:20000.0 533653:2.0 568855:1.0 578740:701.0 583053:10.0 585138:701.0 632755:1.0 638434:10000.0 664978:392.0 667374:4.0 676592:1.0 682968:4.0 688427:3.0 700991:2.0 706221:6.0 721134:2.0 750525:8.0 753075:7.0 760320:4.0 795073:19.0 798319:1.0 821129:1.0 835915:42.0 836240:4.0 850806:28.0 851626:2.0 857581:70000.0 880840:1.0 885757:10.0 899775:1.0 902605:1.0 922626:1.0 922950:10.0 923630:1.0 927788:118.0 929878:701.0 932050:20000.0 933583:20000.0 953783:22.0 967866:5.0 981769:1.0 1008898:4.0 1023858:1.0 1036228:1.0 1041690:12.0 1055511:2.0 1079224:4.0 1112149:1.0 1127047:1.0 1154278:2.0 1156269:10000.0 1158411:1.0 1166104:2.0 1173589:10000.0 1174744:1.0 1181170:1.0 1184975:1.0 1186543:1.0 1191164:11.0 1199086:1.0 1206213:191.0 1237148:1.0 1257033:2.0 1283573:1.0 1298108:104.0 1318818:1.0 1331828:4.0 1377006:1.0 1382010:6.0 1389183:1.0 1410179:1.0 1456864:3.0 1462039:1.0 1468959:2.0 1528868:70.0 1536656:30.0 1545729:1.0 1584570:2.0 1587421:1.0 1604326:2.0 1646832:1.0 1652412:7.0 1690663:5.0 1693394:1.0 1711870:85.0 1716840:22.0 1728568:9.0 1740868:1.0 1789040:3.0 1795532:1.0 1809421:24.0 1831468:1.0 1853109:2.0 1856987:1.0 1865332:20000.0 1867617:2.0 1873867:3.0 1881408:2.0 1895914:1.0 1918388:5.0 1922195:1.0 1958185:1.0 1974632:1.0 1980632:1.0 2018202:64.0 2019419:12.0 2020603:6.0 2022304:6.0 2031584:191.0 2061440:701.0 2070015:1.0 2074729:11.0 2081343:31.0 2095824:2.0 2125254:1.0 2133760:65.0 2147429:7.0 2162502:4.0 2180059:2.0 2192918:2.0 2200537:7.0 2204397:1.0 2210684:10.0 2219456:3.0 2234950:5.0 2240605:7.0 2243125:70000.0 2290086:3.0 2294292:1.0 2300254:2.0 2314409:1.0 2324731:154.0 2325507:11.0 2333371:6.0 2342393:107.0 2343191:4.0 2346587:4.0 2349835:3.0 2356204:28.0 2378548:3.0 2391301:22.0 2401222:6.0 2404062:502.0 2409788:3.0 2413115:1.0 2442317:65.0 2467302:5.0 2479096:10000.0 2484996:4.0 2490364:156.0 2495059:2.0 2498951:1.0 2504543:153.0 2531747:1.0 2536794:1.0 2548704:1.0 2581227:1.0 2583087:1.0 2595518:9.0 2600131:42.0 2620410:701.0 2621755:80000.0 2622701:4.0 2634184:18.0 2655433:29.0 2669327:1.0 2693198:1.0 2702272:1.0 2722740:1.0 2744221:60000.0 2747431:10.0 2759455:1.0 2769771:9.0 2782786:3.0 2784366:1.0 2797860:9.0 2802840:6.0 2815084:701.0 2816938:153.0 2817276:11.0 2821659:20000.0 2837279:20000.0 2896860:1.0 2906418:1.0 2919818:8.0 2925508:2.0 2946929:1.0 2952665:3.0 2970879:4.0 2981391:594.0 3024595:20000.0 3071644:1.0 3116064:701.0 3121652:10000.0 3128631:1.0 3136260:4.0 3154592:1.0 3222366:1.0 3231537:1.0 3239639:311.0 3254986:1.0 3269481:1.0 3287210:701.0 3290376:1.0 3304868:20000.0 3320733:7.0 3328331:15.0 3329207:2.0 3334116:2.0 3334615:90000.0 3335149:3.0 3345493:3.0 3358540:277.0 3362914:12.0 3392438:12.0 3402137:2.0 3414469:1.0 3418457:20000.0 3420244:2.0 3431533:1.0 3432302:2.0 3453314:2.0 3479562:1.0 3483916:1.0 3490760:10.0 3496058:10000.0 3504405:2.0 3505026:4.0 3535152:5.0 3548620:3.0 3553993:2.0 3556650:1.0 3573608:70000.0 3573626:4.0 3606528:11.0 3610723:3.0 3616565:3.0 3625498:18.0 3651824:15.0 3652393:42.0 3656220:7.0 3656623:70.0 3662103:1.0 3666001:5.0 3671562:2.0 3675654:4.0 3676175:20000.0 3679942:2.0 3725719:1.0 3736419:1.0 3742758:65.0 3750315:1.0 3755678:1.0 3758923:1.0 3760682:1.0 3763737:5.0 3776526:2.0 3777314:1.0 3795776:1.0 3804760:2.0 3815751:70000.0 3822719:701.0 3867887:1.0 3870571:11.0 3889025:2.0 3912249:1.0 3921920:8.0 3941377:2.0 4013424:1.0 4029384:1.0 4036084:2.0 4038210:8.0 4042298:2.0 4053546:20000.0 4059317:1.0 4061677:1.0 4084005:2.0 4084682:64.0 4097627:3.0 4141242:1.0 4153504:5.0 4161235:15.0 4181695:1.0 4183409:13.0
