1.0 131154:5.0 167546:1.0 455255:26.0 667374:1.0 682968:1.0 688568:26.0 745911:1.0 760320:1.0 828203:26.0 857581:20000.0 860673:1.0 885757:1.0 927788:26.0 1079224:1.0 1109891:26.0 1166104:1.0 1184975:1.0 1287702:1.0 1377006:1.0 1536656:5.0 1711870:5.0 1733443:1.0 1753782:26.0 1864129:26.0 2005379:26.0 2180059:1.0 2210684:2.0 2231719:1.0 2243125:20000.0 2343191:1.0 2346587:2.0 2586701:26.0 2595518:4.0 2621755:20000.0 2622701:1.0 2634184:4.0 2683052:1.0 2802840:1.0 2820017:26.0 2836070:1.0 2840204:5.0 2888802:20000.0 2901683:1.0 2998252:1.0 3121652:20000.0 3149793:1.0 3161153:1.0 3241562:1.0 3287210:26.0 3289665:2.0 3320733:1.0 3334615:20000.0 3391697:1.0 3426578:1.0 3490760:1.0 3505026:1.0 3573608:20000.0 3625498:4.0 3664470:4.0 3665524:1.0 3666001:1.0 3671562:1.0 3702957:26.0 3783816:1.0 3815751:20000.0 3822719:26.0 3838931:20000.0 3839278:1.0 3941377:1.0 3977639:2.0 4139904:1.0 4153504:1.0 4158165:26.0 4161235:4.0 4190354:1.0
0.0 22242:2.0 39419:1.0 127501:1.0 131154:5.0 248931:1.0 316839:430000.0 376527:1.0 435064:1.0 440130:80.0 448798:1.0 455255:80.0 461210:1.0 577821:19.0 578740:80.0 585138:80.0 591890:2.0 594421:1.0 611957:1.0 619056:2.0 667374:1.0 669180:1.0 716544:1.0 740367:3.0 775071:1.0 885757:1.0 889026:1.0 927788:80.0 929878:80.0 932050:430000.0 933583:430000.0 962401:1.0 989123:427810.0 1002660:15.0 1008898:2.0 1055511:1.0 1057681:427810.0 1072886:430000.0 1079224:1.0 1214459:2.0 1257033:1.0 1266568:1.0 1292566:1.0 1298108:80.0 1382010:3.0 1427150:1.0 1468959:1.0 1536656:3.0 1699123:1.0 1711870:5.0 1716840:2.0 1770465:1.0 1837659:1.0 1873867:1.0 1878599:3.0 2022304:1.0 2061440:80.0 2166861:2.0 2200537:6.0 2210684:1.0 2243125:427810.0 2252399:1.0 2324731:19.0 2343191:2.0 2370331:1.0 2391301:8.0 2401222:1.0 2422865:3.0 2435841:1.0 2490364:19.0 2504543:15.0 2524854:3.0 2561101:1.0 2600131:3.0 2613962:1.0 2620410:80.0 2621755:857810.0 2622701:1.0 2692218:1.0 2802840:2.0 2813897:80.0 2815084:80.0 2816731:427810.0 2816938:15.0 2817276:3.0 2910849:427810.0 2920904:2.0 2975932:3.0 2998252:2.0 3017636:1.0 3116064:80.0 3176399:430000.0 3247556:3.0 3260770:1.0 3287210:80.0 3304868:430000.0 3334615:857810.0 3358496:3.0 3477598:3.0 3490760:1.0 3498014:1.0 3505026:1.0 3519227:1.0 3564028:1.0 3566742:1.0 3582038:5.0 3615629:427810.0 3652393:3.0 3666001:2.0 3676175:430000.0 3687182:1.0 3754190:1.0 3815751:427810.0 3822719:80.0 3838181:2.0 3870296:80.0 3892453:4.0 3918389:1.0 3963229:1.0 4128634:1.0 4153504:2.0 4161235:6.0
0.0 127501:1.0 131154:4.0 196959:1.0 229559:58.0 285636:58.0 316839:391166.0 448798:1.0 461210:1.0 516411:1.0 529742:1.0 578740:58.0 585138:58.0 628784:1.0 667374:1.0 800337:1.0 885757:1.0 889026:1.0 927788:58.0 929878:58.0 932050:391166.0 933583:391166.0 989123:391166.0 1055511:1.0 1057681:391166.0 1079224:1.0 1095235:1.0 1116554:1.0 1209759:1.0 1257033:1.0 1292566:1.0 1294180:1.0 1421729:391166.0 1442205:3.0 1468959:1.0 1536656:3.0 1624981:15.0 1629495:1.0 1711870:4.0 1716840:2.0 1717703:2.0 1732445:13.0 1864129:58.0 1873867:1.0 1927692:1.0 1999156:1.0 2022304:1.0 2114048:1.0 2200537:5.0 2210684:1.0 2243125:391166.0 2324731:15.0 2343191:1.0 2370331:1.0 2394330:1.0 2401222:1.0 2404232:391166.0 2422865:3.0 2438895:1.0 2490364:15.0 2504543:13.0 2586701:58.0 2591075:1.0 2600131:3.0 2620410:58.0 2621755:782332.0 2622701:1.0 2654483:391166.0 2669739:391166.0 2759455:1.0 2760316:1.0 2802840:2.0 2813781:5.0 2815084:58.0 2816938:13.0 2975932:5.0 2998252:1.0 3149795:58.0 3287210:58.0 3304868:391166.0 3334615:782332.0 3490760:1.0 3505026:1.0 3510732:1.0 3548620:2.0 3564028:1.0 3615629:391166.0 3652393:3.0 3656623:58.0 3663745:1.0 3666001:1.0 3676175:391166.0 3684887:1.0 3815751:391166.0 3822719:58.0 3918389:1.0 3963229:1.0 3986405:1.0 4009735:1.0 4022845:1.0 4087726:4.0 4121347:1.0 4128910:58.0 4153504:2.0 4161235:6.0
0.0 2193:1.0 8437:2.0 13012:6.0 19275:2.0 24993:4.0 52294:15.0 91159:1.0 127501:6.0 131154:11.0 145175:4.0 145188:8.0 154552:1.0 155440:4.0 165553:50.0 283280:1.0 300965:1.0 308853:40000.0 312650:2.0 314295:1.0 316839:2109711.0 324087:1.0 331935:3.0 336337:1.0 352916:1.0 362454:1.0 366900:2.0 376720:2.0 376741:1.0 378846:2.0 427058:2.0 440135:142.0 448798:6.0 461210:1.0 467493:2.0 468867:2.0 476817:1.0 501382:2.0 526746:1.0 555339:1.0 578740:305.0 585138:305.0 609501:56.0 642060:2.0 656368:3.0 659254:200000.0 667187:1.0 667374:6.0 700450:1.0 703870:2.0 721134:7.0 727668:1.0 735523:40000.0 736664:671943.0 758318:50000.0 760320:2.0 776372:1097768.0 782261:2.0 795073:57.0 820987:1.0 828203:50.0 850806:36.0 869065:250000.0 889026:2.0 893685:198.0 927788:305.0 929878:305.0 932050:2109711.0 933583:2109711.0 944386:2.0 955248:2.0 964265:1.0 989123:1097768.0 1008898:6.0 1020523:1.0 1055511:6.0 1057681:1769711.0 1074012:50000.0 1100555:3.0 1138899:50.0 1144123:3.0 1148056:1.0 1148416:50000.0 1159475:3.0 1170627:9.0 1184975:1.0 1186380:1769711.0 1188126:1.0 1214697:3.0 1222086:8.0 1257033:6.0 1297437:671943.0 1298108:142.0 1311299:1.0 1344794:1.0 1375188:20.0 1382010:6.0 1396209:1.0 1427997:200000.0 1450451:2.0 1456864:2.0 1468959:6.0 1476606:2.0 1478412:1.0 1486716:3.0 1494232:50000.0 1495333:2.0 1502593:1.0 1548251:4.0 1574289:1.0 1584214:671943.0 1584688:142.0 1601459:340000.0 1638199:3.0 1654790:1.0 1672985:1.0 1681563:1.0 1688925:1.0 1706564:6.0 1711870:11.0 1716840:10.0 1720251:3.0 1791821:6.0 1840591:1.0 1873867:2.0 1878599:6.0 1895389:5.0 1911032:2.0 1918388:8.0 1926083:1.0 2022304:4.0 2026285:1.0 2061440:305.0 2109377:1.0 2133760:51.0 2180776:1.0 2188657:8.0 2200537:22.0 2243125:2109711.0 2249546:1.0 2298365:1.0 2317005:6.0 2320920:2.0 2324731:54.0 2342393:107.0 2343191:6.0 2343203:1.0 2346587:2.0 2349835:2.0 2356204:7.0 2357069:1.0 2372638:2.0 2391301:20.0 2398954:1.0 2401222:4.0 2404062:148.0 2404272:1.0 2425506:1.0 2476501:50000.0 2490364:61.0 2491365:50.0 2504543:59.0 2555023:2.0 2571751:5.0 2583873:2.0 2595518:4.0 2596581:1.0 2600131:15.0 2620410:305.0 2621755:4219422.0 2677458:51.0 2678934:1.0 2681082:4.0 2692306:1.0 2696439:4.0 2720775:1.0 2744221:340000.0 2747121:8.0 2748038:1.0 2753998:2.0 2759455:6.0 2782786:4.0 2802840:12.0 2815084:305.0 2816938:55.0 2817276:8.0 2837279:1859711.0 2844760:9.0 2865840:107.0 2919818:4.0 2940035:1.0 2970879:10.0 2975932:2.0 2976515:3.0 2982022:1.0 3034358:6.0 3035536:56.0 3035904:2.0 3047744:1.0 3051656:14.0 3062012:27.0 3079362:50000.0 3093270:8.0 3121652:671943.0 3133300:6.0 3136260:2.0 3139090:1.0 3139661:1.0 3213801:2.0 3214502:1.0 3243336:26.0 3287210:305.0 3299939:1.0 3304868:2109711.0 3334615:4219422.0 3367066:200000.0 3392438:9.0 3408088:2.0 3431533:2.0 3453314:5.0 3470957:1.0 3505026:6.0 3509411:2.0 3525074:2.0 3548620:12.0 3555146:6.0 3561177:1.0 3568583:1.0 3615629:1097768.0 3626339:1.0 3628003:56.0 3642265:1.0 3643850:1.0 3652393:15.0 3659039:4.0 3666001:6.0 3676175:2109711.0 3683821:1.0 3683950:1.0 3703647:1.0 3743441:40000.0 3775424:1.0 3804786:4.0 3815751:2109711.0 3816983:3.0 3822719:305.0 3843274:1.0 3857026:8.0 3883266:1.0 3963229:1.0 4044611:2.0 4052575:8.0 4111488:2.0 4112142:1.0 4121743:340000.0 4153504:12.0 4161235:30.0 4175994:2.0 4186954:305.0 4188772:1097768.0 4190577:1.0
0.0 13012:133.0 22242:4.0 30005:28.0 88630:1.0 110072:1.0 123136:1.0 127501:2.0 131154:55.0 155440:2.0 196959:7.0 282609:2.0 304526:1992969.0 316704:1.0 316839:3191000.0 328967:1.0 330078:274.0 443618:1.0 448798:2.0 455255:17.0 461210:1.0 472116:4.0 509556:22.0 530659:2.0 543623:2.0 579788:1.0 605802:1.0 611957:2.0 617538:1.0 619056:4.0 667374:2.0 669180:2.0 697925:1.0 727770:1.0 754717:1.0 760320:2.0 821129:2.0 828203:24.0 835308:1.0 849161:1.0 875815:1197985.0 885757:2.0 889026:1.0 925809:1.0 932050:3191000.0 933583:3191000.0 966794:2.0 982298:1.0 989123:1197985.0 1004475:17.0 1008898:4.0 1013191:3.0 1031278:5.0 1052738:1.0 1055511:2.0 1057681:1197985.0 1064653:1.0 1076203:1.0 1079224:14.0 1081891:1.0 1084144:1.0 1100054:1.0 1109891:274.0 1132432:1.0 1133895:8.0 1138899:12.0 1144755:20.0 1165518:1.0 1201247:1.0 1206125:2.0 1206213:73.0 1213986:127.0 1223680:3.0 1230875:1.0 1245689:1.0 1250756:4.0 1257033:2.0 1298108:17.0 1317460:4.0 1335460:4.0 1375753:1.0 1382010:4.0 1427150:3.0 1433097:5.0 1456864:3.0 1465372:2.0 1468959:2.0 1536656:6.0 1558296:2.0 1584855:1.0 1585543:2.0 1609030:1.0 1632155:1.0 1655434:1.0 1673711:201.0 1700925:1.0 1711870:55.0 1716840:25.0 1724156:2.0 1734933:1.0 1743480:1.0 1757757:5.0 1767912:1.0 1770310:31.0 1785306:1.0 1794368:1.0 1803521:1.0 1841987:1.0 1854245:2.0 1873867:11.0 1878599:9.0 1918388:2.0 1943386:1.0 1946028:7.0 1960332:3.0 1969641:5.0 1969794:1.0 1986553:1.0 1994268:1.0 1999156:7.0 2004083:2000000.0 2018202:79.0 2031584:13.0 2092187:4.0 2114048:7.0 2125473:1.0 2125842:1.0 2133760:127.0 2154310:2.0 2173500:1.0 2176840:1.0 2180059:5.0 2200537:57.0 2206562:1.0 2210684:2.0 2217238:1.0 2243125:3190954.0 2258606:5.0 2325507:3.0 2343191:4.0 2346587:4.0 2349835:3.0 2369141:1.0 2370404:3.0 2386104:1197985.0 2391301:12.0 2404062:39.0 2422865:32.0 2437213:1.0 2474424:274.0 2491365:23.0 2493202:1992969.0 2529373:1.0 2531198:2.0 2540160:26.0 2551123:2.0 2591075:7.0 2591887:1191000.0 2595518:6.0 2600131:3.0 2612387:1992969.0 2613962:6.0 2615650:1.0 2618193:1992969.0 2621755:6381954.0 2622701:14.0 2634184:20.0 2640235:1.0 2656719:1.0 2688060:4.0 2694655:4.0 2739195:5.0 2791054:3.0 2801837:1.0 2802840:4.0 2813897:274.0 2817276:4.0 2837279:3191000.0 2857230:2.0 2877850:2.0 2895257:11.0 2910068:3.0 2919818:1.0 2933134:1.0 2936727:1.0 2965429:1.0 2975932:48.0 2998252:4.0 3044555:1.0 3068132:1.0 3086359:1.0 3101507:57.0 3128825:1.0 3153859:1.0 3171789:1.0 3214508:1.0 3219322:5.0 3239206:1.0 3239639:26.0 3249079:1.0 3261954:1.0 3287210:274.0 3294555:1.0 3304868:3191000.0 3312669:1.0 3319624:2.0 3320733:10.0 3334615:6381954.0 3392438:1.0 3418488:1.0 3436396:1.0 3475035:1.0 3489197:1.0 3490760:2.0 3505026:2.0 3507622:2.0 3514148:274.0 3549263:1.0 3553993:4.0 3615629:1197985.0 3625498:20.0 3636691:5.0 3652393:3.0 3666001:2.0 3676175:3191000.0 3702957:274.0 3721830:1.0 3754190:2.0 3800531:22.0 3815751:3190954.0 3822719:274.0 3823384:1.0 3843117:1.0 3847835:2.0 3870296:274.0 3892453:9.0 3899920:1.0 3918389:2.0 3934385:5.0 3938459:1992969.0 3963229:1.0 4025703:1.0 4029384:3.0 4033510:1.0 4048104:1.0 4052484:1.0 4073661:1.0 4128634:8.0 4135061:6.0 4153504:4.0 4155789:1.0 4158165:274.0 4161235:10.0 4168382:4.0 4182128:2.0
0.0 1230:8.0 13012:11.0 29360:1.0 30005:33.0 38669:1.0 43631:1700000.0 45847:1.0 66133:6.0 87839:1.0 95836:4.0 106868:1.0 116899:1.0 127501:24.0 131154:133.0 133970:1.0 138919:1.0 155440:1.0 162659:4.0 164678:2.0 165553:11.0 189727:2.0 192827:5.0 195261:2050000.0 202009:1.0 239432:9970000.0 244678:1.0E7 255987:1.0 256056:1.0 257998:1.0 264338:1.0 275889:1.0 285636:10.0 302006:1.0 316839:1950000.0 317849:2.0 324936:1.0 333974:1620000.0 368217:1.0 394904:398.0 400151:1.0 406442:1.0 406881:1.0 433813:1.0 435008:3.0 448798:1.0 452848:20.0 455255:124.0 465408:1.0 491768:3.0 507060:1.0 513260:550000.0 543346:2.0 561159:20.0 572799:1.0 603749:2.0 611957:1.0 618493:5.0 638434:1.1E7 653078:4.0 667374:20.0 669180:1.0 670961:1.0 679640:18.0 692287:3.0 700727:1.0 713394:23.0 723679:2.0 746072:3.0 754717:27.0 761241:1.0 788149:3.1554E7 793600:1.0 795073:107.0 819298:4.0 824703:1.0 824917:1.0 828203:28.0 835915:20.0 841826:1.0 846022:1000000.0 863638:1.0 885757:12.0 886041:3.92E7 888429:3.0 915262:1.0 922950:7.0 925633:29.0 932050:4.115E7 933583:1950000.0 945446:4.0 947901:3.0 953783:13.0 962401:16.0 966805:1.0 974848:1.0 981741:3.1554E7 988431:1.0 992045:1.0 994916:2.0 1004475:116.0 1012903:1.0 1014814:12.0 1046940:560000.0 1050558:1.0 1052170:5.0 1052268:11.0 1055511:1.0 1079224:37.0 1109891:398.0 1132432:2.0 1138899:46.0 1142287:4.0 1206213:398.0 1225254:23.0 1244296:4.0 1255949:1.0 1257033:24.0 1274990:5.0 1276042:9.0 1287012:1.0 1288190:500000.0 1298108:9.0 1312487:1.0 1312595:1.0 1358202:1.0 1366809:1.0 1393572:1.0 1400585:9.0 1402066:34.0 1423055:1.0E7 1427150:3.0 1431733:1.0 1448013:1.0 1468959:1.0 1477546:1600000.0 1492159:1.0 1493054:1.0 1493661:3.0 1497888:1000000.0 1503220:1000000.0 1507514:1.0 1517964:1.0 1522133:1.0 1522620:4.0 1522941:1.0 1524394:1.0 1527303:1.0 1529797:1.0 1536656:36.0 1546887:3.1554E7 1581112:7.0 1589263:1.0 1594160:1.0 1613393:2.0 1618887:3.0 1619359:2.0 1619657:1.0 1632828:1.0 1633661:1.0 1669190:4.0 1711870:133.0 1712470:2.0 1716840:49.0 1746202:1100000.0 1761385:497000.0 1786738:9.0 1797089:2.0 1856264:398.0 1859053:1.0 1864129:398.0 1873867:6.0 1894722:3.0 1924512:1.0 1934364:5.0 1937788:1.0 1953193:6.0 1971631:1.0 1995234:1.0 2003071:20.0 2003079:1.0 2018202:52.0 2018451:1.0 2019419:12.0 2022224:500000.0 2022247:1.0 2031584:90.0 2036548:10.0 2058561:1.0 2060427:1.0 2091852:3.0 2098608:1.0 2103714:1.0 2105815:1.0 2119047:81.0 2133760:21.0 2156245:1.0 2160237:2.0 2160317:1.0 2163992:3.0 2178844:20.0 2180059:1.0 2200537:3.0 2210684:12.0 2226591:500000.0 2243125:3.1554E7 2263340:2.0 2285567:2.0 2317005:2.0 2325507:9.0 2334741:1.0 2343191:21.0 2343496:3.0 2350494:2.0 2352177:1.0 2371914:25.0 2404062:104.0 2409788:3.0 2416431:1.0 2434194:1.0 2440897:1.0 2450522:5.0 2452873:1.0 2477656:4.0 2491365:9.0 2492358:1.0 2520754:3.0 2529593:1.0 2548704:3.0 2555460:1.0 2567988:30.0 2584554:1.0 2586701:398.0 2600131:32.0 2600826:1.0 2616468:1.0 2621755:6.1704E7 2622701:37.0 2634184:1.0 2640010:2.0 2640344:3.0 2642809:1.0 2647572:12.0 2653175:1.0 2674082:7480000.0 2677458:9.0 2686735:1000000.0 2744307:1.0 2746630:9520000.0 2759532:1.0 2774075:1.0 2776208:1.0 2781147:1.0 2798352:1.0 2798764:2.0 2802840:44.0 2812800:1000000.0 2813805:1.0 2816133:1.0 2837279:1950000.0 2859875:2040000.0 2861499:6.0 2866098:20.0 2876156:4.0 2882496:2050000.0 2883789:2.0 2888280:1.0 2895257:8.0 2967183:20.0 2975932:3.0 2981946:1.0 2984748:6.0 2995485:1.0 2998252:1.0 3015892:1.0 3018661:3.1554E7 3024471:2.0 3037089:5000000.0 3043961:1.0 3045786:1.22E7 3051264:2050000.0 3101507:1.0 3106471:1.0 3111128:1.0 3121623:10.0 3132612:1.0 3210895:2.0 3220164:2.0 3235142:1.0 3239639:12.0 3247794:2520000.0 3251588:1.0 3263784:1.0 3277611:1600000.0 3287210:398.0 3302602:5000000.0 3304868:4.115E7 3306064:1.0 3320733:7.0 3328324:1.0 3334615:7.2704E7 3351223:4.0 3358540:9.0 3382985:1.0 3388352:18.0 3395834:4.0 3438425:2.0 3450180:1.0 3456870:1.0 3490760:12.0 3498014:16.0 3511775:1.0 3513520:2492000.0 3514134:2.0 3529207:2.0 3548668:1.0 3550138:1.0 3553952:6.0 3553993:1.0 3562773:1.0 3572082:1.0 3572599:2.0 3588914:3550000.0 3620926:1.0 3625498:1.0 3628003:32.0 3633514:3.0 3652235:2.0 3652393:32.0 3656623:19.0 3672408:3.0 3676175:1950000.0 3677225:2.0 3702957:398.0 3705418:13.0 3735230:1950000.0 3737181:20.0 3754190:1.0 3782114:1.0 3794749:1.0 3796358:1000000.0 3800531:49.0 3820104:1.0 3822719:398.0 3832175:2.0 3841496:2.92E7 3859981:1.0 3869266:1.0 3875283:3.92E7 3892453:6.0 3894302:1699000.0 3946072:1.0 3970424:1095000.0 3974888:1.0 3980218:4.0 3990497:1.0 3992639:1.0 3994725:4.0 4006710:1.0 4029384:3.0 4030936:1.0 4056110:1000000.0 4069259:2511000.0 4074085:1.0 4077254:6.0 4080540:6.0 4084682:50.0 4125809:1.0 4127378:4.0 4131750:1000000.0 4132531:1.0 4135033:2.0 4148225:1.0 4153504:41.0 4155188:3.0 4158165:398.0 4161235:22.0 4169069:1.0 4178991:1.0 4180841:3.1554E7 4181265:398.0 4183384:12.0 4188465:3.0 4193014:1.0 4193882:1.0E7
0.0 13012:38.0 37762:38.0 52294:3.0 62874:40000.0 81237:30000.0 81887:1.0 104564:3.0 127501:3.0 131154:11.0 167546:2.0 272903:1.0 316839:120000.0 321514:30000.0 369438:120000.0 378559:3.0 448798:3.0 638434:50000.0 667374:2.0 682968:2.0 721134:1.0 753075:15.0 760320:1.0 795704:1.0 821129:2.0 821372:2.0 835915:58.0 850806:2.0 857581:80000.0 885757:1.0 890250:4.0 893685:58.0 894652:1.0 912540:1.0 929878:96.0 932050:120000.0 933583:120000.0 942983:58.0 972904:2.0 1008382:1.0 1008898:4.0 1055511:3.0 1064791:1.0 1072771:1.0 1109891:96.0 1146981:1.0 1184975:2.0 1206213:96.0 1220914:3.0 1240724:5.0 1257033:3.0 1344671:1.0 1354133:6.0 1358975:50000.0 1377006:1.0 1382010:5.0 1468959:3.0 1473978:50000.0 1536656:3.0 1711870:11.0 1716840:7.0 1820556:2.0 1873867:2.0 1918388:2.0 2018202:58.0 2022304:2.0 2027555:4.0 2079003:1.0 2133760:38.0 2150364:1.0 2196964:1.0 2200537:21.0 2210684:1.0 2225789:3.0 2243125:80000.0 2301758:11.0 2324731:3.0 2343191:4.0 2346587:2.0 2356204:2.0 2391301:17.0 2401222:2.0 2429720:2.0 2471044:1.0 2490364:4.0 2499975:4.0 2504543:6.0 2539744:1.0 2548704:1.0 2554568:1.0 2571322:1.0 2571751:3.0 2595518:4.0 2595953:6.0 2600131:6.0 2611209:96.0 2617288:2.0 2621755:150000.0 2647572:38.0 2681082:6.0 2691025:1.0 2702870:3.0 2802840:5.0 2815084:96.0 2816938:2.0 2817276:7.0 2865840:58.0 2914074:2.0 2970879:2.0 2976515:2.0 2981391:38.0 3022692:1.0 3074494:1.0 3121652:80000.0 3287210:96.0 3304868:120000.0 3334615:200000.0 3359798:1.0 3444767:1.0 3453314:1.0 3461097:58.0 3490760:1.0 3505026:2.0 3538685:1.0 3573608:80000.0 3593755:1.0 3600174:1.0 3652393:6.0 3660684:1.0 3666001:2.0 3676175:120000.0 3712037:1.0 3743560:2.0 3746660:1.0 3785724:1.0 3800531:58.0 3804786:4.0 3815751:80000.0 3822719:96.0 3832650:30000.0 3923788:2.0 3924998:1.0 3969879:1.0 4028367:50000.0 4029384:1.0 4051072:1.0 4063660:1.0 4064336:1.0 4081111:1.0 4139168:2.0 4153504:4.0 4158165:96.0 4161235:7.0 4175808:1.0
0.0 22242:5.0 30005:16.0 41145:8.0 43614:1.0 54054:19.0 58965:100000.0 75182:3.0 98942:1.0 114166:2.0 118997:1.0 126600:1.0 127501:2.0 131154:70.0 167546:3.0 174033:1.0 175427:1.0 176054:2.0 189585:1.0 225425:1.0 229559:71.0 236077:1.0 248346:14.0 294426:1.0 303617:3.0 312855:1.0 316839:1000000.0 321025:4.0 333744:1.0 347009:1.0 369438:1000000.0 373442:1.0 384802:1.0 399024:1.0 448798:2.0 455255:16.0 461210:2.0 467064:1.0 511923:1.0 523177:1.0 526735:1.0 561980:1.0 578740:515.0 585138:515.0 619056:5.0 635861:100000.0 663807:1.0 665540:1.0 667374:5.0 672048:1.0 682968:3.0 698675:1.0 725599:1.0 754717:31.0 754944:7.0 760320:8.0 785054:8.0 786561:1.0 791026:16.0 793973:1.0 795073:79.0 803825:1.0 820750:1.0 821129:6.0 828203:90.0 857581:400000.0 885757:10.0 889026:2.0 901030:7.0 929878:515.0 932050:1000000.0 933583:1000000.0 942473:1.0 964044:2.0 989123:506041.0 990743:1.0 991090:401161.0 1002170:1.0 1008898:5.0 1012990:1.0 1014814:31.0 1035288:1.0 1048090:3.0 1052268:2.0 1055511:2.0 1057681:506041.0 1065745:8.0 1066450:1.0 1079224:10.0 1081576:17.0 1083712:1.0 1125428:104880.0 1130876:1.0 1132432:1.0 1138899:31.0 1155156:3.0 1162318:1.0 1174805:2.0 1176948:1.0 1178195:1.0 1184975:3.0 1206213:515.0 1234729:1.0 1257033:2.0 1278394:3.0 1298108:2.0 1314399:1.0 1347288:1.0 1370695:1.0 1377006:4.0 1382010:6.0 1395813:1.0 1400585:42.0 1428907:100000.0 1463191:1.0 1468959:2.0 1478126:3.0 1532382:1.0 1536656:30.0 1576547:1.0 1584688:67.0 1638999:1.0 1646930:1.0 1649523:1.0 1654881:1.0 1711870:70.0 1716840:27.0 1731291:1.0 1753782:16.0 1765759:4.0 1781630:1.0 1807541:1.0 1815243:1.0 1818468:136.0 1873867:14.0 1875279:5.0 1878599:11.0 1887834:3.0 1889482:1.0 1914807:1.0 1915428:1.0 1918388:6.0 1955741:100000.0 1969794:1.0 2004984:1.0 2018202:48.0 2022304:9.0 2031584:79.0 2046505:8.0 2046839:1.0 2089184:2.0 2114884:1.0 2119047:42.0 2148090:1.0 2174345:1.0 2180059:2.0 2181663:2.0 2192089:1.0 2200537:46.0 2210684:10.0 2232019:1.0 2233942:1.0 2243125:906041.0 2262913:3.0 2269801:2.0 2284440:1.0 2292101:1.0 2317005:140.0 2324731:110.0 2325507:1.0 2337423:1.0 2339318:1.0 2343191:5.0 2346587:10.0 2354201:200000.0 2356227:4.0 2386104:401161.0 2387997:3.0 2391301:20.0 2400748:1.0 2401222:9.0 2404062:286.0 2418907:6.0 2422865:3.0 2423775:1.0 2480662:2.0 2489687:2.0 2490364:110.0 2504543:108.0 2507014:1.0 2511577:2.0 2521275:25.0 2546046:1.0 2553433:1.0 2563468:1.0 2569483:1.0 2578547:1.0 2595518:23.0 2600131:29.0 2601116:1.0 2612995:1.0 2613962:1.0 2620410:515.0 2621755:1906041.0 2622701:10.0 2634184:2.0 2644151:1.0 2664258:3.0 2681395:1.0 2685856:104880.0 2702870:2.0 2703983:13.0 2704429:1.0 2704525:2.0 2714816:4.0 2722162:3.0 2736688:16.0 2756095:3.0 2770936:1.0 2802840:7.0 2811515:6.0 2813897:515.0 2815084:515.0 2816938:108.0 2817276:5.0 2891464:1.0 2898164:2.0 2910728:16.0 2917317:500000.0 2926204:1.0 2928014:2.0 2950892:1.0 2975932:35.0 2977534:200000.0 2993263:104880.0 2998252:5.0 3017660:1.0 3055415:1.0 3101507:48.0 3105755:1.0 3121652:400000.0 3140487:2.0 3176471:1.0 3204276:1.0 3215861:515.0 3243322:1.0 3271221:3.0 3281771:1.0 3287210:515.0 3291551:9.0 3296380:8.0 3304868:1000000.0 3320733:3.0 3334615:1906041.0 3358540:48.0 3363884:1.0 3380851:500000.0 3481151:1.0 3490760:10.0 3505026:5.0 3553106:1.0 3573608:400000.0 3578020:515.0 3588447:5.0 3615629:401161.0 3625498:2.0 3628003:134.0 3639917:1.0 3652393:29.0 3652608:4.0 3657930:16.0 3666001:6.0 3666761:13.0 3676175:1000000.0 3685944:1.0 3687099:20.0 3742641:8.0 3753094:1.0 3801666:8.0 3813247:6.0 3815751:906041.0 3822719:515.0 3838824:4.0 3845994:1.0 3859672:1.0 3864975:4.0 3865686:1.0 3870296:515.0 3874502:1.0 3888434:8.0 3918389:1.0 3936947:1.0 3944181:15.0 3963229:1.0 3976818:1.0 3997435:3.0 4029303:1.0 4051283:10.0 4128634:1.0 4144846:3.0 4153504:7.0 4156861:1.0 4161235:16.0 4171224:3.0 4174799:1.0 4183384:90.0
1.0 52294:3.0 81237:10000.0 89966:10000.0 120104:1.0 158434:1.0 167546:1.0 251483:1.0 312650:1.0 509556:182.0 578740:182.0 585138:182.0 667374:1.0 682968:1.0 721134:1.0 821129:2.0 850806:19.0 857581:10000.0 893685:182.0 929878:182.0 1008898:1.0 1024048:17.0 1184975:1.0 1206213:182.0 1241911:45.0 1369675:37.0 1375188:5.0 1382010:1.0 1608125:7.0 1689780:1.0 1716840:4.0 1762832:3.0 1807231:2.0 1809421:45.0 1815337:31.0 1918388:2.0 2018202:182.0 2022304:1.0 2030148:1.0 2200537:7.0 2243125:10000.0 2277413:3.0 2324731:31.0 2343191:1.0 2356204:14.0 2391301:3.0 2401222:1.0 2413385:2.0 2490364:32.0 2504543:54.0 2532707:1.0 2571751:6.0 2581227:2.0 2600131:2.0 2620410:182.0 2621755:10000.0 2681082:7.0 2710866:5.0 2753998:3.0 2802840:1.0 2815084:182.0 2816938:37.0 2817276:1.0 2840843:1.0 2865840:182.0 2894925:182.0 2970879:2.0 2976515:3.0 3049203:14.0 3072768:45.0 3121652:10000.0 3180117:1.0 3197653:1.0 3238196:2.0 3287210:182.0 3334615:10000.0 3358540:182.0 3359798:1.0 3431533:1.0 3453314:1.0 3505026:1.0 3573608:10000.0 3578020:182.0 3652393:2.0 3666001:1.0 3772733:2.0 3795776:2.0 3804786:17.0 3815751:10000.0 3822719:182.0 3862563:1.0 3899441:1.0 3941377:1.0 4153504:1.0 4161235:3.0 4172696:2.0
0.0 1230:206.0 24993:1.0 43872:4.0 52294:21.0 61950:1.0 82083:2.0 88630:133.0 105672:8.0 108260:1.0 110472:1.0 111877:1.0 117313:2.0 127501:1.0 145175:1.0 145188:9.0 155440:1.0 167546:2.0 183535:1.0 192293:1.0 195195:1.0 229559:2.0 254824:4.0 285636:2.0 312613:1.0 312650:1.0 316839:250000.0 318874:1.0 366850:4.0 370226:1.0 379262:20000.0 435008:5.0 440135:85.0 442609:4.0 448798:1.0 450817:360.0 455255:206.0 456539:3.0 479709:1.0 489202:1.0 609501:61.0 612309:2.0 626458:1.0 632755:1.0 650683:1.0 667374:3.0 682968:2.0 721134:8.0 722144:12.0 753075:10.0 773608:4.0 828203:14.0 828437:2.0 835915:4.0 848211:3.0 850806:52.0 857581:220000.0 860570:1.0 875593:3.0 878497:1.0 879114:1.0 893685:360.0 910445:2.0 916794:1.0 922950:8.0 932050:250000.0 933583:250000.0 962401:1.0 995713:2.0 1008898:3.0 1041690:9.0 1055511:1.0 1078047:1.0 1078730:1.0 1105022:3.0 1109891:360.0 1153595:2.0 1170627:4.0 1182187:1.0 1206213:360.0 1241911:38.0 1246142:1.0 1253773:1.0 1257033:1.0 1300165:9.0 1375188:34.0 1382010:3.0 1396725:6.0 1450451:4.0 1468959:1.0 1481692:1.0 1487101:1.0 1512496:3.0 1569310:1.0 1584688:85.0 1587506:3.0 1589929:1.0 1593453:4.0 1593945:1.0 1596286:2.0 1601459:20000.0 1630306:2.0 1648259:2.0 1698772:8.0 1701523:5.0 1716840:5.0 1730708:1.0 1739258:3.0 1809421:59.0 1851305:9.0 1886401:2.0 1892790:3.0 1893638:2.0 1896422:1.0 1903077:1.0 1918388:5.0 1932751:1.0 1944388:1.0 1957497:200000.0 2006929:9.0 2015410:2.0 2018202:4.0 2019419:10.0 2022304:3.0 2074729:11.0 2084180:1.0 2114048:1.0 2123385:1.0 2133760:2.0 2163992:5.0 2167552:2.0 2179115:8.0 2200537:42.0 2243125:240000.0 2309724:1.0 2324731:17.0 2343191:3.0 2346512:2.0 2356204:8.0 2358014:1.0 2363647:1.0 2370797:6.0 2391301:9.0 2392263:4.0 2401222:3.0 2404062:85.0 2442317:162.0 2451122:5.0 2477240:5.0 2481850:1.0 2490364:25.0 2504543:41.0 2553265:5.0 2571751:37.0 2591075:16.0 2591652:2.0 2592413:2.0 2600131:23.0 2605539:2.0 2611377:2.0 2621755:490000.0 2629174:11.0 2661472:2.0 2681082:8.0 2706725:20000.0 2712142:1.0 2744221:240000.0 2753998:11.0 2769771:1.0 2782250:1.0 2782786:3.0 2789179:1.0 2802840:4.0 2816938:8.0 2817276:3.0 2830876:3.0 2837279:250000.0 2855804:1.0 2865840:273.0 2900829:20000.0 2940995:1.0 2968058:6.0 2970879:14.0 2975932:4.0 2976515:10.0 2989677:2.0 3005911:2.0 3008283:1.0 3009857:5.0 3024612:5.0 3071644:1.0 3138123:1.0 3165511:6.0 3193478:3.0 3250025:1.0 3259253:7.0 3259756:1.0 3272506:7.0 3286662:1.0 3287210:360.0 3288310:3.0 3304868:250000.0 3311233:12.0 3334615:490000.0 3337644:6.0 3351282:1.0 3356793:11.0 3358540:45.0 3399273:1.0 3446255:200000.0 3451975:6.0 3453314:7.0 3457145:1.0 3498014:1.0 3502397:250000.0 3505026:3.0 3533125:1.0 3551263:6.0 3572817:1.0 3573608:220000.0 3581203:1.0 3590429:3.0 3611958:1.0 3613405:1.0 3620008:3.0 3628003:61.0 3630441:1.0 3643483:11.0 3652393:23.0 3652929:1.0 3656623:2.0 3666001:2.0 3676175:250000.0 3700842:360.0 3702957:360.0 3711869:5.0 3727665:15.0 3742758:2.0 3765666:8.0 3765684:2.0 3772610:4.0 3800531:2.0 3804786:33.0 3815751:240000.0 3822719:360.0 3842337:2.0 3877347:360.0 3890401:1.0 3939650:8.0 3991150:5.0 4021042:20000.0 4030729:3.0 4061677:1.0 4080593:6.0 4084005:2.0 4121743:20000.0 4153504:4.0 4158165:360.0 4161235:5.0
0.0 11102:10000.0 24993:4.0 32135:2.0 51607:6.0 52294:15.0 92297:6.0 127501:2.0 131154:10.0 145175:4.0 145188:2.0 155440:1.0 213248:1.0 302384:6.0 311786:1.0 312650:2.0 316839:140000.0 355208:2.0 423822:62.0 447940:34.0 448798:2.0 461803:8.0 511437:1.0 524160:6.0 591675:1.0 609501:62.0 609734:1.0 613376:2.0 667374:4.0 671184:3.0 700991:3.0 721134:5.0 728183:2.0 753075:12.0 760320:7.0 795073:1.0 821129:9.0 826452:6.0 828203:62.0 850806:29.0 868783:1.0 869065:30000.0 893685:121.0 908803:2.0 929878:234.0 932050:140000.0 933583:140000.0 950391:1.0 962401:2.0 1001537:1.0 1007273:2.0 1008898:6.0 1055511:2.0 1089537:10.0 1109891:234.0 1132731:2.0 1170627:1.0 1189074:3.0 1222299:4.0 1257033:2.0 1327697:1.0 1327843:4.0 1375188:18.0 1382010:7.0 1400585:1.0 1401929:2.0 1450451:1.0 1453009:6.0 1456864:3.0 1468959:2.0 1471408:2.0 1479238:1.0 1519088:1.0 1546579:1.0 1573017:2.0 1601459:140000.0 1607812:50000.0 1633394:2.0 1639484:6.0 1711870:10.0 1716840:25.0 1823546:4.0 1856264:234.0 1873867:6.0 1918388:9.0 1933775:5.0 1982133:3.0 2022304:4.0 2024683:90000.0 2031584:1.0 2049419:1.0 2064024:1.0 2087221:1.0 2087946:3.0 2119047:1.0 2133760:25.0 2200537:29.0 2238655:4.0 2241257:171.0 2243125:140000.0 2307124:1.0 2324731:11.0 2342393:113.0 2343191:6.0 2346587:3.0 2349835:3.0 2352952:6.0 2356204:10.0 2391301:23.0 2401222:4.0 2404062:1.0 2428892:1.0 2430200:50000.0 2474827:50000.0 2490364:16.0 2504543:20.0 2519143:2.0 2571751:8.0 2580979:4.0 2595518:10.0 2600131:15.0 2611209:234.0 2611377:36.0 2621755:280000.0 2642183:1.0 2681082:8.0 2729640:8.0 2731409:3.0 2744221:140000.0 2752464:30000.0 2782786:4.0 2802840:6.0 2803285:4.0 2815084:234.0 2816938:5.0 2817276:10.0 2837279:50000.0 2865840:198.0 2919818:5.0 2932429:4.0 2947392:1.0 2966358:7.0 2970879:10.0 2975932:6.0 2976515:8.0 3002873:1.0 3004377:3.0 3041926:50000.0 3056796:90000.0 3057837:3.0 3067342:3.0 3136260:4.0 3162207:234.0 3180437:7.0 3193098:1.0 3200788:1.0 3219442:2.0 3240278:2.0 3285355:1.0 3287210:234.0 3293999:1.0 3304868:140000.0 3334615:280000.0 3349058:10000.0 3354609:1.0 3371722:50000.0 3388270:1.0 3392438:9.0 3402137:3.0 3451229:6.0 3453314:5.0 3478059:6.0 3484021:5.0 3498014:2.0 3499975:3.0 3505026:4.0 3549598:1.0 3569133:4.0 3590599:1.0 3628003:208.0 3633350:1.0 3652393:15.0 3666001:5.0 3676175:140000.0 3718813:3.0 3742758:25.0 3804786:15.0 3815751:140000.0 3822719:234.0 3852892:1.0 3906038:1.0 3954859:1.0 4029384:1.0 4064315:6.0 4071969:1.0 4084682:136.0 4121743:140000.0 4153504:6.0 4157607:2.0 4158165:234.0 4161235:11.0 4164220:5.0 4168776:1.0 4175994:1.0 4183384:145.0
0.0 37762:54.0 79091:2.0 87920:5.0 131154:5.0 167546:1.0 471278:1.0 509556:54.0 561024:1.0 578740:54.0 585138:54.0 586577:2.0 667374:1.0 682968:1.0 752195:2.0 760320:2.0 850806:2.0 857581:10000.0 885757:1.0 929878:54.0 944028:54.0 1008898:1.0 1099466:14.0 1166104:1.0 1184975:1.0 1206213:54.0 1262649:1.0 1300271:1.0 1367285:1.0 1377006:1.0 1382010:1.0 1468571:1.0 1536656:5.0 1590640:2.0 1711870:5.0 1733443:1.0 1964319:1.0 1971715:1.0 1999155:54.0 2018202:54.0 2022304:1.0 2048663:1.0 2210684:2.0 2243125:10000.0 2324731:14.0 2343191:1.0 2346587:1.0 2356204:2.0 2391301:4.0 2401222:1.0 2490364:14.0 2502692:1.0 2504543:12.0 2595518:4.0 2600131:2.0 2620410:54.0 2621755:10000.0 2634184:1.0 2802840:1.0 2815084:54.0 2816938:12.0 2817276:2.0 2981391:54.0 3053703:1.0 3121652:10000.0 3206843:10000.0 3279272:12.0 3287210:54.0 3334615:10000.0 3358540:54.0 3448893:1.0 3490760:1.0 3505026:1.0 3573608:10000.0 3625498:1.0 3652393:2.0 3666001:1.0 3671562:1.0 3815751:10000.0 3822719:54.0 3825122:1.0 3935450:10000.0 3941377:1.0 4097056:1.0 4118348:1.0 4148935:2.0 4153504:1.0 4161235:3.0
0.0 1230:148.0 17230:3.0 42709:1.0 52294:47.0 59272:50000.0 77102:1.0 79915:1.0 81349:1.0 87187:1.0 104558:6.0 127501:4.0 131154:21.0 145306:2.0 155440:2.0 159652:1.0 167546:6.0 172922:13000.0 196959:1.0 200909:1.0 229559:46.0 235273:13000.0 249120:3.0 251918:1.0 306004:33.0 309094:1.0 312650:2.0 316839:127000.0 326310:20000.0 341971:4.0 353180:1.0 393882:11.0 396267:1.0 417874:1.0 423822:397.0 430853:6.0 435246:10.0 440135:166.0 448798:4.0 455255:148.0 502607:6.0 517529:20000.0 561250:1.0 570803:20000.0 578740:490.0 585138:490.0 589602:8.0 607260:1.0 623604:1.0 667374:6.0 682968:6.0 721134:9.0 728088:4.0 733181:1.0 753075:20.0 760320:3.0 760989:1.0 795073:148.0 804352:14000.0 804656:4.0 811516:1.0 819410:2.0 821129:8.0 824983:1.0 828203:103.0 835915:7.0 850806:25.0 852199:1.0 857030:1.0 857581:130000.0 877639:2.0 880530:1.0 882869:2.0 893685:240.0 929878:490.0 932050:127000.0 933583:127000.0 933794:2.0 934449:1.0 956298:1.0 966842:3.0 981542:1.0 995713:5.0 1008898:10.0 1010669:1.0 1014814:2.0 1046912:2.0 1055511:4.0 1073020:2.0 1105989:1.0 1175335:1.0 1184975:6.0 1206213:54.0 1206588:2.0 1233599:1.0 1241684:5.0 1244447:17.0 1257033:4.0 1298135:1.0 1337305:1.0 1368739:4.0 1375188:15.0 1375828:2.0 1377006:3.0 1382010:12.0 1393989:11.0 1421494:1.0 1443993:1.0 1468959:4.0 1473617:1.0 1528868:120.0 1546167:1.0 1566746:1.0 1584688:46.0 1615102:1.0 1656377:1.0 1694412:5.0 1707234:3.0 1708918:1.0 1709559:1.0 1711870:21.0 1716840:26.0 1725877:3.0 1737796:1.0 1746817:1.0 1778169:4.0 1824659:1.0 1835382:39.0 1843593:50000.0 1850673:1.0 1859073:1.0 1873867:6.0 1909406:2.0 1918388:8.0 1955741:30000.0 1958905:7.0 1963553:1.0 1989335:4.0 2018202:7.0 2022304:8.0 2028177:1.0 2062616:1.0 2065929:1.0 2067199:2.0 2073018:1.0 2087951:15.0 2112729:1.0 2114048:1.0 2119047:7.0 2126952:1.0 2133760:2.0 2144981:2.0 2149207:4.0 2192089:2.0 2194416:1.0 2200537:44.0 2201042:2.0 2243125:130000.0 2261329:3.0 2283778:3.0 2309724:1.0 2317005:65.0 2321493:1.0 2324731:94.0 2327058:1.0 2329101:1.0 2342393:250.0 2343191:10.0 2344265:7.0 2346587:5.0 2356204:10.0 2370331:1.0 2371296:1.0 2385595:1.0 2391301:38.0 2401222:8.0 2404062:174.0 2420698:1.0 2422865:1.0 2423441:1.0 2429717:1.0 2442317:2.0 2445510:1.0 2473014:11.0 2480145:2.0 2481874:1.0 2490364:103.0 2491365:119.0 2504543:110.0 2547567:1.0 2554196:6.0 2555139:4.0 2559474:1.0 2571751:5.0 2581227:1.0 2591075:1.0 2595518:11.0 2600131:25.0 2603507:2.0 2615932:1.0 2620410:490.0 2621755:257000.0 2665869:2.0 2671298:1.0 2673476:1.0 2677041:3.0 2677458:2.0 2681082:24.0 2702961:1.0 2764235:4.0 2802840:10.0 2805200:4.0 2809357:1.0 2815084:490.0 2816938:97.0 2817276:16.0 2837279:64000.0 2837317:1.0 2865840:259.0 2873511:1.0 2876954:1.0 2888802:60000.0 2904245:2.0 2905723:10000.0 2907770:8.0 2924004:1.0 2949697:5.0 2965644:50000.0 2970879:30.0 2976515:5.0 2996777:1.0 3009224:1.0 3020368:6.0 3035536:65.0 3056920:1.0 3057382:14.0 3103141:3.0 3106095:2.0 3121652:130000.0 3147254:1.0 3149795:490.0 3154813:1.0 3163221:6.0 3178570:1.0 3239639:63.0 3244183:40000.0 3287210:490.0 3304868:127000.0 3330110:1.0 3334615:257000.0 3362850:6.0 3388577:3.0 3390106:2.0 3409067:4.0 3427933:1.0 3431533:2.0 3437596:1.0 3439711:31.0 3453314:8.0 3502397:50000.0 3502496:12.0 3504361:1.0 3505026:6.0 3548620:1.0 3561610:1.0 3564028:1.0 3569997:3.0 3573608:130000.0 3578020:490.0 3585253:10000.0 3609883:3.0 3645193:2.0 3652393:25.0 3656623:159.0 3663732:10.0 3666001:8.0 3676175:127000.0 3683081:1.0 3687049:39.0 3735890:5.0 3752920:10.0 3783082:2.0 3795776:1.0 3804786:13.0 3811429:2.0 3815751:130000.0 3822719:490.0 3839278:2.0 3874827:3.0 3881880:1.0 3934370:1.0 3936820:1.0 3942222:1.0 3971462:3.0 3979198:2.0 3984798:1.0 4016680:1.0 4029384:4.0 4030927:2.0 4054515:2.0 4084682:63.0 4121527:1.0 4139520:3.0 4146031:1.0 4150314:1.0 4153504:10.0 4161235:19.0
0.0 1230:104.0 2015:1.0 6265:6.0 13012:4.0 24489:3.0 24993:2.0 34656:2.0 37762:62.0 43800:1.0 52294:65.0 63881:1.0 66133:1.0 68481:1.0 73927:1.0 75809:1.0 78895:3.0 102001:2.0 117089:1.0 127501:9.0 127860:4.0 131154:91.0 145175:3.0 145188:8.0 167546:6.0 167892:1.0 187165:6.0 198783:1.0 258213:19.0 285636:25.0 309822:3.0 316839:380000.0 322273:2.0 328967:1.0 349124:6.0 353263:4.0 356737:1.0 358864:1.0 361474:5.0 365866:8.0 407418:1.0 411382:2.0 418229:180000.0 422702:4.0 440130:45.0 440135:278.0 443618:1.0 447940:47.0 448798:9.0 450397:1.0 452848:1.0 455255:149.0 456260:2.0 456351:1.0 461245:3.0 480842:1.0 483870:6.0 499324:1.0 509330:2.0 509556:67.0 518213:3.0 520110:2.0 534079:7.0 539568:1.0 562803:2.0 565386:1.0 571144:2.0 573574:2.0 589739:1.0 604347:3.0 609501:38.0 635861:40000.0 638434:20000.0 647513:887.0 663274:4.0 666589:1.0 667374:11.0 673687:5.0 682968:6.0 685405:1.0 687261:4.0 689430:2.0 696094:1.0 700991:2.0 706251:1.0 713221:1.0 713225:1.0 740896:1.0 743021:1.0 747298:2.0 753075:50.0 758254:1.0 760320:6.0 768856:1.0 769222:6.0 788149:1980000.0 793600:1.0 795073:195.0 804468:1.0 821129:10.0 826799:1.0 830424:8.0 839102:2.0 844957:2.0 850806:57.0 852694:2.0 857581:120000.0 862905:2.0 869065:20000.0 878019:2.0 883622:2.0 885757:2.0 893685:256.0 902469:72.0 902492:5.0 907119:1.0 916817:1.0 925633:1.0 932050:380000.0 933583:380000.0 944386:1.0 946114:1.0 947076:2.0 950440:1.0 962401:3.0 962530:2.0 981741:1980000.0 983333:4.0 989662:1.0 996484:1.0 998354:1.0 1008898:17.0 1014814:114.0 1015715:1.0 1029284:3.0 1039905:7.0 1049743:2.0 1055511:9.0 1063904:2.0 1080744:6.0 1090069:1.0 1099981:1.0 1109891:887.0 1110185:3.0 1112283:20000.0 1116030:20000.0 1118976:2.0 1122146:1.0 1129850:11.0 1132432:2.0 1141136:1.0 1160895:2.0 1161005:3.0 1161941:5.0 1170627:2.0 1173142:2.0 1177924:9.0 1184975:6.0 1202937:20000.0 1206213:820.0 1211106:2.0 1213986:181.0 1214530:4.0 1218979:1.0 1225488:4.0 1234729:2.0 1246445:12.0 1253673:2.0 1253687:1.0 1257033:9.0 1271993:1.0 1280281:1.0 1282162:6.0 1287162:20000.0 1291329:4.0 1292566:1.0 1295471:1.0 1326722:6.0 1374677:2.0 1375188:26.0 1377006:3.0 1382010:27.0 1389916:2.0 1390661:3.0 1394483:1.0 1416816:1.0 1419961:9.0 1434830:20000.0 1436049:97.0 1450451:2.0 1451483:2.0 1456864:1.0 1458075:1.0 1459575:5.0 1466510:1.0 1468959:9.0 1472476:1.0 1498096:20000.0 1504592:2.0 1522910:16.0 1528868:48.0 1533355:1.0 1536656:6.0 1544639:4.0 1545651:1.0 1546887:1980000.0 1556792:1.0 1564903:5.0 1573796:2.0 1577871:7.0 1583120:1.0 1584688:126.0 1586311:2.0 1592616:1.0 1594361:1.0 1601459:280000.0 1601606:2.0 1630306:1.0 1632491:1.0 1639625:97.0 1654665:1.0 1697902:4.0 1704426:20000.0 1709888:2.0 1711870:91.0 1711875:2.0 1714737:1.0 1716642:1.0 1716840:67.0 1718952:1.0 1728589:1.0 1743426:1.0 1748636:100000.0 1749855:2.0 1752008:1.0 1754811:20000.0 1756427:4.0 1764268:20000.0 1776637:2.0 1784950:3.0 1806813:1.0 1807908:5.0 1809449:1.0 1818468:66.0 1828600:1.0 1831468:1.0 1841989:1.0 1843495:1.0 1851166:10.0 1856264:887.0 1862561:1.0 1868760:20600.0 1873867:28.0 1874898:12.0 1877194:1.0 1885195:1.0 1887923:20600.0 1891278:2.0 1892790:1.0 1899715:1.0 1907434:1.0 1918388:16.0 1948340:2.0 1959204:5.0 1965331:3.0 1968614:1.0 1975838:2.0 1993146:1.0 2003071:1.0 2007176:17.0 2011860:1.0 2018202:67.0 2022304:14.0 2031584:62.0 2032731:1.0 2039083:2.0 2058702:1.0 2067030:1.0 2073763:1.0 2077696:1.0 2087716:1.0 2091577:160000.0 2119047:48.0 2123278:1.0 2126901:2.0 2133760:181.0 2150096:2.0 2177346:1.0 2178844:1.0 2180059:2.0 2180256:2.0 2186674:7.0 2191853:20000.0 2192365:1.0 2193781:1.0 2200537:92.0 2210684:2.0 2211312:1980000.0 2214594:1.0 2227486:1.0 2235252:1.0 2235292:2.0 2236187:2.0 2243125:2400600.0 2253235:3.0 2266257:1.0 2270234:3.0 2270379:2.0 2276415:6.0 2279424:1.0 2287611:2.0 2294388:1.0 2317005:57.0 2324731:52.0 2325507:6.0 2328141:4.0 2332318:1.0 2335329:1.0 2342393:569.0 2343191:18.0 2346587:7.0 2349835:1.0 2356204:27.0 2356534:7.0 2360361:100000.0 2391301:81.0 2401222:14.0 2404062:245.0 2405737:3.0 2413459:7.0 2413547:2.0 2418463:2.0 2432508:2.0 2442317:104.0 2444924:2.0 2469412:1.0 2469497:1.0 2488282:2.0 2489051:1.0 2490364:75.0 2490981:1.0 2491365:100.0 2493202:20600.0 2504039:2.0 2504543:53.0 2513813:3.0 2520248:3.0 2535895:1.0 2544070:20000.0 2548704:1.0 2564772:5.0 2571751:31.0 2574453:3.0 2581081:1.0 2584350:1.0 2595518:16.0 2600131:69.0 2603005:1.0 2611209:887.0 2611377:25.0 2611927:1.0 2616268:20000.0 2616806:1.0 2618193:20600.0 2621755:2760600.0 2634184:6.0 2645002:2.0 2661745:2.0 2669052:2.0 2670290:1.0 2673419:7.0 2675401:6.0 2678392:1.0 2681082:26.0 2714844:3.0 2723529:1.0 2724148:1.0 2727122:8.0 2744221:120000.0 2748678:8.0 2753998:9.0 2755640:1.0 2759455:6.0 2760620:6.0 2761135:3.0 2777891:1.0 2782786:2.0 2791247:1.0 2802840:20.0 2816938:34.0 2817276:35.0 2843347:1.0 2853353:2.0 2865840:420.0 2883301:1.0 2888802:20000.0 2894014:5.0 2895122:1.0 2917126:1.0 2918805:1.0 2919818:2.0 2921157:160000.0 2946964:2.0 2964476:1.0 2967183:1.0 2970879:42.0 2976515:12.0 2981391:62.0 2983625:3.0 2990723:3.0 2995485:2.0 3008283:1.0 3015872:1.0 3018661:1980000.0 3020820:4.0 3028465:2.0 3035536:102.0 3078457:1.0 3093035:1.0 3102653:1980000.0 3106710:1.0 3121159:3.0 3121652:120000.0 3136260:1.0 3143179:2.0 3166069:1.0 3178231:1.0 3200076:31.0 3206843:40000.0 3207401:1.0 3207675:1.0 3209326:23.0 3216147:2.0 3223081:7.0 3241902:1.0 3282157:20000.0 3287210:887.0 3304868:380000.0 3320733:7.0 3325151:3.0 3334615:2780600.0 3358540:54.0 3360848:1.0 3361118:8.0 3365141:1.0 3373298:1.0 3374311:1.0 3392438:4.0 3402137:2.0 3427061:2.0 3442812:1.0 3448893:2.0 3453314:21.0 3453935:4.0 3463658:9.0 3471436:1.0 3480510:1.0 3487624:1.0 3490760:2.0 3492619:6.0 3494970:2.0 3496058:20000.0 3496961:2.0 3498014:3.0 3503502:20000.0 3503812:1.0 3505026:10.0 3509200:6.0 3519178:3.0 3519201:340000.0 3532793:2.0 3548620:1.0 3553082:2.0 3553993:3.0 3566068:3.0 3572787:100000.0 3573608:120000.0 3580366:1.0 3589083:4.0 3597976:2.0 3625498:6.0 3628003:172.0 3639896:5.0 3647644:2.0 3652393:69.0 3656623:73.0 3663845:1.0 3666001:12.0 3670431:1.0 3670647:6.0 3673016:1.0 3676175:380000.0 3697730:6.0 3702957:887.0 3713421:1.0 3762652:1.0 3763710:1.0 3778618:2.0 3796706:1.0 3800531:83.0 3804786:19.0 3813899:5.0 3815751:420600.0 3822719:887.0 3839278:1.0 3842337:1.0 3845045:1.0 3848727:1.0 3859062:3.0 3861383:3.0 3864834:1.0 3877820:160000.0 3879543:1.0 3889621:1.0 3894258:1.0 3904477:1.0 3913496:1.0 3922245:2.0 3929204:2.0 3938844:1.0 3960343:180600.0 3964785:1.0 3965006:2.0 3966666:2.0 3968251:6.0 3976686:1.0 3978694:1.0 3979719:2.0 3996341:2.0 4016248:1.0 4016836:3.0 4017982:2.0 4029384:5.0 4031201:1.0 4048063:3.0 4056846:1.0 4067226:1.0 4080593:2.0 4085195:2.0 4106723:2.0 4111158:5.0 4121743:120000.0 4130618:1.0 4152337:4.0 4153504:19.0 4158165:887.0 4158205:13.0 4161235:37.0 4163618:39.0 4165886:3.0 4167850:2.0 4175994:1.0 4181661:2.0 4183384:134.0 4187576:2.0 4187597:1.0 4191609:4.0 4193014:1.0
0.0 162:4.0 15978:11.0 30010:3.0 36084:1.0 36320:2.0 37762:151.0 52294:58.0 66133:1.0 70133:12.0 81237:30000.0 86427:1.0 116528:1.0 127501:2.0 131154:53.0 144437:2.0 145175:1.0 155440:2.0 161411:7.0 167546:2.0 180518:3.0 180667:12.0 188261:2.0 199780:1.0 207692:5.0 212476:15.0 229559:109.0 245520:2.0 252068:1.0 285636:64.0 286322:2.0 287302:1.0 291399:1.0 312650:2.0 316839:1740000.0 328967:1.0 337641:1.0 341453:2.0 354531:1.0 360952:1600000.0 407649:6.0 433597:2.0 435008:1.0 436150:34.0 440561:3.0 443618:1.0 448798:2.0 472116:4.0 483870:11.0 520069:4.0 542963:1.0 578337:4.0 578740:710.0 585138:710.0 585314:1.0 585471:1.0 587636:1.0 589602:4.0 633606:1.0 647676:1.0 649866:1.0 655865:1.0 667374:4.0 682968:2.0 689430:1.0 705801:1.0 717198:1.0 721134:15.0 741677:4.0 751155:3.0 752837:2.0 753075:4.0 760320:2.0 761155:4.0 773739:9.0 773852:1.0 775884:1.0 821129:3.0 828203:53.0 832017:1.0 835915:141.0 838447:1.0 845820:1.0 850806:46.0 857581:40000.0 885757:2.0 893685:232.0 899663:2.0 922382:5.0 925633:1.0 926184:2.0 929878:710.0 932050:1740000.0 933583:1740000.0 935656:1.0 944028:329.0 953783:64.0 985561:1.0 986737:1.0 989632:1.0 1008898:4.0 1014814:122.0 1025679:2.0 1038403:10000.0 1049241:1.0 1049743:1.0 1055511:2.0 1057569:1.0 1074480:1.0 1080744:11.0 1083203:1.0 1083227:1.0 1100643:3.0 1118640:4.0 1125790:1.0 1132432:1.0 1149438:1.0 1160075:2.0 1161941:2.0 1162569:1.0 1184975:2.0 1206213:710.0 1208938:2.0 1241889:1.0 1250747:1.0 1257033:2.0 1260088:1.0 1260415:6.0 1268035:1.0 1270830:2.0 1276042:107.0 1298108:59.0 1301386:6.0 1315297:1.0 1332235:1.0 1336029:2.0 1337999:2.0 1368127:5.0 1375188:26.0 1377006:1.0 1382010:10.0 1400585:123.0 1401821:4.0 1402556:2.0 1406223:2.0 1423797:5.0 1433197:3.0 1442053:1.0 1453003:1.0 1456069:4.0 1468959:2.0 1486335:8.0 1510343:6.0 1533652:1.0 1536656:6.0 1536981:1.0 1537577:6.0 1565554:5.0 1572203:3.0 1574982:2.0 1576216:3.0 1582699:1.0 1589920:1.0 1600810:2.0 1601459:140000.0 1640927:1.0 1642916:2.0 1669778:1.0 1711870:53.0 1716840:28.0 1735857:3.0 1738559:11.0 1739205:1.0 1765759:1.0 1769463:12.0 1809421:1.0 1815092:4.0 1815577:1.0 1832358:1.0 1832833:1.0 1836284:10000.0 1857267:6.0 1860612:1.0 1873867:15.0 1878599:5.0 1890990:1.0 1891278:2.0 1896074:3.0 1897112:1.0 1900906:1.0 1918388:3.0 1920379:16.0 1929359:1.0 1930887:1.0 1943028:2.0 1967012:8.0 1975838:1.0 1984980:1564000.0 1986458:1.0 1991556:1.0 1996093:3.0 1999156:2.0 2018202:205.0 2018583:27.0 2022304:13.0 2031584:151.0 2045074:1.0 2059529:6.0 2091577:140000.0 2092216:1.0 2106002:1.0 2119047:151.0 2124117:1.0 2133760:27.0 2150403:3.0 2163992:1.0 2180059:2.0 2200537:25.0 2208078:1.0 2210684:2.0 2212067:1.0 2222207:5.0 2229612:1.0 2243125:1744000.0 2244758:2.0 2260653:3.0 2273792:1.0 2284497:2.0 2286747:4.0 2291959:4.0 2312736:1.0 2314990:1.0 2315598:6.0 2315613:2.0 2317005:33.0 2317752:6.0 2324731:155.0 2325507:1.0 2327751:15.0 2341770:2.0 2342393:327.0 2343191:4.0 2346587:3.0 2356204:20.0 2370331:1.0 2372009:7.0 2378786:1.0 2379367:2.0 2391301:24.0 2401222:13.0 2404062:184.0 2409788:2.0 2422865:8.0 2438214:1.0 2443320:5.0 2455566:1.0 2456838:2.0 2489425:3.0 2490364:172.0 2493202:1564000.0 2504543:138.0 2514189:6.0 2517015:5.0 2520090:4.0 2527785:2.0 2542221:1.0 2563613:1.0 2571751:13.0 2591075:4.0 2592455:1.0 2595518:6.0 2600131:51.0 2607890:2.0 2611377:294.0 2613962:3.0 2615767:30000.0 2618193:1564000.0 2620410:710.0 2621755:3484000.0 2624461:1.0 2633762:25.0 2634184:1.0 2667098:2.0 2681082:3.0 2683937:3.0 2703873:2.0 2705585:2.0 2732197:1.0 2753998:7.0 2759455:7.0 2772654:1.0 2779643:1.0 2793613:5.0 2802840:6.0 2815084:710.0 2815665:2.0 2816938:129.0 2817276:9.0 2837279:1740000.0 2838078:1.0 2864719:1.0 2865840:232.0 2867829:3.0 2877004:1.0 2894815:2.0 2911343:1.0 2918705:5.0 2921157:140000.0 2944429:97.0 2949956:2.0 2954492:1.0 2970879:38.0 2975932:6.0 2976515:1.0 2981391:151.0 2981588:3.0 2981775:1.0 2989677:1.0 2992295:1.0 3023629:5.0 3035536:33.0 3046577:1.0 3053924:2.0 3063363:2.0 3078195:1.0 3078964:5.0 3079314:3.0 3084863:13.0 3103029:1.0 3121652:40000.0 3128404:2.0 3149795:232.0 3158310:1.0 3176219:3.0 3187606:4.0 3209326:2.0 3215861:381.0 3234248:1.0 3281672:1.0 3287096:2.0 3287210:710.0 3304868:1740000.0 3311233:2.0 3320733:7.0 3334615:3484000.0 3358540:137.0 3359798:1.0 3360848:1.0 3365964:1.0 3384581:20.0 3393516:1.0 3418488:1.0 3431533:2.0 3438246:1.0 3439781:6.0 3453314:15.0 3473886:2.0 3480182:4.0 3490760:2.0 3505026:4.0 3547605:4.0 3548620:2.0 3553993:2.0 3564028:1.0 3571831:1.0 3573608:40000.0 3578020:381.0 3588514:140000.0 3602595:2.0 3618180:2.0 3624464:1.0 3625498:1.0 3628003:123.0 3652393:51.0 3652608:1.0 3656623:171.0 3659261:1.0 3666001:4.0 3676175:1740000.0 3682958:1.0 3686145:1.0 3687549:12.0 3742758:27.0 3769724:4.0 3774826:1.0 3788894:3.0 3800531:26.0 3804786:9.0 3815751:1744000.0 3822719:710.0 3834882:3.0 3864975:1.0 3887377:1.0 3897260:1.0 3918694:1.0 3938459:1564000.0 3960343:140000.0 3961572:30.0 3963687:2.0 3979719:1.0 3998627:1.0 4004150:1.0 4045610:1.0 4051231:2.0 4058809:1.0 4064330:1.0 4084682:53.0 4102649:3.0 4111932:6.0 4117410:1564000.0 4122121:140000.0 4128634:3.0 4130618:1.0 4135219:2.0 4149869:2.0 4153504:6.0 4161235:17.0
