0.0 52294:5.0 99572:1.0 109704:1.0 167546:1.0 440135:9.0 589602:1.0 609501:9.0 667374:1.0 721134:1.0 735009:3.0 850806:1.0 889026:1.0 929878:9.0 1057681:20000.0 1109891:9.0 1184975:1.0 1620713:9.0 1737796:1.0 1856264:9.0 1909063:9.0 2022304:1.0 2178099:1.0 2243125:20000.0 2342393:9.0 2356204:1.0 2401222:1.0 2442317:9.0 2490364:1.0 2504543:1.0 2510913:1.0 2540077:9.0 2621755:20000.0 2802840:1.0 2815084:9.0 2816938:1.0 2970879:3.0 3121652:20000.0 3287210:9.0 3334615:20000.0 3499111:1.0 3505026:1.0 3573608:20000.0 3628003:9.0 3765094:1.0 3784435:20000.0 3815751:20000.0 3822719:9.0 3974976:1.0 4057075:20000.0 4057286:1.0 4153504:1.0
0.0 24993:1.0 30005:32.0 76953:1.0 131154:22.0 145175:1.0 196959:1.0 348466:1.0 395112:10000.0 415406:1.0 471210:1.0 509556:32.0 576109:1.0 578740:82.0 585138:82.0 667374:1.0 696986:1.0 700991:1.0 760320:4.0 835624:1.0 847836:7.0 868789:1.0 869065:10000.0 885757:2.0 929878:82.0 944386:1.0 1014814:7.0 1052268:7.0 1079224:4.0 1132432:2.0 1139149:1.0 1187573:4.0 1412385:1.0 1454047:1.0 1456864:5.0 1495664:1.0 1536656:6.0 1599534:1.0 1601459:10000.0 1626624:1.0 1651375:6.0 1695155:2.0 1711870:22.0 1716840:11.0 1729725:1.0 1765759:1.0 1829803:11.0 1864129:82.0 1873867:3.0 1918388:7.0 1918508:1.0 1929053:1.0 2018202:32.0 2114048:1.0 2193127:2.0 2199717:1.0 2210684:2.0 2243125:10000.0 2325507:1.0 2343191:1.0 2345346:1.0 2349835:5.0 2391301:1.0 2404062:43.0 2409788:2.0 2422865:1.0 2491365:20.0 2565388:1.0 2581227:1.0 2586701:82.0 2591075:1.0 2595518:4.0 2600131:1.0 2608103:2.0 2620410:82.0 2621755:10000.0 2622701:4.0 2744221:10000.0 2782786:1.0 2802840:1.0 2815084:82.0 2871243:1.0 2873356:4.0 2919818:13.0 2998252:1.0 3030533:1.0 3136260:1.0 3168463:1.0 3235502:2.0 3239639:43.0 3263164:1.0 3268183:1.0 3287210:82.0 3320733:5.0 3334615:10000.0 3363831:1.0 3392438:15.0 3393285:1.0 3402137:1.0 3490760:2.0 3505026:1.0 3528060:1.0 3550343:1.0 3553993:1.0 3578020:82.0 3628003:7.0 3652393:1.0 3652608:1.0 3666001:1.0 3718458:82.0 3795776:1.0 3815751:10000.0 3822719:82.0 3835942:1.0 3848682:1.0 3851240:1.0 3864975:1.0 3961710:1.0 4006040:5.0 4030592:82.0 4056164:1.0 4084682:23.0 4121743:10000.0 4130666:1.0 4153504:1.0 4161235:3.0 4161975:2.0 4175994:1.0 4182642:1.0
0.0 24993:1.0 52294:7.0 131154:5.0 145175:1.0 416249:1.0 584328:2.0 589602:1.0 667374:1.0 689430:1.0 700991:1.0 738060:1.0 760320:1.0 795073:37.0 821129:1.0 850806:1.0 872328:2.0 929878:42.0 1008898:1.0 1049743:1.0 1050337:100000.0 1109891:42.0 1131033:1.0 1375577:1.0 1382010:1.0 1456864:1.0 1496205:1.0 1527874:5.0 1601459:100000.0 1649631:42.0 1662501:1.0 1711870:5.0 1716840:4.0 1747511:42.0 1873867:1.0 1891428:1.0 1918388:1.0 1975838:1.0 1986103:1.0 2022304:2.0 2136931:1.0 2173939:1.0 2243125:100000.0 2299975:1.0 2324731:3.0 2325507:1.0 2342393:42.0 2343191:1.0 2349835:1.0 2356204:1.0 2391301:4.0 2401222:2.0 2439692:3.0 2474424:42.0 2490364:4.0 2504543:1.0 2595518:1.0 2600131:3.0 2611209:42.0 2615980:1.0 2621755:100000.0 2658405:1.0 2689816:1.0 2744221:100000.0 2759455:1.0 2782786:1.0 2801875:1.0 2802840:1.0 2815084:42.0 2816938:1.0 2817276:2.0 2865840:42.0 2906706:4.0 2919818:2.0 2970879:4.0 3136260:1.0 3201848:100000.0 3202355:1.0 3209326:1.0 3259121:1.0 3265452:1.0 3287210:42.0 3334615:100000.0 3358540:5.0 3392438:3.0 3402137:1.0 3453314:1.0 3505026:1.0 3507506:1.0 3553695:1.0 3558531:1.0 3628003:42.0 3652393:3.0 3666001:1.0 3684911:1.0 3815751:100000.0 3822719:42.0 3930749:1.0 3941377:1.0 4054672:1.0 4057199:1.0 4121743:100000.0 4153504:1.0 4154179:2.0 4158165:42.0 4161235:4.0 4168918:1.0 4183384:42.0
0.0 13012:10.0 22242:12.0 24993:1.0 35493:1.0 66133:1.0 127501:5.0 131154:64.0 137885:1.0 139151:1.0 144363:1.0 145175:1.0 147260:2110000.0 148569:2.0 149227:1.0 150230:3.0 151622:200000.0 167546:4.0 189213:1.0 196438:122000.0 196959:1.0 198291:1.0 218782:1.0 255458:1.0 309651:1.0 316839:2231000.0 371164:1.0 389608:1.0 404227:2.0 435008:9.0 448798:5.0 455934:4.0 472719:6.0 476840:3.0 512768:5.0 515858:2.0 549732:2.0 581549:1.0 606347:2.0 607403:1.0 611957:4.0 619056:12.0 626458:1.0 628166:1.0 647919:1.0 652858:1.0 667374:9.0 669180:4.0 682968:4.0 700991:4.0 728946:1.0 754717:26.0 760320:5.0 778910:4.0 784954:2.0 821129:2.0 821341:1.0 828749:1.0 840296:4.0 842927:50000.0 857581:80000.0 860118:5.0 867675:1.0 879197:50000.0 884917:1.0 888180:3.0 895446:1.0 918001:200000.0 921164:1.0 931876:40000.0 932050:2231000.0 933583:2231000.0 934381:1.0 953783:84.0 961934:1.0 962401:6.0 975319:2.0 984627:1.0 989606:4.0 992324:1.0 1003987:2.0 1008898:12.0 1013564:4.0 1033488:1.0 1046759:6.0 1047419:1.0 1051151:14.0 1054928:1.0 1055511:5.0 1079224:13.0 1080745:1.0 1096007:1.0 1109891:284.0 1118581:5.0 1126514:1.0 1127453:2.0 1132432:2.0 1138899:26.0 1150532:1.0 1164855:1.0 1200479:1.0 1206213:274.0 1206667:2.0 1217515:1.0 1225714:5.0 1225826:12.0 1257033:5.0 1273620:1.0 1274841:1.0 1276042:65.0 1278809:2.0 1298108:49.0 1314982:2.0 1324787:1.0 1329884:1.0 1373046:1.0 1382010:13.0 1400585:87.0 1409148:1.0 1427150:4.0 1444424:3.0 1456864:5.0 1457052:1.0 1468959:5.0 1476508:2.0 1499751:1.0 1514303:40000.0 1536885:1.0 1542209:1.0 1567443:4.0 1584688:22.0 1601459:50000.0 1601967:1.0 1644152:1.0 1675910:2.0 1690987:2.0 1699208:1.0 1701010:4.0 1710962:2.0 1711870:64.0 1716840:29.0 1755433:3.0 1760366:2110000.0 1798691:1.0 1805769:1.0 1811781:2110000.0 1824507:2.0 1853943:1.0 1855284:1.0 1856264:284.0 1873867:11.0 1889907:1.0 1908545:2.0 1918388:8.0 2005742:1.0 2018202:84.0 2031743:1.0 2060616:1.0 2069105:1.0 2093191:1.0 2095131:1.0 2096938:1.0 2103618:1.0 2114048:1.0 2119047:48.0 2148920:6.0 2151656:284.0 2163992:9.0 2180059:1.0 2209666:1.0 2218414:1.0 2243125:2240000.0 2309409:2231000.0 2322895:1.0 2343191:12.0 2344285:20000.0 2349835:5.0 2355060:2.0 2378313:1.0 2391301:38.0 2393031:1.0 2400572:1.0 2404062:22.0 2409788:1.0 2422865:1.0 2514872:3.0 2516406:1.0 2520173:1.0 2540840:1.0 2570426:1.0 2591075:1.0 2595518:5.0 2596654:4.0 2621755:4471000.0 2622701:13.0 2634184:1.0 2636761:1.0 2688647:1.0 2696511:1.0 2721787:1.0 2744221:130000.0 2748784:1.0 2756991:1.0 2759455:2.0 2767658:4.0 2775902:2.0 2782786:5.0 2785174:1.0 2789942:1.0 2793055:3.0 2802808:1.0 2802840:14.0 2813897:284.0 2817276:13.0 2817547:2.0 2820017:284.0 2825163:2.0 2835027:1.0 2843444:1.0 2855625:2.0 2900829:20000.0 2913083:4.0 2919818:9.0 2926278:1.0 2945566:1.0 2952354:1.0 2963249:1.0 2978636:1.0 2979729:1.0 2984914:5.0 2998252:12.0 3019499:1.0 3022526:1.0 3055673:21.0 3067740:2110000.0 3088564:1810000.0 3090195:1.0 3115118:1.0 3115614:1.0 3119165:4.0 3136260:5.0 3138163:1.0 3146672:4.0 3163869:1.0 3201422:1.0 3214084:20000.0 3223233:1.0 3243013:2.0 3261256:1.0 3273003:1.0 3287210:284.0 3304868:2231000.0 3314917:1.0 3320363:1.0 3320733:5.0 3334615:4471000.0 3346977:1.0 3358540:41.0 3358939:1.0 3392438:14.0 3402137:4.0 3403089:2.0 3408931:20000.0 3498014:6.0 3505026:5.0 3508946:4.0 3524537:2.0 3542648:1.0 3548620:4.0 3549733:2.0 3553993:1.0 3556182:2.0 3573608:80000.0 3574665:1.0 3594859:1.0 3606691:4.0 3622815:1.0 3625498:1.0 3628003:87.0 3630371:1.0 3656623:65.0 3660501:3.0 3661348:4.0 3666001:9.0 3667959:2.0 3673009:6.0 3676175:2231000.0 3702957:284.0 3743658:1810000.0 3746783:1.0 3754190:3.0 3757352:1.0 3765141:2110000.0 3800531:13.0 3815751:130000.0 3822719:284.0 3870296:284.0 3892453:15.0 3893191:1.0 3900353:2.0 3904536:4.0 3905076:1.0 3915998:1.0 3956235:1.0 3968981:99000.0 3998695:2.0 4011386:100000.0 4029384:4.0 4036341:2.0 4056145:1.0 4068489:1.0 4082151:1.0 4084682:123.0 4089801:1.0 4108680:4.0 4121743:50000.0 4130296:1.0 4153504:14.0 4158165:284.0 4161235:39.0 4173689:1.0 4175255:1.0
0.0 24243:1.0 24993:3.0 30005:16.0 52294:18.0 66133:3.0 84455:1.0 88238:2.0 101651:1.0 119193:5.0 127501:2.0 131154:19.0 140443:2.0 145175:3.0 145188:3.0 167546:1.0 167590:4.0 168807:4.0 187643:1.0 256319:4.0 268981:1.0 271359:2.0 276621:1.0 309992:3.0 316839:40000.0 326236:1.0 440130:145.0 440135:69.0 447183:5.0 447940:112.0 448798:2.0 455255:145.0 519322:2.0 543169:2.0 569992:5.0 580936:1.0 583675:1.0 588195:2.0 609501:16.0 635839:1.0 638434:20000.0 642137:1.0 658829:1.0 667374:4.0 677109:3.0 682968:1.0 684777:1.0 692735:2.0 700991:3.0 705944:1.0 721134:6.0 731313:1.0 753075:12.0 760320:7.0 771386:1.0 777258:4.0 800337:1.0 821129:2.0 850806:17.0 857581:20000.0 877059:2.0 893685:47.0 899443:20000.0 905479:1.0 924726:2.0 926131:1.0 927788:33.0 932050:40000.0 933583:40000.0 935656:1.0 944386:4.0 962401:2.0 987468:1.0 1008898:5.0 1049192:2.0 1055078:1.0 1055511:2.0 1060028:2.0 1079224:2.0 1085604:2.0 1109891:261.0 1112149:1.0 1132432:2.0 1138899:31.0 1166104:1.0 1184975:1.0 1189993:1.0 1206213:83.0 1209202:4.0 1212745:2.0 1219665:3.0 1237287:1.0 1256899:1.0 1257033:2.0 1275964:1.0 1375188:9.0 1377006:1.0 1382010:8.0 1390731:1.0 1409208:1.0 1450451:1.0 1456864:6.0 1468959:2.0 1497000:20000.0 1528868:69.0 1535713:1.0 1562341:1.0 1591766:1.0 1601459:40000.0 1657202:1.0 1687438:1.0 1711870:19.0 1716840:23.0 1725953:3.0 1750868:10000.0 1765759:4.0 1782982:3.0 1784832:2.0 1820869:1.0 1831468:1.0 1836007:10000.0 1856264:261.0 1873867:6.0 1875935:6.0 1885982:6.0 1900906:1.0 1918388:12.0 1950166:1.0 2007320:1.0 2022304:3.0 2047297:1.0 2060581:2.0 2068236:1.0 2081804:2.0 2089579:1.0 2091985:2.0 2117540:1.0 2130535:1.0 2148034:3.0 2151772:1.0 2180059:2.0 2200537:17.0 2243125:60000.0 2256217:1.0 2268100:1.0 2324731:15.0 2325507:1.0 2332318:1.0 2333875:20000.0 2342393:214.0 2343191:5.0 2346587:3.0 2349835:6.0 2356204:8.0 2375107:1.0 2391301:34.0 2401222:3.0 2409788:2.0 2435271:1.0 2442317:33.0 2474360:1.0 2490364:21.0 2491365:69.0 2504543:5.0 2508376:2.0 2510974:1.0 2524634:2.0 2546705:1.0 2548704:1.0 2566109:2.0 2571751:3.0 2579821:20000.0 2584991:1.0 2590938:1.0 2595518:11.0 2600131:18.0 2608643:1.0 2615252:1.0 2621755:80000.0 2622701:2.0 2623441:1.0 2625137:1.0 2634184:7.0 2648110:5.0 2648234:2.0 2654483:20000.0 2661311:9.0 2681082:1.0 2735603:1.0 2736368:2.0 2744221:40000.0 2753998:1.0 2762838:1.0 2777831:1.0 2782786:3.0 2802840:6.0 2816499:2.0 2816938:3.0 2817276:12.0 2865840:47.0 2884561:3.0 2919818:7.0 2945907:2.0 2970879:12.0 2976515:1.0 2984963:1.0 2989677:1.0 2993095:1.0 2996997:1.0 3000662:1.0 3003379:2.0 3008283:1.0 3035536:145.0 3058546:1.0 3066164:1.0 3088033:7.0 3088945:1.0 3097164:4.0 3121652:20000.0 3136260:4.0 3158492:1.0 3171807:6.0 3173754:1.0 3215579:20000.0 3250025:1.0 3256364:2.0 3279295:3.0 3287210:261.0 3304868:40000.0 3320733:11.0 3334615:100000.0 3338625:2.0 3373298:1.0 3392438:15.0 3395834:2.0 3402137:3.0 3453314:6.0 3455322:4.0 3490417:1.0 3496058:20000.0 3498014:2.0 3505026:4.0 3512455:2.0 3548620:1.0 3552069:1.0 3553993:5.0 3572787:20000.0 3573608:20000.0 3583262:3.0 3603736:1.0 3618262:7.0 3625498:7.0 3626914:1.0 3628003:16.0 3652393:18.0 3652608:4.0 3656623:69.0 3666001:6.0 3671562:1.0 3675566:1.0 3676175:40000.0 3679547:261.0 3702957:261.0 3714630:1.0 3726647:2.0 3785724:1.0 3796036:1.0 3804786:2.0 3808998:1.0 3815751:60000.0 3822719:261.0 3854926:1.0 3864975:4.0 3891374:31.0 3901735:2.0 3962422:1.0 4023716:3.0 4029384:2.0 4035637:10000.0 4045539:1.0 4051072:1.0 4058809:1.0 4074577:2.0 4084682:31.0 4092562:2.0 4107660:10000.0 4121743:40000.0 4126841:4.0 4138142:1.0 4153504:5.0 4158165:261.0 4161235:16.0 4179973:3.0 4181265:261.0 4184017:3.0 4192941:5.0
0.0 3004:1.0 24993:1.0 37762:109.0 52294:30.0 53777:1.0 59054:3.0 66133:1.0 66863:8.0 77157:45000.0 80959:6.0 88630:26.0 89541:1.0 101692:25.0 127501:2.0 131154:57.0 136548:10000.0 140789:4.0 145175:1.0 150170:3.0 196618:1.0 196959:1.0 208538:2.0 229559:82.0 270431:1.0 276308:3.0 279306:1.0 296157:3.0 312650:2.0 316839:30000.0 333766:1.0 357322:1.0 375797:1.0 381440:3.0 394970:1.0 406683:7.0 413770:5.0 424215:1.0 427427:1.0 435008:2.0 439907:1.0 440135:19.0 446930:45000.0 447940:21.0 448798:2.0 472116:1.0 480402:26.0 551497:1.0 566965:1.0 578740:530.0 583914:1.0 585138:530.0 608642:1.0 667374:2.0 679741:1.0 721134:10.0 753075:12.0 760320:1.0 793600:1.0 795073:27.0 800928:7.0 807204:1.0 818272:1.0 821129:1.0 837074:1.0 850806:18.0 853224:5.0 868966:6.0 869642:4.0 884680:1.0 885757:3.0 892466:1.0 893685:37.0 897314:17.0 900436:1.0 927788:530.0 929878:530.0 932050:30000.0 933583:30000.0 933794:1.0 943687:1.0 944028:530.0 962401:1.0 1008898:3.0 1019018:3.0 1019321:1.0 1023144:1.0 1038807:1.0 1052268:19.0 1055511:2.0 1104561:1.0 1128215:1.0 1132432:1.0 1138899:37.0 1144969:1.0 1155946:1.0 1162840:1.0 1166104:3.0 1201343:1.0 1205737:1.0 1213986:82.0 1241911:1.0 1257033:2.0 1279110:1.0 1298108:39.0 1308423:1.0 1351640:1.0 1375188:5.0 1382010:3.0 1400585:151.0 1456864:1.0 1460046:1.0 1464318:14.0 1466042:3.0 1468959:2.0 1488690:3.0 1509519:1.0 1519821:1.0 1536656:9.0 1556919:1.0 1568390:6.0 1585123:3.0 1601459:10000.0 1631728:1.0 1663278:6.0 1684691:5.0 1711808:20000.0 1711870:57.0 1716840:12.0 1745206:1.0 1809421:1.0 1818468:173.0 1872998:1.0 1873867:4.0 1877902:1.0 1892790:1.0 1901274:1.0 1918388:1.0 1919849:3.0 1924899:3.0 1929687:1.0 1957971:12.0 1963625:1.0 1972015:1.0 1986045:6.0 1997901:1.0 1999156:1.0 2022304:9.0 2031584:26.0 2066286:5.0 2069679:1.0 2106227:3.0 2114048:1.0 2115412:4.0 2119047:37.0 2133040:1.0 2133760:186.0 2138883:1.0 2163992:2.0 2173942:1.0 2175205:1.0 2180059:8.0 2200537:25.0 2210684:3.0 2243125:55000.0 2251574:3.0 2260938:1.0 2287948:1.0 2316599:45000.0 2324731:115.0 2325507:1.0 2328749:10.0 2342393:384.0 2343191:3.0 2349835:1.0 2356204:13.0 2372009:7.0 2391301:12.0 2401222:9.0 2404062:75.0 2409788:3.0 2422865:2.0 2440754:2.0 2463455:4.0 2490364:125.0 2491365:19.0 2504543:115.0 2512370:5.0 2531755:5.0 2539820:1.0 2542181:5.0 2571751:7.0 2590882:20000.0 2591075:1.0 2593555:1.0 2594308:1.0 2595518:1.0 2600131:39.0 2611377:151.0 2612256:2.0 2620410:530.0 2621755:85000.0 2634184:19.0 2647572:83.0 2670372:1.0 2676486:1.0 2677458:21.0 2682812:1.0 2685087:5.0 2690047:1.0 2700248:11.0 2744221:10000.0 2753998:6.0 2782786:1.0 2802840:4.0 2815084:530.0 2816669:2.0 2816802:4.0 2816938:114.0 2817276:6.0 2818774:3.0 2819181:2.0 2827708:1.0 2838581:1.0 2851740:1.0 2865084:6.0 2865840:251.0 2885093:2.0 2895122:1.0 2897338:1.0 2910276:2.0 2919613:1.0 2919818:2.0 2924321:1.0 2950115:3.0 2951351:1.0 2968228:1.0 2970879:20.0 2975932:6.0 2981391:109.0 2995485:2.0 3008283:1.0 3018630:45000.0 3030183:12.0 3035624:2.0 3072483:2.0 3100855:2.0 3106095:1.0 3110020:1.0 3136260:1.0 3140018:1.0 3163936:12.0 3167075:1.0 3176399:10000.0 3212520:1.0 3215861:530.0 3226531:1.0 3239639:49.0 3243528:2.0 3261874:5.0 3263293:1.0 3287210:530.0 3304868:30000.0 3317144:1.0 3320733:25.0 3334615:85000.0 3349534:1.0 3358540:106.0 3366635:4.0 3381236:1.0 3392438:3.0 3397385:2.0 3431533:2.0 3442827:1.0 3444770:1.0 3448065:2.0 3453314:10.0 3455992:1.0 3457952:23.0 3490760:3.0 3498014:1.0 3505026:2.0 3507670:1.0 3519227:1.0 3553993:13.0 3556650:1.0 3600806:1.0 3609646:10000.0 3625498:19.0 3628003:232.0 3631929:5.0 3636782:3.0 3643053:1.0 3647831:1.0 3652393:39.0 3656377:1.0 3666001:1.0 3671562:3.0 3676175:30000.0 3683156:1.0 3736248:2.0 3746525:3.0 3756999:45000.0 3764338:10000.0 3795776:1.0 3796930:1.0 3799951:5.0 3804786:1.0 3815751:55000.0 3822719:530.0 3891374:37.0 3910102:1.0 3911658:1.0 3911759:1.0 3920037:3.0 3934117:3.0 3937637:2.0 3963088:11.0 3963453:1.0 3979330:1.0 3996334:5.0 3999059:1.0 4029384:3.0 4034245:2.0 4049599:1.0 4060460:1.0 4069857:22.0 4087977:7.0 4121743:10000.0 4153504:4.0 4155935:4.0 4156476:2.0 4161235:4.0 4162198:2.0 4179988:1.0 4183384:62.0 4190515:1.0 4191345:1.0 4193014:1.0
0.0 52294:3.0 127501:2.0 140443:1.0 196014:3.0 197177:1.0 225256:2.0 273538:2.0 275858:2.0 312650:1.0 315773:1.0 316839:80000.0 447273:1.0 448798:2.0 454075:1.0 455255:50.0 490648:1.0 623483:1.0 633507:1.0 638434:80000.0 721134:4.0 743635:1.0 753075:15.0 795073:9.0 809548:6.0 828203:5.0 835915:9.0 850806:11.0 893685:59.0 903806:1.0 929878:78.0 932050:80000.0 933583:80000.0 987809:1.0 1055511:2.0 1109891:78.0 1170627:1.0 1172120:1.0 1206213:75.0 1257033:2.0 1298108:1.0 1375188:6.0 1382010:2.0 1399311:2.0 1438057:3.0 1468959:2.0 1530051:80000.0 1541164:1.0 1566458:2.0 1603617:3.0 1607584:3.0 1753782:50.0 1771792:78.0 1801986:3.0 1856264:78.0 2018202:9.0 2022304:4.0 2133760:2.0 2172347:1.0 2200537:15.0 2256841:1.0 2324731:10.0 2342393:19.0 2356204:4.0 2377831:1.0 2391301:6.0 2401222:4.0 2404062:17.0 2418952:1.0 2422433:1.0 2442317:50.0 2490364:14.0 2504543:15.0 2519143:1.0 2548704:2.0 2571751:3.0 2600131:3.0 2611209:78.0 2639242:2.0 2677458:2.0 2802840:2.0 2815084:78.0 2816938:10.0 2817276:2.0 2859062:1.0 2865840:78.0 2970879:2.0 2976515:3.0 3158624:1.0 3195560:3.0 3239639:17.0 3262619:1.0 3287210:78.0 3304868:80000.0 3334615:80000.0 3388574:2.0 3453314:1.0 3580841:5.0 3652393:3.0 3676175:80000.0 3785451:15.0 3785724:2.0 3800531:2.0 3804786:5.0 3822719:78.0 3846575:80000.0 3946586:3.0 3946741:1.0 4000568:1.0 4051072:2.0 4054861:1.0 4084682:11.0 4158165:78.0 4161235:3.0 4175018:1.0
0.0 30005:25.0 52294:3.0 58798:10000.0 66133:1.0 131154:7.0 166791:1.0 167546:1.0 359919:3.0 561290:1.0 586996:21.0 600035:36.0 667374:1.0 696014:6.0 721134:1.0 754717:25.0 825166:1.0 850806:1.0 889026:1.0 901202:1.0 919867:15.0 922950:4.0 927788:36.0 929878:36.0 1057681:10000.0 1079224:1.0 1083643:25.0 1109891:36.0 1138899:25.0 1142786:1.0 1148806:2.0 1184975:1.0 1253476:25.0 1298108:11.0 1312595:1.0 1411848:1.0 1427150:1.0 1468142:4.0 1504201:25.0 1507212:1.0 1524246:1.0 1544933:3.0 1584688:11.0 1613206:2.0 1620713:25.0 1711870:7.0 1716840:1.0 1718863:1.0 1856264:11.0 1896256:11.0 1919128:1.0 2019419:7.0 2022247:1.0 2022304:1.0 2030695:1.0 2048486:25.0 2178099:1.0 2243125:10000.0 2342393:11.0 2356204:1.0 2401222:1.0 2404062:11.0 2409788:2.0 2455006:1.0 2490364:1.0 2496733:1.0 2504543:1.0 2600131:5.0 2621755:10000.0 2622701:1.0 2744695:1.0 2802840:1.0 2815084:36.0 2816938:1.0 2970879:2.0 3035536:11.0 3121652:10000.0 3239334:1.0 3245991:1.0 3287210:36.0 3320733:2.0 3334615:10000.0 3453314:1.0 3489502:1.0 3505026:1.0 3529207:1.0 3573608:10000.0 3634268:1.0 3652393:5.0 3728178:2.0 3746652:1.0 3784435:10000.0 3815751:10000.0 3841848:1.0 3870571:3.0 3892453:2.0 4029384:1.0 4153504:1.0 4158165:11.0
0.0 11102:50000.0 13012:128.0 16264:1.0 18480:4.0 18962:1.0 24993:1.0 52294:24.0 62232:1.0 127501:1.0 131154:5.0 145175:1.0 145188:5.0 165553:35.0 180362:1.0 226370:1.0 229559:4.0 316839:100000.0 351060:9.0 377537:7.0 378926:1.0 422897:2.0 423822:4.0 448798:1.0 452275:2.0 488757:4.0 496740:1.0 511437:1.0 589602:1.0 609501:22.0 637736:1.0 667374:1.0 700991:1.0 721134:8.0 753075:11.0 821129:2.0 850806:32.0 893685:150.0 899312:6.0 932050:100000.0 933583:100000.0 962401:2.0 979595:1.0 1002886:6.0 1008898:2.0 1014814:35.0 1035722:1.0 1055511:1.0 1075117:1.0 1082584:189.0 1109891:189.0 1132432:2.0 1138899:163.0 1149758:1.0 1212006:1.0 1213986:4.0 1241911:2.0 1257033:1.0 1267627:2.0 1284342:2.0 1375188:20.0 1382010:3.0 1426697:5.0 1450451:5.0 1455910:50000.0 1468959:1.0 1512496:1.0 1567703:1.0 1601459:50000.0 1659805:5.0 1709012:1.0 1711870:5.0 1716840:11.0 1737796:6.0 1799152:3.0 1809421:2.0 1828845:2.0 1856264:189.0 1873867:3.0 1918388:2.0 1956248:2.0 1982389:1.0 2022304:3.0 2041306:3.0 2051576:1.0 2084157:1.0 2133760:4.0 2149050:4.0 2151148:11.0 2180059:1.0 2200537:32.0 2243125:50000.0 2324731:10.0 2325507:2.0 2339080:5.0 2342393:39.0 2343191:2.0 2356204:12.0 2391301:8.0 2401222:3.0 2409788:1.0 2490364:18.0 2504543:17.0 2517667:1.0 2571751:6.0 2579142:5.0 2588571:1.0 2591075:1.0 2600131:19.0 2606970:2.0 2621755:150000.0 2628420:5.0 2634184:1.0 2681082:5.0 2711024:100000.0 2744221:50000.0 2750650:1.0 2762670:4.0 2782786:1.0 2802840:2.0 2805521:1.0 2816792:2.0 2816938:4.0 2817276:3.0 2820017:189.0 2823734:1.0 2853445:5.0 2865840:154.0 2885548:1.0 2910060:3.0 2970879:11.0 2975932:5.0 2976515:6.0 3024471:2.0 3026225:2.0 3035536:35.0 3108201:2.0 3225506:1.0 3245150:1.0 3287210:189.0 3304868:100000.0 3320733:4.0 3334615:150000.0 3338880:1.0 3343808:3.0 3348230:2.0 3402137:1.0 3445345:5.0 3453314:6.0 3498014:2.0 3505026:1.0 3587916:13.0 3617201:1.0 3625498:1.0 3628003:22.0 3652393:19.0 3666001:1.0 3676175:100000.0 3702957:189.0 3757598:1.0 3782759:2.0 3800531:22.0 3804786:13.0 3810104:20.0 3815751:50000.0 3822719:189.0 3822999:1.0 3891374:128.0 3944862:100000.0 4082803:1.0 4121743:50000.0 4152331:3.0 4153504:2.0 4158165:189.0 4161235:3.0
0.0 13585:1.0 24993:1.0 27114:1.0 30005:89.0 59391:30000.0 80553:2.0 127501:3.0 131154:20.0 145175:1.0 153076:1.0 155440:1.0 157067:30000.0 165553:1.0 167546:2.0 174727:1.0 176447:128.0 203677:20000.0 229559:39.0 236504:2.0 251159:2.0 274441:1.0 316839:80000.0 319637:30000.0 385090:1.0 392435:1.0 416411:1.0 448798:3.0 455255:34.0 521437:6.0 535163:1.0 581549:1.0 610094:1.0 613992:3.0 633925:1.0 667374:3.0 682968:2.0 700991:3.0 721134:4.0 753689:2.0 760320:3.0 768134:1.0 804352:30000.0 812086:1.0 821129:2.0 850806:5.0 852199:1.0 857581:60000.0 868262:1.0 885757:4.0 927788:94.0 932050:80000.0 933583:80000.0 947666:1.0 981930:2.0 987587:2.0 1001201:1.0 1008898:3.0 1025992:1.0 1040689:1.0 1055511:3.0 1109891:128.0 1121498:1.0 1124011:1.0 1138899:1.0 1174378:1.0 1221157:1.0 1221240:128.0 1257033:3.0 1305892:3.0 1347316:4.0 1376685:1.0 1382010:3.0 1404079:1.0 1436202:1.0 1456864:3.0 1468959:3.0 1472615:2.0 1536656:12.0 1557494:2.0 1597017:3.0 1601459:20000.0 1624265:1.0 1711870:20.0 1716840:11.0 1753782:34.0 1770280:1.0 1856264:128.0 1873867:3.0 1918388:4.0 1956363:1.0 2008818:1.0 2022304:3.0 2065759:2.0 2067510:1.0 2118353:3.0 2169971:1.0 2210684:4.0 2218125:1.0 2241343:1.0 2243125:80000.0 2268947:128.0 2317005:38.0 2324731:8.0 2325507:1.0 2343191:3.0 2344285:30000.0 2349835:3.0 2350965:1.0 2356204:5.0 2391301:12.0 2401222:3.0 2404062:93.0 2422179:1.0 2424070:1.0 2439130:1.0 2473725:1.0 2474827:20000.0 2490264:30000.0 2490364:12.0 2504543:5.0 2519507:1.0 2534913:2.0 2545506:2.0 2595518:3.0 2600131:12.0 2611209:128.0 2619061:1.0 2621755:160000.0 2744221:80000.0 2759455:3.0 2782786:3.0 2802840:6.0 2816938:5.0 2817276:6.0 2837279:30000.0 2842785:1.0 2876938:1.0 2919818:9.0 3040691:1.0 3056796:20000.0 3075210:3.0 3108243:2.0 3118404:1.0 3136260:3.0 3149922:30000.0 3226115:1.0 3239639:55.0 3287210:128.0 3297396:1.0 3304868:80000.0 3329040:20000.0 3334615:160000.0 3374770:4.0 3387604:1.0 3392438:12.0 3402137:3.0 3403232:1.0 3419386:1.0 3419943:1.0 3424470:2.0 3443223:1.0 3490760:4.0 3505026:3.0 3548620:6.0 3573608:60000.0 3580895:1.0 3652393:12.0 3666001:3.0 3676175:80000.0 3702957:128.0 3713443:6.0 3767740:1.0 3815751:80000.0 3818960:1.0 3822719:128.0 3825276:1.0 3852164:1.0 3852892:1.0 3855813:3.0 3877600:1.0 3999726:1.0 4029384:1.0 4071969:1.0 4090673:1.0 4121743:20000.0 4132946:10.0 4153504:6.0 4153570:2.0 4158165:128.0 4161235:15.0
0.0 40865:1.0 48944:1.0 52294:32.0 66133:4.0 68800:3.0 88069:17.0 99431:10.0 127501:1.0 131154:24.0 148928:46.0 155440:1.0 178162:2.0 220539:2.0 239905:1.0 294014:1.0 304649:1.0 312043:2.0 312650:1.0 316839:10000.0 320004:1.0 387976:1.0 440135:30.0 448798:1.0 455255:22.0 472368:1.0 475359:27.0 499966:8.0 578740:369.0 585138:369.0 589602:1.0 698849:3.0 715332:369.0 721134:6.0 753075:6.0 795073:139.0 804352:10000.0 834428:6.0 850806:25.0 852199:1.0 893685:79.0 922950:9.0 929878:369.0 932050:10000.0 933583:10000.0 935656:2.0 1008898:1.0 1029052:6.0 1041690:10.0 1048101:4.0 1055511:1.0 1130240:1.0 1138899:27.0 1170627:3.0 1191164:17.0 1206213:114.0 1213986:87.0 1257033:1.0 1361871:2.0 1375188:15.0 1382010:1.0 1450374:3.0 1468959:1.0 1503045:9.0 1535305:1.0 1584000:9.0 1584688:30.0 1605471:18.0 1609365:5.0 1618466:17.0 1625982:1.0 1648795:1.0 1659788:2.0 1673711:255.0 1711870:24.0 1716840:4.0 1737796:9.0 1753782:22.0 1757517:3.0 1809421:26.0 1818468:27.0 1873867:2.0 1900906:3.0 1940333:2.0 1947312:15.0 1989703:8.0 2006726:1.0 2019419:10.0 2022304:4.0 2074729:15.0 2102156:1.0 2133760:87.0 2156140:6.0 2180059:2.0 2200537:10.0 2289361:1.0 2317005:203.0 2324731:79.0 2325507:2.0 2342393:290.0 2343191:1.0 2356204:7.0 2372009:4.0 2376800:1.0 2391301:4.0 2401222:4.0 2404062:233.0 2409788:4.0 2482659:1.0 2490364:85.0 2504543:78.0 2536817:1.0 2542761:1.0 2569166:17.0 2571751:4.0 2588638:1.0 2600131:23.0 2611377:27.0 2620410:369.0 2621755:10000.0 2634184:5.0 2679327:1.0 2695394:1.0 2698986:1.0 2734308:2.0 2748168:4.0 2753998:4.0 2759955:1.0 2795608:4.0 2802840:1.0 2814843:16.0 2815084:369.0 2816938:77.0 2817276:2.0 2832539:1.0 2837279:10000.0 2841082:1.0 2865840:109.0 2872650:3.0 2959898:1.0 2970879:15.0 2993984:1.0 3007456:5.0 3035536:203.0 3213185:3.0 3228916:3.0 3255903:47.0 3265203:1.0 3271400:3.0 3287210:369.0 3297025:9.0 3304868:10000.0 3320733:7.0 3334615:10000.0 3361300:1.0 3363171:2.0 3395834:1.0 3431533:1.0 3453314:7.0 3462000:2.0 3535285:3.0 3553993:1.0 3559043:4.0 3625498:5.0 3641426:2.0 3652393:23.0 3666938:1.0 3676175:10000.0 3708365:5.0 3722103:1.0 3744634:1.0 3755497:1.0 3777830:1.0 3795776:2.0 3804786:1.0 3822719:369.0 3879439:3.0 3927188:4.0 3992130:369.0 4029528:1.0 4058809:3.0 4061677:1.0 4084005:1.0 4084682:203.0 4138894:3.0 4153504:1.0 4161235:1.0 4178991:1.0
0.0 12850:2.0 15806:1.0 23688:1.0 24993:3.0 37762:461.0 48756:20000.0 52294:12.0 66133:4.0 123933:7.0 127501:2.0 131154:45.0 136548:40000.0 145175:3.0 145188:4.0 167546:1.0 188897:5.0 229559:44.0 230234:8.0 243643:2.0 295057:2.0 312650:2.0 316839:20000.0 326112:1.0 328816:3.0 335025:2.0 395417:4.0 435294:18.0 437569:4.0 440130:83.0 447940:83.0 448798:2.0 455255:83.0 457578:1.0 461680:10.0 525441:4.0 578740:709.0 585138:709.0 609501:35.0 636771:2.0 659461:1.0 666647:1.0 667374:4.0 678791:1.0 679640:434.0 682968:1.0 691304:5.0 700991:4.0 709978:1.0 711590:1.0 721134:4.0 753075:14.0 757728:2.0 760320:5.0 764531:2.0 772928:2.0 784957:2.0 810606:16.0 827627:5.0 828203:110.0 850806:34.0 851063:6.0 857581:20000.0 858878:2.0 868328:3.0 885757:7.0 893685:140.0 908030:2.0 918390:1.0 922950:2.0 927788:472.0 929878:709.0 932050:20000.0 933583:20000.0 935656:4.0 936966:2.0 961171:1.0 962401:2.0 984045:2.0 1005943:2.0 1008898:6.0 1014814:280.0 1015018:20000.0 1041690:6.0 1055511:2.0 1062745:1.0 1107660:2.0 1132432:7.0 1138899:27.0 1166104:4.0 1170627:4.0 1204657:2.0 1231926:3.0 1241911:12.0 1254251:1.0 1256828:2.0 1257033:2.0 1294974:1.0 1296487:1.0 1297896:2.0 1298108:105.0 1321829:8.0 1375188:11.0 1382010:6.0 1384552:2.0 1395946:1.0 1442363:1.0 1450451:2.0 1456023:1.0 1456864:5.0 1462316:2.0 1468959:2.0 1474441:20.0 1490032:6.0 1507958:2.0 1524383:1.0 1536656:21.0 1544890:2.0 1553230:1.0 1564229:2.0 1601459:60000.0 1607812:20000.0 1623579:1.0 1630306:1.0 1634426:1.0 1670953:70.0 1711870:45.0 1713047:2.0 1716840:18.0 1734804:74.0 1803811:5.0 1809421:20.0 1858268:4.0 1858608:10.0 1873867:3.0 1891278:2.0 1892790:1.0 1900906:6.0 1918388:7.0 1947502:1.0 1954686:20.0 1958305:1.0 1962749:2.0 1986999:3.0 1987705:2.0 2018202:434.0 2019419:6.0 2020683:2.0 2022304:11.0 2047750:1.0 2053899:1.0 2061440:709.0 2088527:2.0 2090696:1.0 2105976:5.0 2121719:3.0 2180059:19.0 2194029:10.0 2200537:22.0 2210684:7.0 2212034:18.0 2229046:5.0 2240128:2.0 2241179:9.0 2243125:80000.0 2262695:2.0 2278818:4.0 2288062:709.0 2324731:146.0 2325507:5.0 2342393:108.0 2343191:6.0 2349835:5.0 2356204:19.0 2391301:23.0 2401222:11.0 2409788:5.0 2417823:4.0 2471773:1.0 2473258:2.0 2490364:150.0 2491365:25.0 2491575:2.0 2504543:163.0 2511130:5.0 2527248:1.0 2530494:1.0 2542064:2.0 2557246:2.0 2559287:1.0 2564497:12.0 2571751:21.0 2581227:6.0 2582213:1.0 2595518:5.0 2598053:12.0 2600131:29.0 2620410:709.0 2621755:100000.0 2630386:1.0 2634184:31.0 2672111:4.0 2676169:4.0 2676746:3.0 2681082:2.0 2687892:1.0 2692830:4.0 2717459:1.0 2744221:80000.0 2753998:17.0 2767874:1.0 2777623:8.0 2781661:2.0 2782786:4.0 2802840:6.0 2815084:709.0 2816938:156.0 2817276:11.0 2865840:165.0 2892647:1.0 2895257:27.0 2919818:10.0 2941224:1.0 2970879:8.0 2976515:1.0 2981391:461.0 2986594:2.0 3026735:1.0 3034461:1.0 3035536:83.0 3037182:2.0 3061823:2.0 3066236:8.0 3077552:8.0 3087746:1.0 3121773:6.0 3127784:2.0 3136260:3.0 3152742:6.0 3164709:2.0 3170447:20.0 3176399:20000.0 3247205:6.0 3287210:709.0 3290213:4.0 3304868:20000.0 3317939:2.0 3320733:37.0 3330269:1.0 3334615:100000.0 3364728:3.0 3375546:2.0 3392438:13.0 3400220:1.0 3402137:4.0 3421849:2.0 3431044:2.0 3431533:2.0 3444770:2.0 3453314:4.0 3461892:2.0 3479370:3.0 3490760:7.0 3498014:2.0 3505026:4.0 3519227:2.0 3553993:6.0 3556650:2.0 3563262:5.0 3563980:20000.0 3564007:1.0 3573608:20000.0 3608510:1.0 3611681:1.0 3625498:31.0 3628003:60.0 3633350:1.0 3652393:29.0 3656623:105.0 3666001:4.0 3671562:4.0 3676175:20000.0 3687049:105.0 3713936:2.0 3727326:1.0 3741531:2.0 3760488:6.0 3767914:6.0 3774206:14.0 3795776:6.0 3800531:27.0 3804786:7.0 3815751:80000.0 3842337:1.0 3854342:3.0 3890510:1.0 3909013:2.0 3911603:4.0 3920192:1.0 3941377:4.0 3949141:1.0 3969756:1.0 3992130:709.0 3993879:20000.0 4029091:2.0 4037811:3.0 4039201:2.0 4058809:2.0 4061677:2.0 4072111:1.0 4073743:6.0 4075088:2.0 4077156:40000.0 4084005:4.0 4084682:35.0 4115718:20.0 4119689:1.0 4121743:60000.0 4130770:4.0 4153504:6.0 4161235:14.0 4183384:25.0
0.0 13012:49.0 22242:2.0 114205:1.0 127501:1.0 131154:36.0 268754:1.0 280925:4.0 293316:2.0 316839:35000.0 324331:2.0 399096:2.0 448798:1.0 452848:1.0 455255:49.0 558474:1.0 558883:1.0 578740:94.0 585138:94.0 609501:36.0 611957:2.0 619056:2.0 639012:50000.0 667374:1.0 669180:2.0 715332:94.0 772994:2.0 774146:2.0 788149:50000.0 799677:5.0 874208:1.0 885757:2.0 925633:1.0 927788:94.0 929878:94.0 932050:35000.0 933583:35000.0 943862:3.0 981741:50000.0 1008898:2.0 1017064:2.0 1030007:1.0 1040839:3.0 1055511:1.0 1079224:6.0 1135522:21.0 1166104:4.0 1166393:94.0 1257033:1.0 1284284:50000.0 1298108:36.0 1305239:2.0 1382010:2.0 1401317:11.0 1402066:1.0 1427150:1.0 1468959:1.0 1486418:1.0 1536656:6.0 1546887:50000.0 1596535:1.0 1711870:36.0 1716840:6.0 1752393:2.0 1753782:49.0 1873867:1.0 1904454:1.0 1960821:2.0 1970777:2.0 2003071:1.0 2018202:9.0 2178844:1.0 2180059:3.0 2194988:9.0 2210684:2.0 2231717:1.0 2232400:2.0 2243125:50000.0 2290099:35000.0 2321178:1.0 2325507:3.0 2343191:2.0 2368824:1.0 2391301:6.0 2409788:2.0 2493202:1.0 2538387:1.0 2567988:1.0 2620410:94.0 2621755:85000.0 2622701:6.0 2634184:8.0 2802840:2.0 2813897:94.0 2815084:94.0 2817276:2.0 2850029:1.0 2870995:1.0 2928196:2.0 2967183:1.0 2998252:1.0 3018661:50000.0 3101507:9.0 3108161:1.0 3177004:1.0 3266410:1.0 3287210:94.0 3304868:35000.0 3320733:8.0 3334615:85000.0 3394565:1.0 3397133:1.0 3444814:2.0 3464733:1.0 3490760:2.0 3504512:2.0 3553993:3.0 3625498:8.0 3628003:36.0 3671562:4.0 3676175:35000.0 3754190:1.0 3822719:94.0 3870296:94.0 3875302:35000.0 3892453:6.0 3900876:1.0 3906281:2.0 3969456:1.0 4029384:1.0 4037729:1.0 4153504:2.0 4161235:3.0
1.0 52294:6.0 131154:4.0 220982:1.0 260227:27.0 306143:4.0 319614:1.0 328967:10.0 443618:10.0 589602:1.0 590551:27.0 595124:459000.0 596660:459000.0 638434:4590000.0 659300:2.0 667374:10.0 721134:1.0 790507:459000.0 850806:1.0 902469:27.0 925175:459000.0 987507:1.0 999530:3.0 1017020:459000.0 1105569:1.0 1109891:27.0 1132432:1.0 1206213:27.0 1502219:1.0 1696107:1.0 1711870:4.0 1716840:3.0 1842625:2.0 1856264:27.0 1873867:1.0 2007561:1.0 2099001:1.0 2113932:1.0 2133760:27.0 2141923:4.0 2180059:1.0 2200537:4.0 2243125:4590000.0 2324731:1.0 2342393:27.0 2356204:1.0 2404949:1.0 2490364:2.0 2493202:4590000.0 2544147:1.0 2548704:10.0 2600131:3.0 2618193:4590000.0 2619017:459000.0 2634184:1.0 2677458:27.0 2745510:459000.0 2764795:1.0 2802840:10.0 2807909:459000.0 2829962:1.0 2865840:27.0 2970879:4.0 2975932:4.0 2998796:1.0 3160159:918000.0 3161275:10.0 3252562:1.0 3287210:27.0 3320733:3.0 3334615:4590000.0 3406844:1.0 3453314:1.0 3505026:10.0 3553993:1.0 3625498:1.0 3652393:3.0 3673584:27.0 3702051:4.0 3711852:2.0 3724088:4590000.0 3815751:4590000.0 3822719:27.0 3841399:1.0 3903040:27.0 3957066:1.0 3960343:4590000.0 3979719:10.0 4158165:27.0
1.0 1230:47.0 5518:4.0 6749:1.0 13012:51.0 13269:4.0 24993:3.0 44959:3.0 45096:2.0 45577:1.0 52294:38.0 88630:4.0 127501:5.0 131154:13.0 144690:11.0 145175:3.0 147260:210000.0 152364:2.0 155440:1.0 167546:1.0 280779:1.0 309634:1.0 316839:450000.0 317023:2.0 327825:1.0 329018:8.0 352677:1.0 403846:1.0 421663:1.0 435008:4.0 440069:4.0 440135:147.0 441578:1.0 448798:5.0 455255:47.0 459819:1.0 464261:2.0 475359:4.0 479332:2.0 488125:1.0 524918:1.0 561072:1.0 576903:3.0 589602:3.0 590950:1.0 609501:82.0 619479:2.0 620599:1.0 629050:200000.0 640533:4.0 667374:6.0 668579:2.0 682968:1.0 700991:1.0 721134:15.0 740794:1.0 742820:1.0 753075:24.0 760320:3.0 795073:60.0 800584:1.0 850806:60.0 857581:50000.0 893685:227.0 895160:3.0 912991:2.0 922950:3.0 927788:51.0 932050:450000.0 933583:450000.0 944386:10.0 947183:2.0 954240:2.0 962401:4.0 982490:5.0 994080:1.0 1008898:9.0 1013564:2.0 1014814:100.0 1020523:1.0 1041690:6.0 1054439:5.0 1055511:5.0 1074012:50000.0 1108848:1.0 1109891:386.0 1138899:4.0 1140741:10000.0 1153331:5.0 1159103:42.0 1192027:80000.0 1203499:3.0 1206213:335.0 1209784:3.0 1213143:1.0 1213844:1.0 1224798:1.0 1257033:5.0 1258670:2.0 1269449:1.0 1276042:51.0 1293541:1.0 1304466:2.0 1304889:4.0 1347645:3.0 1375188:34.0 1382010:9.0 1400348:1.0 1401796:210000.0 1426409:1.0 1456864:3.0 1468959:5.0 1497581:6.0 1499673:3.0 1509071:100000.0 1520854:3.0 1525731:1.0 1567443:2.0 1571860:1.0 1577240:2.0 1584688:100.0 1586137:3.0 1601459:200000.0 1612419:4.0 1617333:1.0 1619432:1.0 1628722:2.0 1640927:2.0 1655946:1.0 1656753:8.0 1681291:2.0 1689351:2.0 1701010:2.0 1711870:13.0 1716840:12.0 1738521:4.0 1746702:1.0 1755572:2.0 1760366:210000.0 1809421:8.0 1811781:210000.0 1818468:42.0 1841124:1.0 1856264:386.0 1873867:3.0 1910896:2.0 1918388:6.0 1923447:6.0 1931258:4.0 1983419:4.0 1983963:20000.0 2016797:9.0 2018202:45.0 2019419:3.0 2022304:8.0 2022415:4.0 2040551:1.0 2098562:1.0 2117220:14.0 2119047:82.0 2133040:2.0 2133760:41.0 2163992:4.0 2171437:4.0 2200537:32.0 2208345:2.0 2238901:4.0 2243125:460000.0 2294306:1.0 2295775:6.0 2317005:16.0 2324731:21.0 2325249:1.0 2328567:2.0 2342393:159.0 2343191:9.0 2344080:3.0 2349835:3.0 2356204:26.0 2365430:1.0 2366696:1.0 2391301:37.0 2401222:8.0 2404062:116.0 2423798:2.0 2439471:1.0 2460217:100000.0 2490364:36.0 2504543:40.0 2516426:6.0 2540160:5.0 2542626:2.0 2571751:14.0 2595518:3.0 2596654:2.0 2600131:32.0 2611209:386.0 2611377:100.0 2613849:1.0 2614190:1.0 2618902:5.0 2621755:910000.0 2659818:1.0 2665970:2.0 2681250:1.0 2684055:5.0 2708129:20000.0 2714250:1.0 2723376:100000.0 2741997:2.0 2744221:250000.0 2753998:3.0 2756184:1.0 2782786:4.0 2783269:1.0 2802840:11.0 2816938:15.0 2817276:16.0 2821966:1.0 2830362:5.0 2837279:80000.0 2841291:1.0 2865840:123.0 2866188:100000.0 2890097:1.0 2907183:1.0 2913083:2.0 2919818:5.0 2923376:1.0 2958632:6.0 2962071:50000.0 2970583:1.0 2970879:25.0 2974552:3.0 2976515:10.0 2984629:1.0 2989677:1.0 3008283:6.0 3016043:3.0 3035536:16.0 3057323:5.0 3067740:210000.0 3093516:4.0 3101507:45.0 3109279:3.0 3136260:3.0 3139661:1.0 3143036:1.0 3162207:386.0 3174115:1.0 3176818:2.0 3199402:2.0 3205549:100000.0 3213136:3.0 3263760:2.0 3287210:386.0 3304868:450000.0 3334615:910000.0 3347786:2.0 3359894:2.0 3367066:200000.0 3376241:50000.0 3392438:18.0 3402137:1.0 3416087:11.0 3431260:1.0 3433671:4.0 3452339:6.0 3453314:9.0 3463345:1.0 3490697:386.0 3492619:2.0 3498014:4.0 3505026:4.0 3510729:50000.0 3539391:2.0 3573608:50000.0 3622780:1.0 3628003:82.0 3640466:3.0 3652393:32.0 3656623:51.0 3666001:5.0 3668711:3.0 3676175:450000.0 3702957:386.0 3742185:2.0 3742758:41.0 3745015:1.0 3765141:210000.0 3804786:25.0 3815751:250000.0 3821365:6.0 3824641:2.0 3839196:2.0 3840457:5.0 3856742:1.0 3870889:14.0 3886841:1.0 3910116:1.0 3952288:90000.0 3991711:3.0 4010062:3.0 4013348:1.0 4024134:11.0 4029384:3.0 4044276:1.0 4044495:1.0 4055049:1.0 4056349:1.0 4121743:200000.0 4125579:1.0 4153504:11.0 4158165:386.0 4161235:14.0 4189242:3.0
