1.0 30005:43.0 66133:1.0 131154:15.0 167546:1.0 191131:9.0 289266:43.0 359919:6.0 400509:1.0 404227:1.0 455255:43.0 475359:7.0 545963:6.0 600035:50.0 667374:1.0 682968:1.0 778376:6.0 857581:10000.0 885757:1.0 919867:50.0 922950:6.0 927788:50.0 929878:50.0 931876:10000.0 999982:2.0 1004475:43.0 1079224:3.0 1083643:50.0 1109891:50.0 1138236:1.0 1138899:7.0 1142786:1.0 1253476:50.0 1292088:1.0 1312595:1.0 1333859:1.0 1391411:6.0 1441195:1.0 1536656:3.0 1539709:7.0 1561486:1.0 1620713:43.0 1711870:15.0 1716840:1.0 1940264:1.0 2019419:11.0 2022247:2.0 2048486:43.0 2114647:6.0 2127718:1.0 2180059:1.0 2210684:1.0 2243125:10000.0 2406710:10000.0 2409788:1.0 2600131:6.0 2621755:10000.0 2622701:3.0 2634184:1.0 2637410:1.0 2737783:1.0 2744221:10000.0 2782786:1.0 2802840:1.0 2815084:50.0 3286118:2.0 3287210:50.0 3320733:2.0 3333789:1.0 3334615:10000.0 3358540:7.0 3366133:1.0 3490760:1.0 3505026:1.0 3529207:1.0 3550673:1.0 3573608:10000.0 3625498:1.0 3634268:1.0 3652393:6.0 3743595:7.0 3815751:10000.0 3870571:6.0 3892453:1.0 3989266:1.0 4029384:1.0 4108262:1.0 4153504:1.0 4158165:7.0
0.0 22242:2.0 48756:100000.0 127501:1.0 131154:6.0 132925:2.0 167546:1.0 193421:1.0 316839:100000.0 423822:2.0 448798:1.0 455255:35.0 474595:2.0 502265:1.0 578740:35.0 585138:35.0 611957:1.0 619056:2.0 667374:1.0 669180:1.0 682968:1.0 700991:1.0 760320:1.0 770695:2.0 795073:2.0 821129:1.0 857581:100000.0 868783:33.0 901841:2.0 902469:33.0 929878:35.0 932050:100000.0 933583:100000.0 979715:1.0 1004475:35.0 1008898:2.0 1055511:1.0 1079224:2.0 1192135:1.0 1257033:1.0 1382010:2.0 1391933:2.0 1427150:1.0 1438296:1.0 1456864:1.0 1468959:1.0 1711870:6.0 1716840:4.0 1841478:2.0 1852894:1.0 1873867:1.0 1918388:1.0 1999155:35.0 2064639:100000.0 2213715:2.0 2243125:100000.0 2297270:100000.0 2343191:2.0 2349835:1.0 2391301:6.0 2564089:1.0 2595518:1.0 2620410:35.0 2621755:200000.0 2622701:2.0 2725710:1.0 2744221:100000.0 2782786:1.0 2802840:2.0 2813897:35.0 2815084:35.0 2817276:2.0 2919818:2.0 2959032:1.0 2998252:2.0 3069949:1.0 3119365:1.0 3136260:1.0 3287210:35.0 3296552:5.0 3304868:100000.0 3334615:200000.0 3349231:1.0 3392438:3.0 3402137:1.0 3470911:1.0 3505026:1.0 3515547:1.0 3573608:100000.0 3666001:1.0 3676175:100000.0 3710320:1.0 3719163:1.0 3754190:1.0 3795400:100000.0 3815751:100000.0 3822719:35.0 3870296:35.0 3892453:4.0 3946125:1.0 3969756:1.0 3992130:35.0 4029384:1.0 4122007:1.0 4151694:1.0 4153504:2.0 4161235:5.0
0.0 22242:1.0 24993:2.0 41966:1.0 52294:38.0 127501:2.0 145175:2.0 145188:14.0 227094:1.0 254220:6.0 312650:1.0 315224:1.0 316839:150000.0 353366:1.0 370226:1.0 391258:9.0 412437:4.0 416820:2.0 448798:2.0 589602:6.0 667374:2.0 686232:1.0 689430:1.0 721134:4.0 753075:19.0 786662:1.0 821129:5.0 837919:100000.0 840863:5.0 850806:17.0 869065:50000.0 874453:1.0 893685:200.0 932050:150000.0 933583:150000.0 951462:1.0 962401:3.0 1008898:4.0 1050337:100000.0 1055511:2.0 1062408:1.0 1093227:200.0 1109891:200.0 1138899:200.0 1165365:4.0 1204337:7.0 1206213:200.0 1220582:16.0 1241911:1.0 1257033:2.0 1323388:4.0 1324686:2.0 1371957:5.0 1375188:10.0 1382010:8.0 1440863:200.0 1450451:5.0 1468959:2.0 1531954:1.0 1536656:6.0 1601459:150000.0 1640927:2.0 1642032:1.0 1654266:1.0 1716840:10.0 1733177:1.0 1737796:5.0 1747045:3.0 1763805:100000.0 1801617:21.0 1809421:3.0 1892790:1.0 1894106:1.0 1918388:5.0 1933399:6.0 1976598:50000.0 2062671:1.0 2070662:6.0 2147707:1.0 2161325:2.0 2173939:1.0 2179732:8.0 2188359:10.0 2200537:48.0 2243125:150000.0 2263559:1.0 2324731:9.0 2343191:4.0 2356204:7.0 2358521:5.0 2391301:18.0 2490364:13.0 2491365:200.0 2504543:16.0 2526330:1.0 2540077:200.0 2571751:11.0 2595575:4.0 2600131:6.0 2621755:300000.0 2681082:10.0 2708147:5.0 2744221:150000.0 2753998:2.0 2782786:2.0 2802840:4.0 2817276:6.0 2865840:200.0 2910142:1.0 2970879:21.0 2976515:8.0 3280120:10.0 3287210:200.0 3291984:1.0 3304868:150000.0 3334615:300000.0 3366590:4.0 3399935:14.0 3410262:19.0 3453314:2.0 3498014:3.0 3505026:2.0 3604597:1.0 3649093:5.0 3652393:6.0 3666001:5.0 3676175:150000.0 3702957:200.0 3804786:16.0 3815751:150000.0 3822719:200.0 3882325:8.0 3891374:200.0 3929434:100000.0 3996714:50000.0 4101170:1.0 4121743:150000.0 4153504:4.0 4158165:200.0 4161235:9.0 4175994:1.0 4188570:50000.0
0.0 24993:1.0 52294:22.0 56802:2.0 66133:1.0 99355:1.0 127501:1.0 131154:14.0 145175:1.0 145188:8.0 167546:1.0 169425:5.0 171715:1.0 229559:7.0 263688:1.0 312650:1.0 316839:100000.0 404227:1.0 410379:1.0 423822:8.0 434785:1.0 444262:15.0 448798:1.0 473771:13.0 484208:1.0 485827:7.0 539504:1.0 578740:471.0 585138:471.0 586701:1.0 595565:1.0 609501:289.0 624072:1.0 635173:2.0 665764:1.0 667374:2.0 675905:1.0 682968:1.0 689430:1.0 712653:1.0 721134:6.0 753075:19.0 754717:39.0 793600:1.0 821129:2.0 821993:1.0 827905:2.0 828203:38.0 829322:100000.0 842589:3.0 850806:55.0 857581:20000.0 893685:327.0 913011:5.0 929878:471.0 931876:20000.0 932050:100000.0 933583:100000.0 941945:1.0 944028:144.0 952357:2.0 962401:3.0 986693:4.0 1008898:3.0 1035652:1.0 1049743:1.0 1055511:1.0 1080640:2.0 1109181:1.0 1120372:1.0 1123821:4.0 1138899:77.0 1140619:2.0 1170627:5.0 1181360:3.0 1206213:463.0 1223345:9.0 1241911:18.0 1257033:1.0 1317430:100000.0 1344947:5.0 1368364:1.0 1375188:21.0 1382010:4.0 1393033:2.0 1450451:2.0 1468959:1.0 1475843:2.0 1504274:2.0 1601459:100000.0 1607812:100000.0 1640927:4.0 1648946:5.0 1663100:20000.0 1687708:1.0 1697572:1.0 1711870:14.0 1716840:10.0 1724779:1.0 1737307:4.0 1782495:2.0 1809421:22.0 1830726:2.0 1848320:4.0 1892790:1.0 1918388:3.0 1931806:26.0 1935091:3.0 1952646:53.0 1975838:1.0 1979989:8.0 1992046:1.0 1994214:1.0 2018202:105.0 2022304:4.0 2031132:44.0 2081470:9.0 2111639:1.0 2129961:2.0 2142251:25.0 2158777:1.0 2180059:1.0 2182348:3.0 2200537:33.0 2243125:120000.0 2262142:22.0 2295242:4.0 2324731:103.0 2325507:1.0 2325689:2.0 2338473:1.0 2342393:144.0 2343191:3.0 2356204:29.0 2370331:1.0 2391301:11.0 2401222:4.0 2431714:6.0 2442317:105.0 2463879:1.0 2470990:2.0 2488275:2.0 2490364:111.0 2504543:136.0 2515300:1.0 2517214:2.0 2533419:2.0 2540160:32.0 2554700:1.0 2571751:8.0 2581227:2.0 2600131:20.0 2611377:144.0 2614874:1.0 2616657:5.0 2620410:471.0 2621755:220000.0 2626558:2.0 2634184:5.0 2661704:1.0 2669169:1.0 2681082:4.0 2718554:2.0 2744221:120000.0 2753998:2.0 2782786:2.0 2802840:3.0 2810280:1.0 2815084:471.0 2816938:107.0 2817276:4.0 2827487:2.0 2845047:3.0 2848549:1.0 2865840:327.0 2880518:2.0 2907599:1.0 2911892:3.0 2969306:8.0 2970879:14.0 2976515:5.0 2995485:3.0 3034448:2.0 3078968:1.0 3100045:19.0 3101507:105.0 3104499:1.0 3149795:471.0 3209326:2.0 3233156:3.0 3287210:471.0 3296876:1.0 3304868:100000.0 3318129:10.0 3320733:2.0 3331667:1.0 3334615:220000.0 3430409:1.0 3431533:1.0 3453314:7.0 3456253:1.0 3498014:3.0 3503590:1.0 3505026:2.0 3512681:1.0 3513224:2.0 3553993:1.0 3564028:1.0 3573608:20000.0 3578020:327.0 3616085:5.0 3622876:1.0 3625498:5.0 3627059:1.0 3628003:289.0 3633350:1.0 3652393:20.0 3666001:2.0 3676175:100000.0 3719175:2.0 3754025:1.0 3795776:2.0 3800531:199.0 3804786:29.0 3815751:120000.0 3822719:471.0 3845681:3.0 3851112:1.0 3891374:38.0 3941377:1.0 4002742:3.0 4029384:4.0 4038491:1.0 4084682:90.0 4112320:24.0 4121743:100000.0 4153504:3.0 4161235:6.0 4180824:5.0 4185707:100000.0 4193014:1.0
0.0 24993:1.0 30005:52.0 37762:163.0 52294:16.0 60119:3.0 78664:2.0 96833:2.0 127297:1.0 127501:1.0 131154:18.0 134823:1.0 145175:1.0 145188:3.0 196014:52.0 214835:1.0 229559:118.0 232252:2.0 257998:1.0 300663:1.0 304414:6.0 312650:2.0 316839:1899000.0 330783:2.0 335669:1.0 392385:1.0 413788:1.0 420655:100000.0 440135:136.0 448798:1.0 452848:2.0 461210:1.0 462394:2.0 472116:2.0 572772:1.0 578740:295.0 585138:295.0 589602:1.0 600792:1.0 638434:1899000.0 667374:4.0 683740:2.0 686232:1.0 689430:4.0 689615:45.0 721134:1.0 742776:1.0 788149:3799008.0 795073:43.0 800112:1.0 811590:9.0 850806:16.0 885757:3.0 889026:1.0 893685:84.0 908419:22.0 925633:2.0 927788:202.0 929878:295.0 932050:1899000.0 933583:1899000.0 981741:3799008.0 989123:231000.0 1008898:3.0 1049743:2.0 1055511:1.0 1057681:231000.0 1074012:1899000.0 1109891:4.0 1115758:1.0 1138899:43.0 1170627:1.0 1178994:1.0 1181665:3.0 1206201:1.0 1247721:2.0 1255196:1.0 1257033:1.0 1284582:1.0 1321618:1.0 1348477:231000.0 1359087:9.0 1375188:7.0 1382010:3.0 1383270:12.0 1386327:1.0 1398915:1.0 1400585:118.0 1417291:1.0 1450451:1.0 1458360:3.0 1458790:1.0 1468959:1.0 1496668:1899000.0 1528077:5.0 1528868:52.0 1536656:14.0 1537919:3.0 1546887:3799008.0 1583822:1.0 1584688:84.0 1601459:100000.0 1609792:1.0 1612514:4.0 1629686:1.0 1654266:1.0 1687773:3.0 1700113:1.0 1711870:18.0 1716840:9.0 1733443:2.0 1755144:1.0 1817479:2.0 1818468:2.0 1873867:1.0 1878599:7.0 1901469:1.0 1905823:2.0 1918388:2.0 1947285:295.0 1975838:2.0 1992837:12.0 1999156:1.0 2003071:2.0 2020835:1.0 2022304:3.0 2031584:2.0 2047364:2.0 2061440:295.0 2080826:2.0 2147707:1.0 2171332:1.0 2178844:2.0 2180059:1.0 2200537:23.0 2201910:5.0 2210684:3.0 2213152:1.0 2243125:4130008.0 2277723:1.0 2284497:1.0 2297615:231000.0 2300601:100000.0 2313732:1.0 2324731:72.0 2325507:2.0 2342393:52.0 2343191:3.0 2344756:5.0 2356204:8.0 2370922:2.0 2379818:1.0 2391301:16.0 2401222:3.0 2404062:86.0 2409788:1.0 2420406:2.0 2421533:8.0 2422865:8.0 2435395:2.0 2442317:84.0 2490364:76.0 2493632:1.0 2504543:55.0 2515364:1.0 2535121:1.0 2548704:1.0 2571751:2.0 2583378:4.0 2591075:2.0 2600131:15.0 2611209:4.0 2613962:4.0 2620410:295.0 2621755:4130008.0 2634184:3.0 2647294:1.0 2652116:1.0 2659248:1.0 2674236:1.0 2677123:2.0 2681082:1.0 2727723:1.0 2743272:2.0 2743524:1.0 2744221:100000.0 2759455:1.0 2770436:2.0 2773566:3.0 2782786:1.0 2793895:1.0 2802840:5.0 2815084:295.0 2816938:53.0 2817276:8.0 2818417:3.0 2835962:2.0 2854115:1.0 2878680:2.0 2895257:43.0 2920131:1.0 2945103:2.0 2967183:2.0 2970086:1.0 2970879:7.0 2974036:2.0 2975932:3.0 2976515:2.0 2981391:163.0 2997673:1.0 3018661:3799008.0 3069065:1.0 3119662:8.0 3139661:1.0 3160343:27.0 3207639:1.0 3209326:3.0 3265220:7.0 3277611:1900008.0 3280066:1.0 3287210:299.0 3304868:1899000.0 3304875:1.0 3311233:1.0 3320733:3.0 3334615:6029008.0 3366590:1.0 3431533:2.0 3450157:1.0 3453314:2.0 3490760:2.0 3492619:8.0 3499477:1.0 3505026:2.0 3548620:2.0 3553993:1.0 3561562:1.0 3604597:1.0 3625498:3.0 3628003:118.0 3629548:11.0 3643885:3.0 3652393:15.0 3656623:52.0 3666001:3.0 3666497:1.0 3676175:1899000.0 3702261:2.0 3702957:4.0 3706293:1.0 3731033:19.0 3737181:2.0 3743595:4.0 3746408:1899000.0 3749906:5.0 3785724:2.0 3804786:2.0 3815751:331000.0 3822719:299.0 3823066:1.0 3832567:1.0 3843099:1.0 3877847:1.0 3905850:1.0 3920673:231000.0 3960143:3.0 3997829:1.0 4051072:2.0 4062341:2.0 4063621:1.0 4088267:3.0 4121743:100000.0 4125789:1.0 4128634:3.0 4153504:4.0 4158165:4.0 4161235:11.0 4175014:1.0 4180841:3799008.0 4185793:2.0
0.0 13012:130.0 23410:1.0 24993:1.0 30005:23.0 33582:9.0 37762:69.0 44067:50000.0 46347:5.0 52294:42.0 55286:2.0 63628:3.0 64854:1.0 66133:7.0 82689:1.0 98668:1.0 127501:1.0 131154:82.0 135793:6.0 145175:1.0 157067:100000.0 165553:116.0 167546:3.0 174451:1.0 188628:1.0 204812:2.0 212419:1.0 237635:2.0 245263:2.0 268754:2.0 307302:2.0 312650:2.0 313715:4.0 316839:200000.0 319637:10000.0 324461:1.0 363209:3.0 375121:1.0 394871:1.0 406820:1.0 430183:6.0 435008:7.0 448798:1.0 451118:1.0 451758:1.0 452848:2.0 468517:1.0 471008:7.0 476699:1.0 488408:1.0 537594:12.0 539380:2.0 554320:1.0 567745:10.0 578740:672.0 581549:1.0 585138:672.0 592496:2.0 597836:1.0 625888:1.0 651198:1.0 667374:6.0 668287:2.0 682968:3.0 700991:2.0 721134:14.0 753075:5.0 760320:5.0 766812:1.0 774972:3.0 775571:2.0 782348:1.0 788149:400000.0 793600:2.0 795073:122.0 810351:1.0 821129:1.0 828203:30.0 850806:25.0 856934:1.0 857581:120000.0 866916:2.0 877453:2.0 880070:3.0 885265:1.0 885757:3.0 893685:30.0 902469:19.0 909330:4.0 924482:1.0 925633:3.0 929878:672.0 932050:200000.0 933583:200000.0 935656:2.0 938053:1.0 953783:55.0 981741:400000.0 988432:3.0 994679:9.0 1008898:7.0 1014814:63.0 1024389:1.0 1055511:1.0 1056113:2.0 1068571:1.0 1099485:1.0 1108126:1.0 1116904:4.0 1127743:16.0 1132432:4.0 1135996:3.0 1138899:139.0 1140159:3.0 1184602:1.0 1188589:2.0 1189424:1.0 1189961:2.0 1206213:429.0 1221619:4.0 1254016:2.0 1257033:1.0 1269562:2.0 1272466:1.0 1282518:3.0 1284284:400000.0 1288391:2.0 1298108:81.0 1299182:1.0 1375188:4.0 1382010:5.0 1386305:3.0 1388598:4.0 1399293:1.0 1400585:19.0 1401486:2.0 1415309:6.0 1456864:5.0 1468959:1.0 1474121:1.0 1481087:1.0 1492151:3.0 1536656:9.0 1538429:31.0 1546887:400000.0 1587796:1.0 1601459:50000.0 1607812:50000.0 1613703:2.0 1622882:2.0 1673711:6.0 1711870:82.0 1716840:28.0 1755336:5.0 1759790:400000.0 1781219:1.0 1785506:1.0 1795679:6.0 1808857:1.0 1811605:5.0 1818468:98.0 1825689:1.0 1835924:1.0 1848144:6.0 1851873:1.0 1873867:9.0 1890944:1.0 1895630:1.0 1900906:3.0 1918388:9.0 1922628:1.0 1928395:1.0 1931091:5.0 1939836:3.0 2000407:9.0 2002094:1.0 2003071:2.0 2006095:2.0 2008818:1.0 2010506:1.0 2012039:1.0 2018202:55.0 2022304:13.0 2033599:1.0 2045281:1.0 2046419:7.0 2061440:672.0 2077230:2.0 2079985:1.0 2095489:1.0 2099383:1.0 2116515:1.0 2133760:57.0 2163992:7.0 2178844:2.0 2180059:7.0 2200537:23.0 2205124:5.0 2210684:3.0 2232467:2.0 2232987:1.0 2243125:570000.0 2247617:1.0 2251020:1.0 2254463:1.0 2256073:2.0 2295895:1.0 2317005:374.0 2324619:1.0 2324731:135.0 2325507:1.0 2342393:573.0 2343191:7.0 2344285:100000.0 2349835:5.0 2356204:21.0 2367854:1.0 2370021:12.0 2391301:24.0 2401222:13.0 2403259:1.0 2404062:402.0 2409788:6.0 2410028:2.0 2422179:1.0 2450685:5.0 2461145:6.0 2464964:6.0 2476185:1.0 2490364:149.0 2491365:43.0 2504543:138.0 2505294:1.0 2571751:1.0 2581227:2.0 2595518:5.0 2599329:2.0 2600131:49.0 2601317:1.0 2601322:2.0 2620410:672.0 2621755:770000.0 2623608:1.0 2634184:6.0 2644554:1.0 2647572:27.0 2682256:1.0 2685436:6.0 2691227:5.0 2719418:1.0 2728668:1.0 2744221:170000.0 2778809:2.0 2782786:4.0 2789024:3.0 2802840:7.0 2815084:672.0 2816938:136.0 2817276:12.0 2844441:2.0 2865840:113.0 2880518:2.0 2884576:1.0 2895122:1.0 2895257:23.0 2902449:1.0 2917980:1.0 2919818:10.0 2922035:2.0 2951293:1.0 2955398:12.0 2967183:2.0 2970879:28.0 2973035:1.0 2976515:1.0 2981391:69.0 2984668:5.0 2992966:1.0 2995485:5.0 2998434:4.0 3018572:2.0 3018661:400000.0 3035536:490.0 3041701:29.0 3047765:1.0 3061739:2.0 3080681:1.0 3099058:672.0 3106042:3.0 3110791:2.0 3114557:2.0 3136260:4.0 3142623:1.0 3176399:200000.0 3177088:1.0 3230931:1.0 3238518:1.0 3239639:28.0 3251050:1.0 3263482:1.0 3287210:672.0 3296022:2.0 3304868:200000.0 3306604:2.0 3307442:1.0 3320733:20.0 3334615:770000.0 3352681:1.0 3358540:35.0 3380695:2.0 3392438:14.0 3395382:1.0 3395834:2.0 3402137:2.0 3420848:1.0 3431533:2.0 3440376:8.0 3441650:4.0 3453314:14.0 3473096:10000.0 3476704:200000.0 3479655:8.0 3490760:3.0 3492619:18.0 3505026:4.0 3505875:1.0 3513809:1.0 3517625:1.0 3519227:1.0 3524972:2.0 3530937:1.0 3542159:2.0 3544428:1.0 3553993:3.0 3555033:1.0 3573608:120000.0 3587465:1.0 3594313:30.0 3625498:6.0 3628003:19.0 3629175:1.0 3633350:1.0 3640257:1.0 3646024:1.0 3652393:49.0 3666001:4.0 3669468:1.0 3669486:3.0 3676175:200000.0 3691491:11.0 3704819:10000.0 3724552:3.0 3735796:1.0 3742758:30.0 3746682:13.0 3755794:6.0 3774042:1.0 3791125:1.0 3795776:2.0 3800531:28.0 3803408:1.0 3804786:2.0 3811769:6.0 3815751:170000.0 3819103:1.0 3820374:1.0 3822719:672.0 3836777:2.0 3850723:1.0 3893659:1.0 3909905:1.0 3923743:2.0 3927936:2.0 3930724:27.0 3942384:1.0 3950852:1.0 3952510:3.0 3957259:2.0 4012333:1.0 4017254:9.0 4029384:3.0 4032343:1.0 4058809:3.0 4064239:5.0 4067406:2.0 4085039:5.0 4086316:8.0 4096109:6.0 4097689:3.0 4115289:1.0 4121743:50000.0 4131348:10000.0 4153504:7.0 4161235:11.0 4164531:3.0 4178991:1.0 4181020:1.0 4193014:2.0
0.0 2095:3.0 12299:3.0 13012:41.0 21787:4.0 22251:1.0 30005:28.0 35007:1.0 37762:211.0 52294:70.0 55124:3.0 88630:21.0 93136:2.0 100618:2.0 100710:2.0 119613:2.0 127501:8.0 131154:88.0 147260:50000.0 149322:1.0 151955:1.0 154900:1.0 165553:124.0 167546:2.0 170208:2.0 171269:1.0 175828:1.0 186061:5.0 189225:2.0 196959:3.0 203624:1.0 207992:2.0 208768:3.0 229559:87.0 263959:1.0 274045:1.0 293028:1.0 312504:11.0 312507:2.0 316839:335000.0 317940:135000.0 323082:1.0 324119:1.0 328967:6.0 339803:2.0 339812:3.0 345015:1.0 356241:1.0 365214:2.0 373472:3.0 377674:1.0 406719:2.0 417511:3.0 423822:40.0 433743:1.0 435008:4.0 440135:125.0 443618:6.0 444915:1.0 448798:8.0 452287:1.0 461079:4.0 467936:5.0 469297:6.0 507728:2.0 509556:4.0 511149:1.0 512428:1.0 521779:3.0 534416:3.0 535119:11.0 539380:8.0 547949:90000.0 553045:4.0 564510:1.0 565218:1.0 565886:1.0 581549:1.0 582164:1.0 589602:10.0 608223:3.0 626458:1.0 628110:1.0 629985:1.0 638434:117000.0 641491:8.0 642600:1.0 667374:9.0 682968:2.0 687535:20000.0 693222:1.0 700400:1.0 700991:2.0 702648:1.0 708049:2.0 721134:27.0 722957:2.0 724220:3.0 734826:1.0 753075:42.0 755961:1.0 760320:13.0 760829:1.0 769842:2.0 778244:1.0 790507:22000.0 809980:1.0 815229:3.0 818997:1.0 821129:9.0 850806:48.0 853309:1.0 857581:50000.0 863017:1.0 871448:1.0 881977:6.0 884357:9.0 885757:4.0 893685:4.0 902469:2.0 910327:4.0 915561:3.0 917795:3.0 925633:2.0 927788:84.0 932050:335000.0 933583:335000.0 946270:1.0 951146:1.0 953235:1.0 953783:62.0 956064:1.0 961113:1.0 962401:2.0 964222:1.0 999846:1.0 1008898:7.0 1010522:2.0 1013564:1.0 1014814:122.0 1023210:1.0 1038443:2.0 1052268:103.0 1053948:1.0 1055511:8.0 1063803:6.0 1064791:16.0 1067652:1.0 1084988:3.0 1086646:2.0 1096416:4.0 1109891:727.0 1112149:1.0 1113830:2.0 1118286:1.0 1127290:3.0 1132432:1.0 1134136:1.0 1138899:225.0 1154228:4.0 1164546:3.0 1165299:1.0 1170924:1.0 1186641:1.0 1195405:1.0 1205606:10000.0 1213986:86.0 1229682:1.0 1244480:1.0 1246032:3.0 1257033:8.0 1276042:39.0 1278529:1.0 1298108:48.0 1300691:1.0 1319797:1.0 1320178:1.0 1324343:2.0 1327106:3.0 1339099:2.0 1343457:1.0 1350672:4.0 1354781:2.0 1377845:1.0 1382010:17.0 1390947:2.0 1422984:1.0 1427654:3.0 1438287:3.0 1438987:1.0 1444087:2.0 1456864:11.0 1468959:8.0 1487043:2.0 1495973:2.0 1526185:2.0 1528868:22.0 1536656:12.0 1541437:2.0 1544145:3.0 1553583:1.0 1558368:15.0 1567443:1.0 1576878:2.0 1578199:1.0 1591415:3.0 1599483:1.0 1614095:1.0 1644026:2.0 1657989:2.0 1660293:1.0 1661627:1.0 1671475:1.0 1672754:1.0 1698671:1.0 1701010:1.0 1711870:88.0 1716840:85.0 1760366:50000.0 1761633:3.0 1762779:5.0 1765759:1.0 1766404:2.0 1769895:1.0 1807226:1.0 1809175:8.0 1811781:50000.0 1818468:153.0 1823403:2.0 1837335:1.0 1840481:3.0 1842625:7.0 1845283:1.0 1856264:727.0 1857945:6.0 1863720:1.0 1872706:2.0 1873867:22.0 1896848:1.0 1901534:1.0 1904831:3.0 1915075:1.0 1918388:16.0 1918846:1.0 1934214:6.0 1944848:2.0 1947258:1.0 1952544:1.0 1955500:2.0 1955759:3.0 1966387:4.0 1978334:2.0 1982321:1.0 1988962:5.0 2018202:66.0 2022304:16.0 2031584:51.0 2076878:3.0 2092371:6.0 2103451:1.0 2105503:2.0 2106750:2.0 2114048:3.0 2119047:21.0 2132930:1.0 2133760:182.0 2141357:1.0 2144888:1.0 2160975:1.0 2163992:4.0 2180059:3.0 2196413:2.0 2200537:56.0 2205201:1.0 2210684:4.0 2238245:1.0 2243125:347000.0 2243492:1.0 2246978:6.0 2247990:1.0 2250828:2.0 2252412:1.0 2293836:1.0 2295562:1.0 2301568:20000.0 2303618:476.0 2312369:150000.0 2318250:2.0 2323325:1.0 2324731:50.0 2325507:20.0 2337046:4.0 2342393:512.0 2343191:7.0 2344285:20000.0 2349835:11.0 2356204:48.0 2356539:1.0 2374153:1.0 2374653:12.0 2377757:1.0 2388962:2.0 2389955:1.0 2390038:2.0 2391301:56.0 2401222:16.0 2402747:1.0 2404062:90.0 2406553:1.0 2409788:4.0 2416634:1.0 2422865:9.0 2428325:2.0 2442317:39.0 2444878:1.0 2447232:1.0 2469573:1.0 2480175:1.0 2490364:77.0 2491365:68.0 2493202:247000.0 2504543:30.0 2504609:2.0 2509574:2.0 2510787:6.0 2516645:1.0 2517667:1.0 2528727:1.0 2532906:1.0 2539360:3.0 2540160:86.0 2548704:6.0 2571751:16.0 2581227:2.0 2591075:3.0 2594430:20000.0 2595518:13.0 2596654:1.0 2600131:60.0 2605062:2.0 2605179:30000.0 2611377:65.0 2613962:3.0 2614928:1.0 2618193:247000.0 2619410:3.0 2621188:3.0 2621755:565000.0 2634184:7.0 2636514:2.0 2637215:1.0 2647572:85.0 2656404:1.0 2664507:1.0 2677458:11.0 2678632:1.0 2719009:1.0 2732996:2.0 2733017:50000.0 2734678:3.0 2735265:90000.0 2744221:50000.0 2744459:1.0 2752298:4.0 2759455:1.0 2767874:1.0 2769915:2.0 2776428:1.0 2782786:2.0 2785045:1.0 2802840:17.0 2816938:30.0 2817276:26.0 2820017:476.0 2821791:1.0 2865840:202.0 2895257:101.0 2895651:3.0 2900829:30000.0 2902546:1.0 2912577:1.0 2913083:1.0 2919818:14.0 2954212:1.0 2954933:1.0 2961261:1.0 2970879:44.0 2971634:1.0 2974135:2.0 2975932:7.0 2978599:1.0 2981391:211.0 2984914:1.0 2986467:2.0 2989548:2.0 2990289:1.0 2991780:3.0 2991991:1.0 3004785:1.0 3007482:1.0 3007755:4.0 3012063:1.0 3018729:2.0 3024471:1.0 3035536:124.0 3041517:1.0 3055673:1.0 3058495:2.0 3061951:2.0 3067740:50000.0 3086978:335000.0 3099377:3.0 3110871:2.0 3125029:1.0 3136260:4.0 3136976:3.0 3139836:2.0 3144233:7.0 3150946:1.0 3161275:6.0 3194248:2.0 3208540:2.0 3210932:2.0 3222500:4.0 3226770:1.0 3226990:1.0 3239639:39.0 3241153:2.0 3277464:6.0 3287210:727.0 3292090:2.0 3304868:335000.0 3306431:3.0 3312023:1.0 3320733:10.0 3330292:1.0 3334615:682000.0 3336785:4.0 3348008:3.0 3353681:2.0 3355960:2.0 3358540:9.0 3369922:3.0 3377213:1.0 3388667:8.0 3392438:18.0 3394174:1.0 3400826:2.0 3401523:2.0 3402137:2.0 3412478:2.0 3417092:1.0 3425906:4.0 3432345:3.0 3441021:3.0 3453314:16.0 3468431:6.0 3471399:3.0 3479434:3.0 3483272:1.0 3490760:4.0 3492619:3.0 3498014:2.0 3505026:8.0 3505643:3.0 3527066:1.0 3539084:2.0 3548620:4.0 3551051:1.0 3553993:2.0 3555252:1.0 3563979:1.0 3573608:50000.0 3580729:1.0 3584450:1.0 3603293:4.0 3625498:7.0 3628003:103.0 3628740:1.0 3629094:4.0 3631653:4.0 3643717:2.0 3652393:60.0 3652608:1.0 3656623:61.0 3666001:8.0 3673584:251.0 3676175:335000.0 3702957:727.0 3717696:2.0 3724088:247000.0 3728239:5.0 3739255:8.0 3765141:50000.0 3785724:4.0 3795776:2.0 3800531:2.0 3812366:1.0 3815751:297000.0 3817021:1.0 3821365:3.0 3822719:727.0 3841399:1.0 3850922:5.0 3855233:4.0 3858641:3.0 3864975:1.0 3872666:1.0 3875929:2.0 3881182:1.0 3884767:2.0 3903040:251.0 3938002:1.0 3948326:3.0 3949528:1.0 3960343:247000.0 3960666:6.0 3964814:6.0 3974243:2.0 3979719:6.0 3982046:6.0 4000761:1.0 4011046:1.0 4013676:1.0 4029384:7.0 4038256:1.0 4040287:3.0 4042889:6.0 4051072:4.0 4073205:1.0 4076101:1.0 4092792:1.0 4124152:2.0 4125945:3.0 4128634:3.0 4147517:3.0 4153504:11.0 4158165:727.0 4160287:45000.0 4161235:24.0 4161878:5.0 4175827:1.0
0.0 4953:1.0 25100:11.0 30005:95.0 52294:43.0 66133:15.0 69180:5.0 78912:3.0 88069:4.0 88211:2.0 88630:35.0 90294:3.0 111762:1.0 127501:2.0 128477:1.0 131154:65.0 143990:2.0 165553:82.0 167546:4.0 169310:1.0 196959:1.0 219267:20000.0 229559:66.0 234488:1.0 250746:1.0 303036:6.0 312613:1.0 312650:1.0 316839:50000.0 320201:1.0 323082:1.0 331480:2.0 336584:1.0 340534:1.0 359919:4.0 370226:1.0 371192:1.0 371484:2.0 392222:4.0 402006:1.0 413160:4.0 440135:64.0 442586:3.0 448798:2.0 472116:1.0 513947:1.0 517882:1.0 526704:3.0 528505:1.0 547612:1.0 548583:1.0 554195:1.0 564195:1.0 581549:1.0 589762:1.0 595811:1.0 600087:1.0 611682:4.0 626458:1.0 628669:1.0 630474:5.0 631905:2.0 632755:1.0 641491:2.0 667374:4.0 682968:4.0 700991:5.0 714327:1.0 715115:1.0 721134:14.0 729904:1.0 732880:4.0 746012:1.0 753075:12.0 754717:15.0 760320:9.0 764484:1.0 772021:1.0 787952:1.0 793600:3.0 795073:20.0 802441:2.0 821129:1.0 826888:3.0 850806:15.0 854962:4.0 857581:110000.0 858218:4.0 860570:1.0 862665:2.0 907387:3.0 922950:17.0 925633:1.0 932050:50000.0 933583:50000.0 934218:1.0 935656:1.0 944386:2.0 953783:26.0 962401:2.0 996927:1.0 1008898:6.0 1013915:1.0 1014814:26.0 1022436:12.0 1041690:14.0 1052268:64.0 1055511:2.0 1056261:3.0 1076979:2.0 1097087:1.0 1109891:559.0 1132432:6.0 1138899:97.0 1142786:1.0 1150838:1.0 1166104:7.0 1191164:4.0 1200592:1.0 1206213:559.0 1208810:1.0 1257033:2.0 1273104:1.0 1273620:2.0 1276042:333.0 1287019:2.0 1287621:1.0 1310781:6.0 1315090:1.0 1315152:1.0 1319423:1.0 1319496:1.0 1327162:1.0 1332282:1.0 1350494:1.0 1365354:1.0 1367184:3.0 1382010:8.0 1411593:1.0 1428848:1.0 1429797:1.0 1443262:2.0 1456864:8.0 1468959:2.0 1472459:1.0 1474526:4.0 1524052:3.0 1536990:1.0 1554481:1.0 1569509:6.0 1570796:1.0 1574941:1.0 1617333:1.0 1638886:1.0 1667176:3.0 1667285:1.0 1681395:1.0 1686416:1.0 1691983:559.0 1692920:3.0 1710310:50000.0 1711870:65.0 1716840:35.0 1725457:10.0 1729027:3.0 1764684:1.0 1776834:2.0 1809421:15.0 1818468:17.0 1824156:10.0 1829061:1.0 1832943:4.0 1842535:1.0 1842625:3.0 1847488:2.0 1873867:14.0 1878599:3.0 1881730:1.0 1883267:1.0 1888295:1.0 1904485:1.0 1910613:4.0 1918388:11.0 1938619:1.0 1958313:8.0 1961156:1.0 1970680:2.0 1995756:4.0 1999156:1.0 2018202:65.0 2018502:1.0 2019419:19.0 2022304:10.0 2043444:1.0 2084954:2.0 2103171:5.0 2109736:1.0 2114048:1.0 2119047:163.0 2133040:4.0 2158024:8.0 2166111:1.0 2167096:1.0 2180059:20.0 2192850:1.0 2200537:20.0 2201920:4.0 2205738:1.0 2233563:1.0 2241967:3.0 2243125:110000.0 2262392:1.0 2265293:1.0 2272888:2.0 2302014:3.0 2306578:2.0 2321337:1.0 2324731:31.0 2325507:2.0 2328938:1.0 2328956:3.0 2342393:559.0 2343191:6.0 2344285:20000.0 2349835:8.0 2356204:15.0 2378305:1.0 2391301:26.0 2401222:10.0 2405099:2.0 2409788:21.0 2422865:5.0 2442317:15.0 2471564:5.0 2471907:5.0 2490364:45.0 2503248:1.0 2504058:2.0 2504543:11.0 2528087:3.0 2546581:4.0 2550509:1.0 2587893:2.0 2591075:1.0 2594430:20000.0 2595518:9.0 2600131:42.0 2605179:20000.0 2611377:387.0 2613962:1.0 2619559:1.0 2621755:160000.0 2623120:1.0 2633490:1.0 2634184:37.0 2642074:1.0 2659077:3.0 2670798:1.0 2710838:3.0 2716246:2.0 2720852:1.0 2735605:2.0 2744221:110000.0 2744396:1.0 2754378:2.0 2769771:2.0 2782786:4.0 2787649:1.0 2794843:3.0 2800394:50000.0 2802840:6.0 2816938:11.0 2817276:12.0 2860294:5.0 2865840:26.0 2882591:1.0 2900829:20000.0 2904690:101.0 2919818:16.0 2926016:2.0 2930420:3.0 2933567:1.0 2934663:2.0 2949843:17.0 2957993:2.0 2967189:1.0 2970879:26.0 2975932:4.0 2976305:5.0 2995485:3.0 3005689:1.0 3008283:5.0 3035536:82.0 3041179:1.0 3065749:3.0 3065888:1.0 3071644:1.0 3072037:1.0 3086978:50000.0 3097892:3.0 3098340:3.0 3098394:1.0 3101507:39.0 3131668:2.0 3132743:2.0 3136260:6.0 3194518:2.0 3205111:2.0 3222366:1.0 3237109:1.0 3250025:1.0 3258615:1.0 3260534:7.0 3276121:1.0 3287210:559.0 3296004:4.0 3304868:50000.0 3313147:2.0 3320733:61.0 3330292:1.0 3334615:160000.0 3339186:1.0 3345817:3.0 3347212:1.0 3356040:4.0 3391465:7.0 3392438:24.0 3392634:2.0 3395834:3.0 3402137:5.0 3417895:1.0 3423541:2.0 3429335:2.0 3429950:1.0 3442770:1.0 3446255:50000.0 3452648:4.0 3453314:13.0 3460652:1.0 3471978:3.0 3473059:3.0 3476637:2.0 3486124:1.0 3492619:1.0 3495039:2.0 3498014:2.0 3505026:4.0 3514148:559.0 3515026:6.0 3527605:1.0 3553993:14.0 3556650:1.0 3570855:1.0 3573608:110000.0 3581051:2.0 3608180:3.0 3613441:1.0 3621102:1.0 3625498:37.0 3628003:64.0 3635253:1.0 3638931:2.0 3644086:1.0 3652393:42.0 3656623:333.0 3666001:6.0 3666238:3.0 3671562:7.0 3676175:50000.0 3678052:1.0 3700842:559.0 3702794:1.0 3702957:559.0 3708128:2.0 3779835:3.0 3790537:1.0 3801612:4.0 3809908:11.0 3815751:110000.0 3822719:559.0 3826979:1.0 3832022:6.0 3839366:1.0 3858333:7.0 3859001:1.0 3861137:2.0 3870571:4.0 3896279:3.0 3900971:1.0 3921920:1.0 3924965:2.0 3926090:1.0 3927318:2.0 3935981:2.0 3936585:14.0 3941377:3.0 3951781:1.0 3997114:2.0 4022853:1.0 4029384:1.0 4053546:20000.0 4061677:1.0 4063225:3.0 4077524:3.0 4084005:1.0 4084682:21.0 4113842:3.0 4128634:2.0 4145443:1.0 4153439:3.0 4153504:6.0 4158165:559.0 4161235:15.0 4168309:1.0 4170189:1.0 4178991:2.0 4180090:2.0 4190068:1.0 4190579:9.0 4193014:3.0
0.0 1230:33.0 29231:551201.0 30894:2.0 52294:17.0 66133:1.0 87590:7.0 127501:1.0 131154:23.0 145188:2.0 172922:551201.0 211996:2.0 242173:1.0 245377:1.0 247190:2.0 312650:2.0 316839:551201.0 368718:1.0 375800:1.0 393947:1.0 440135:50.0 447221:3.0 448798:1.0 455255:33.0 461210:1.0 463840:5.0 514173:1.0 522824:3.0 575952:2.0 578740:251.0 585138:251.0 639054:12.0 648892:4.0 667374:1.0 689430:2.0 754717:28.0 850806:12.0 889026:1.0 893685:33.0 929878:251.0 932050:551201.0 933583:551201.0 989123:551201.0 1008898:1.0 1014814:140.0 1049743:2.0 1052268:50.0 1055511:1.0 1057681:551201.0 1138899:28.0 1143670:3.0 1206213:251.0 1217903:1.0 1257033:1.0 1261549:5.0 1271061:1.0 1292566:8.0 1344321:4.0 1364373:551201.0 1375188:4.0 1382010:2.0 1440781:1.0 1450451:1.0 1468959:1.0 1479709:3.0 1492689:1.0 1504818:1.0 1509423:4.0 1583827:1.0 1622200:4.0 1630902:6.0 1633775:2.0 1653132:2.0 1672322:2.0 1681842:1.0 1711870:23.0 1716840:17.0 1839826:2.0 1858118:4.0 1859652:1.0 1873867:4.0 1878599:4.0 1895025:2.0 1897465:1.0 1918388:2.0 1975838:2.0 1999155:251.0 1999156:2.0 2022304:4.0 2036040:1.0 2079473:33.0 2119047:78.0 2128028:1.0 2166403:2.0 2180059:1.0 2200537:15.0 2210102:3.0 2213019:1.0 2243125:551201.0 2252725:4.0 2278506:2.0 2284497:2.0 2307970:1.0 2317005:140.0 2324731:55.0 2325507:3.0 2342393:218.0 2343191:1.0 2356204:8.0 2391301:6.0 2401222:4.0 2404062:140.0 2409788:1.0 2422865:7.0 2483370:1.0 2490364:60.0 2504543:55.0 2571751:1.0 2588332:1.0 2591075:4.0 2600131:15.0 2611377:28.0 2613962:3.0 2617671:1.0 2618728:3.0 2620410:251.0 2621755:1102402.0 2634184:2.0 2663219:1.0 2671790:1.0 2681082:1.0 2742173:1.0 2759455:1.0 2777332:1.0 2802840:2.0 2815084:251.0 2816938:54.0 2817276:3.0 2865840:33.0 2894204:1.0 2935361:1.0 2949027:551201.0 2964991:1.0 2970879:10.0 2975932:7.0 2976515:1.0 3035536:140.0 3072911:1.0 3098243:3.0 3178570:1.0 3196893:1.0 3203134:4.0 3209326:5.0 3212561:11.0 3226191:1.0 3239056:5.0 3256965:1.0 3287210:251.0 3297192:1.0 3304868:551201.0 3311233:2.0 3320733:2.0 3327789:2.0 3334615:1102402.0 3358540:33.0 3431533:2.0 3436963:6.0 3453314:5.0 3505026:1.0 3542962:2.0 3548620:2.0 3578020:251.0 3615629:551201.0 3625498:2.0 3628003:50.0 3646391:1.0 3652393:15.0 3656031:1.0 3665601:1.0 3666001:2.0 3676175:551201.0 3684985:1.0 3741186:12.0 3778353:1.0 3804786:1.0 3815751:551201.0 3822719:251.0 3896279:1.0 3901374:1.0 3908669:33.0 3959651:1.0 3963229:1.0 4065029:1.0 4128634:2.0 4148254:1.0 4153504:2.0 4161235:6.0 4168011:1.0
0.0 6001:1.0 7489:2.0 11166:2.0 13012:127.0 15941:2.0 24993:5.0 37762:122.0 52294:67.0 75434:1.0 76766:4.0 89679:1.0 121376:3.0 127501:7.0 131154:73.0 142939:1.0 145175:5.0 147260:200000.0 155868:1.0 158095:2.0 165553:85.0 167546:2.0 187939:1.0 193673:2.0 200418:100000.0 212369:2.0 222728:1.0 229559:173.0 244042:2.0 271750:12.0 276446:1.0 296515:2.0 302580:1.0 312650:1.0 316839:883303.0 320049:2.0 332774:2.0 337784:1.0 363140:1.0 367959:2.0 377791:2.0 384240:3.0 393167:1.0 407424:1.0 432721:100000.0 435008:2.0 440135:331.0 448798:7.0 451714:12.0 452014:200000.0 455255:127.0 461210:2.0 467036:2.0 473383:4.0 475359:40.0 477272:1.0 478345:1.0 481078:85330.0 484023:6.0 486326:2.0 499417:1.0 541553:13.0 559989:1.0 573655:1.0 578740:729.0 580440:1.0 583076:86.0 585138:729.0 588772:100000.0 589602:1.0 609501:64.0 612135:1.0 627657:1.0 642580:2.0 660760:1.0 660870:15.0 667374:10.0 682968:2.0 692887:7.0 697930:100000.0 700991:1.0 707088:1.0 714295:2.0 717765:1.0 721134:22.0 732861:2.0 733084:1.0 742154:6.0 743290:1.0 753075:6.0 755709:6.0 760320:7.0 765606:6.0 795965:1.0 796701:1.0 828203:129.0 833445:1.0 849037:12.0 850806:28.0 857581:200000.0 879197:100000.0 885304:1.0 885757:4.0 889026:2.0 902469:128.0 921231:1.0 929878:729.0 930437:1.0 930906:1.0 932050:883303.0 933583:883303.0 936229:2.0 939764:3.0 942318:2.0 944386:5.0 950392:2.0 962401:1.0 972582:1.0 989123:433303.0 989267:1.0 1002443:1.0 1004475:57.0 1008898:11.0 1013564:1.0 1014814:34.0 1043816:9.0 1045646:14.0 1049299:417.0 1053870:1.0 1055511:7.0 1055525:100000.0 1057681:433303.0 1061290:1.0 1074012:50000.0 1084497:2.0 1086307:2.0 1099646:1.0 1101340:1.0 1103145:2.0 1125428:85330.0 1138899:125.0 1160911:1.0 1173531:1.0 1186780:2.0 1194263:1.0 1206213:226.0 1207337:1.0 1215758:12.0 1219483:2.0 1220651:1.0 1230495:5.0 1237510:85330.0 1252838:5.0 1255503:2.0 1257033:7.0 1263321:1.0 1265147:1.0 1272711:1.0 1276042:65.0 1283807:2.0 1292566:1.0 1321205:1.0 1327865:2.0 1355434:1.0 1372108:50000.0 1382010:11.0 1414037:100000.0 1427045:100000.0 1433446:200000.0 1456040:50000.0 1456864:7.0 1458360:2.0 1468959:7.0 1480004:6.0 1480223:2.0 1507310:6.0 1527006:2.0 1527270:1.0 1532800:1.0 1536656:12.0 1537084:1.0 1541852:1.0 1552759:1.0 1567443:1.0 1596131:1.0 1601459:450000.0 1617333:11.0 1631762:1.0 1636079:2.0 1654001:3.0 1656165:100000.0 1665918:2.0 1701010:1.0 1711870:73.0 1716840:28.0 1732041:3.0 1737631:1.0 1753782:70.0 1760366:200000.0 1775688:1.0 1780642:12.0 1787296:2.0 1794556:1.0 1807076:1.0 1811781:200000.0 1819000:2.0 1824000:10.0 1825899:1.0 1832832:1.0 1846408:15.0 1850169:1.0 1855664:2.0 1858621:9.0 1862949:1.0 1873867:9.0 1878599:3.0 1908268:100000.0 1918388:14.0 1918598:19.0 1924787:1.0 1933470:6.0 1952481:1.0 1969794:1.0 1981609:5.0 2000310:7.0 2002643:1.0 2005442:1.0 2008441:1.0 2017119:1.0 2019014:2.0 2020139:1.0 2022304:12.0 2033306:2.0 2040486:7.0 2042527:85330.0 2061440:729.0 2065943:2.0 2079032:1.0 2079145:100000.0 2083947:1.0 2106828:2.0 2118632:100000.0 2133760:197.0 2163992:2.0 2164456:7.0 2164787:4.0 2164887:10.0 2200537:14.0 2210684:4.0 2230669:9.0 2240536:1.0 2243125:1283303.0 2243438:50000.0 2259718:1.0 2279724:1.0 2294499:2.0 2305799:1.0 2324731:153.0 2325507:3.0 2325914:1.0 2342393:607.0 2343191:11.0 2349835:7.0 2350108:1.0 2351523:1.0 2356204:28.0 2357834:10.0 2365611:1.0 2373023:1.0 2376224:2.0 2379409:1.0 2386104:347973.0 2388445:2.0 2391301:44.0 2401222:12.0 2410717:2.0 2412803:2.0 2417727:5.0 2422865:4.0 2435736:1.0 2449993:1.0 2460217:433303.0 2468769:1.0 2482969:1.0 2489250:1.0 2490364:175.0 2490603:1.0 2504543:120.0 2511015:100000.0 2515223:3.0 2516406:1.0 2517188:1.0 2529750:1.0 2549795:2.0 2555639:1.0 2560939:2.0 2584517:8.0 2587095:1.0 2595518:7.0 2596654:1.0 2600131:66.0 2608662:1.0 2613962:2.0 2616352:100000.0 2620410:729.0 2621755:2166606.0 2631768:2.0 2634851:1.0 2655541:2.0 2679408:3.0 2682772:3.0 2692029:2.0 2714250:1.0 2722950:1.0 2727773:1.0 2730071:1.0 2731505:1.0 2738838:1.0 2743497:2.0 2744221:650000.0 2747062:1.0 2749009:4.0 2759455:6.0 2782786:7.0 2802840:17.0 2815084:729.0 2816938:120.0 2817276:22.0 2817547:1.0 2818534:1.0 2823888:5.0 2837983:1.0 2854298:1.0 2862675:6.0 2863228:2.0 2865840:191.0 2869784:1.0 2898470:1.0 2910970:1.0 2913016:2.0 2913083:1.0 2919818:14.0 2926204:1.0 2932239:347973.0 2933827:1.0 2952270:1.0 2970879:37.0 2975932:2.0 2976915:7.0 2981391:122.0 2988085:2.0 2993505:2.0 3016402:2.0 3035536:85.0 3037991:3.0 3051987:1.0 3055673:1.0 3056018:1.0 3067740:200000.0 3107931:1.0 3136260:7.0 3139661:1.0 3149223:1.0 3163478:12.0 3195939:2.0 3199429:1.0 3205549:347973.0 3216865:4.0 3254640:15.0 3274593:4.0 3278613:1.0 3286970:1.0 3287210:729.0 3304868:883303.0 3334013:2.0 3334615:2166606.0 3335819:1.0 3339304:100000.0 3341287:1.0 3347025:2.0 3347293:1.0 3358540:70.0 3359011:4.0 3368413:1.0 3381876:2.0 3392438:26.0 3402137:1.0 3402740:1.0 3406060:11.0 3431533:1.0 3452905:1.0 3453314:18.0 3467551:6.0 3472512:1.0 3490760:4.0 3498014:1.0 3505026:9.0 3518211:1.0 3533818:2.0 3548620:13.0 3562608:2.0 3563321:1.0 3573608:200000.0 3610553:100000.0 3612908:2.0 3615629:347973.0 3622269:3.0 3628003:215.0 3634857:1.0 3636931:1.0 3649908:1.0 3652393:66.0 3653487:1.0 3656623:65.0 3666001:10.0 3676175:883303.0 3682634:1.0 3699159:7.0 3700869:1.0 3702065:6.0 3703542:2.0 3708879:2.0 3718917:7.0 3721232:1.0 3726085:1.0 3727673:100000.0 3734506:10.0 3740394:1.0 3742758:197.0 3752764:2.0 3759689:1.0 3765141:200000.0 3815751:1083303.0 3817078:1.0 3821365:3.0 3822719:729.0 3833932:1.0 3836455:1.0 3869344:1.0 3872678:1.0 3872938:2.0 3879698:1.0 3883198:2.0 3907775:6.0 3918389:1.0 3920266:2.0 3932223:1.0 3944423:1.0 3952448:10.0 3956301:1.0 3963229:1.0 3976417:1.0 3992130:729.0 4000895:1.0 4009144:2.0 4016502:1.0 4029384:1.0 4043228:2.0 4044276:2.0 4053124:4.0 4053559:2.0 4053995:1.0 4058965:1.0 4084372:1.0 4084682:59.0 4088384:100000.0 4121743:450000.0 4123791:3.0 4128634:1.0 4143544:1.0 4153504:17.0 4161235:40.0 4174540:1.0 4181818:4.0 4183384:151.0
0.0 24993:1.0 52294:23.0 66133:1.0 105875:1.0 127501:4.0 127873:10.0 131154:19.0 145175:1.0 145188:2.0 176447:5.0 201595:1.0 205107:4.0 217401:1.0 229559:2.0 276061:1.0 316839:131000.0 368458:1.0 394965:1.0 400754:1.0 439938:41000.0 440130:48.0 440135:55.0 447940:36.0 448798:4.0 451030:3.0 455255:48.0 518664:1.0 534059:4.0 578220:1.0 589602:1.0 609501:3.0 614213:2.0 627095:1.0 638434:131000.0 648378:1.0 667374:1.0 688568:236.0 710162:1.0 721134:12.0 753075:22.0 760320:1.0 795801:9.0 800337:3.0 817252:1.0 821129:1.0 828203:19.0 835915:55.0 850806:27.0 852791:1.0 893606:2.0 893685:79.0 927788:228.0 929374:2.0 929878:236.0 932050:131000.0 933583:131000.0 941710:10000.0 953783:3.0 992900:3.0 1008898:1.0 1014814:72.0 1016737:1.0 1055511:4.0 1064234:1.0 1073078:1.0 1085507:2.0 1109891:236.0 1132432:2.0 1133605:2.0 1138899:42.0 1170627:1.0 1202837:2.0 1206213:8.0 1221240:5.0 1241911:18.0 1254419:4.0 1257033:4.0 1259293:2.0 1273620:1.0 1273765:4.0 1276042:46.0 1284821:1.0 1289235:3.0 1296835:3.0 1298108:3.0 1316998:1.0 1371197:2.0 1375188:7.0 1382010:6.0 1393933:2.0 1428408:1.0 1446702:50000.0 1450451:1.0 1456864:1.0 1468959:4.0 1503158:1.0 1510489:6.0 1561776:2.0 1564262:1.0 1585231:1.0 1588096:1.0 1588721:4.0 1601459:10000.0 1615329:1.0 1687295:6.0 1711870:19.0 1716840:10.0 1754666:1.0 1788217:1.0 1809421:18.0 1818468:48.0 1830884:3.0 1837670:1.0 1839788:1.0 1873867:1.0 1887631:50000.0 1913597:1.0 1918388:2.0 1937103:2.0 1980127:1.0 1994318:3.0 2018202:58.0 2022304:7.0 2068747:2.0 2092897:9.0 2119047:6.0 2131250:1.0 2131617:2.0 2133760:5.0 2155535:1.0 2180059:4.0 2200537:26.0 2243125:10000.0 2259915:3.0 2299478:2.0 2324731:10.0 2325507:2.0 2333788:2.0 2342393:152.0 2342565:1.0 2343191:1.0 2349835:1.0 2352240:3.0 2356204:19.0 2389044:1.0 2391301:21.0 2400532:1.0 2401222:7.0 2409788:2.0 2415470:1.0 2442317:8.0 2466370:1.0 2475038:4.0 2490364:22.0 2491365:42.0 2504543:15.0 2507438:1.0 2548704:4.0 2567227:3.0 2571751:1.0 2595518:1.0 2600131:21.0 2611207:1.0 2611377:46.0 2612273:5.0 2621755:10000.0 2629574:1.0 2634184:4.0 2647572:5.0 2654483:81000.0 2681082:1.0 2733682:1.0 2740484:1.0 2744221:10000.0 2782786:1.0 2794120:1.0 2801894:2.0 2802840:5.0 2815084:236.0 2816938:9.0 2817276:9.0 2820017:236.0 2862675:1.0 2862869:1.0 2865840:82.0 2867058:12.0 2919818:1.0 2937505:1.0 2961029:2.0 2970879:15.0 2976515:1.0 2993335:1.0 3022043:5.0 3035536:48.0 3112512:1.0 3178299:1.0 3233973:1.0 3257174:1.0 3266007:1.0 3269978:1.0 3287210:236.0 3292383:3.0 3304868:131000.0 3305543:3.0 3305576:3.0 3308729:2.0 3311696:1.0 3320733:11.0 3329785:4.0 3334615:141000.0 3352446:2.0 3373298:1.0 3392438:1.0 3453314:7.0 3485780:1.0 3505026:1.0 3553993:3.0 3572787:10000.0 3620159:2.0 3625498:4.0 3628003:3.0 3652393:21.0 3656623:80.0 3666001:1.0 3676175:131000.0 3687049:34.0 3744660:1.0 3769271:1.0 3776785:1.0 3777864:236.0 3782692:1.0 3785724:4.0 3804786:6.0 3815751:10000.0 3817264:2.0 3822719:236.0 3829930:2.0 3865579:1.0 3886535:40000.0 3891374:42.0 3941377:1.0 3962045:1.0 3997073:2.0 4007342:1.0 4018471:1.0 4020137:1.0 4029384:4.0 4049331:2.0 4051072:4.0 4089043:1.0 4117394:1.0 4121743:10000.0 4145110:1.0 4153504:1.0 4153613:1.0 4158165:236.0 4161235:7.0
1.0 13012:11.0 131154:2.0 147260:10000.0 600035:11.0 631960:1.0 667374:1.0 919867:11.0 927788:11.0 929878:11.0 1013564:1.0 1079224:1.0 1083643:11.0 1109891:11.0 1253476:11.0 1401796:10000.0 1567443:1.0 1584688:11.0 1628722:1.0 1701010:1.0 1711870:2.0 1760366:10000.0 1811781:10000.0 1856264:11.0 2243125:10000.0 2404062:11.0 2409788:7.0 2596654:1.0 2621755:10000.0 2622701:1.0 2802840:1.0 2815084:11.0 2846969:11.0 2913083:1.0 2997386:1.0 3067740:10000.0 3287210:11.0 3320733:8.0 3334615:10000.0 3553993:1.0 3765141:10000.0 3793850:2.0 4153504:1.0 4158165:11.0 4159408:7.0
1.0 12336:2.0 24993:1.0 29227:2.0 32695:1.0 52294:6.0 66133:6.0 66240:1.0 67167:1.0 119873:1.0 125949:3.0 127501:4.0 131154:22.0 140443:2.0 141148:1.0 145175:1.0 147260:80000.0 148240:4.0 150040:3.0 152674:1.0 178116:5.0 196959:1.0 229559:280.0 258925:1.0 262610:1.0 276621:1.0 293316:3.0 312650:1.0 316839:180000.0 321245:5.0 323495:1.0 366835:2.0 370802:1.0 408426:12.0 413160:3.0 419357:20000.0 424709:44.0 426899:1.0 435008:46.0 442586:3.0 448798:4.0 449969:1.0 455255:260.0 472938:5.0 478035:1.0 490271:9.0 509556:149.0 517166:1.0 540109:59.0 570248:1.0 578740:724.0 585138:724.0 609501:206.0 611957:1.0 628420:25.0 647859:2.0 667374:3.0 669180:1.0 670745:71.0 695355:3.0 731592:1.0 734377:2.0 753075:15.0 760320:5.0 766108:9.0 785955:1.0 803553:60.0 817990:3.0 821129:2.0 822219:70000.0 826128:1.0 828203:149.0 829985:1.0 850806:12.0 872015:1.0 885757:4.0 887054:70000.0 893685:223.0 903108:15.0 922950:5.0 925633:1.0 927788:724.0 929878:724.0 932050:180000.0 933583:180000.0 938413:1.0 942078:1.0 944386:8.0 962401:1.0 997176:1.0 1008898:3.0 1012988:7.0 1013564:1.0 1027588:2.0 1029180:2.0 1035354:1.0 1049743:1.0 1055511:4.0 1079224:3.0 1098918:2.0 1103488:1.0 1108225:2.0 1108245:1.0 1113498:10.0 1128390:1.0 1132432:2.0 1138899:74.0 1151954:1.0 1159395:1.0 1160646:1.0 1170467:7.0 1225714:2.0 1232787:70000.0 1257033:4.0 1280059:2.0 1300358:1.0 1309487:1.0 1336927:11.0 1354027:4.0 1375188:10.0 1382010:5.0 1427150:1.0 1445409:3.0 1456864:2.0 1466657:80000.0 1468959:4.0 1476758:1.0 1521897:1.0 1530262:5.0 1536656:12.0 1536702:4.0 1546887:70000.0 1565554:1.0 1567443:1.0 1576154:71.0 1581112:1.0 1584688:35.0 1601459:20000.0 1607113:1.0 1616255:3.0 1648539:3.0 1650904:1.0 1651287:1.0 1663335:9.0 1677812:1.0 1689165:1.0 1701010:1.0 1711870:22.0 1716840:33.0 1727739:4.0 1733443:1.0 1753782:260.0 1755731:1.0 1760366:80000.0 1763233:12.0 1772054:6.0 1811781:80000.0 1818468:32.0 1818472:7.0 1842625:4.0 1853943:1.0 1873867:8.0 1891638:1.0 1896577:4.0 1900906:1.0 1918388:4.0 1950276:1.0 1950413:1.0 1975838:1.0 1998185:20000.0 2015250:1.0 2018202:149.0 2019300:1.0 2019419:9.0 2022304:6.0 2033901:2.0 2046424:1.0 2050935:2.0 2061440:501.0 2090538:2.0 2114048:1.0 2119047:228.0 2125483:1.0 2163992:46.0 2165743:1.0 2176363:4.0 2180059:3.0 2199331:1.0 2200537:21.0 2210684:4.0 2216695:1.0 2217057:2.0 2243125:170000.0 2266791:5.0 2301143:2.0 2310600:10.0 2324731:189.0 2325507:2.0 2343191:5.0 2346587:15.0 2349835:2.0 2356204:2.0 2368824:3.0 2370331:1.0 2391301:13.0 2393476:2.0 2401222:6.0 2404062:35.0 2406484:70000.0 2409788:5.0 2422865:1.0 2471831:4.0 2490364:191.0 2504543:207.0 2526736:1.0 2528843:2.0 2540840:1.0 2542261:1.0 2571751:8.0 2581227:1.0 2591075:1.0 2595518:20.0 2596654:1.0 2600131:6.0 2620410:724.0 2621755:350000.0 2622701:3.0 2626951:4.0 2634184:14.0 2648207:3.0 2676336:3.0 2697099:10000.0 2727723:3.0 2744221:20000.0 2746236:2.0 2781399:1.0 2781953:3.0 2782786:1.0 2787276:5.0 2787714:1.0 2802178:1.0 2802840:7.0 2815084:724.0 2816938:192.0 2817276:5.0 2865840:223.0 2880518:7.0 2913083:2.0 2914836:1.0 2919818:12.0 2967183:1.0 2968203:501.0 2970879:4.0 2976515:8.0 2981172:1.0 2988387:1.0 2995485:7.0 2998252:2.0 3006272:1.0 3017910:1.0 3054795:1.0 3055673:2.0 3067552:3.0 3067740:80000.0 3089386:1.0 3099058:724.0 3119089:1.0 3136260:1.0 3149793:2.0 3149795:223.0 3174788:70000.0 3176399:80000.0 3208827:2.0 3209326:2.0 3218169:1.0 3251352:1.0 3287210:724.0 3304868:180000.0 3308922:1.0 3320733:15.0 3334115:10000.0 3334615:350000.0 3338560:2.0 3354915:1.0 3359316:1.0 3368658:1.0 3380543:1.0 3384581:1.0 3391697:2.0 3392438:21.0 3395834:3.0 3408032:3.0 3415041:1.0 3431533:1.0 3436403:1.0 3447405:2.0 3451913:20000.0 3453314:2.0 3463507:4.0 3476483:2.0 3490760:3.0 3492619:2.0 3498014:1.0 3505026:1.0 3509048:1.0 3516132:1.0 3518994:9.0 3519227:1.0 3545243:1.0 3551339:1.0 3553993:5.0 3556650:2.0 3564028:1.0 3575642:80000.0 3578956:1.0 3625498:14.0 3628003:206.0 3634941:1.0 3643885:3.0 3652393:6.0 3656164:2.0 3666001:2.0 3676175:180000.0 3684240:2.0 3705319:1.0 3722128:1.0 3744139:1.0 3754190:1.0 3762789:1.0 3765141:150000.0 3769544:1.0 3773762:1.0 3795776:1.0 3804786:15.0 3805363:3.0 3815751:20000.0 3821365:4.0 3822719:724.0 3859532:1.0 3882021:1.0 3891374:74.0 3892207:2.0 3892453:4.0 3895823:1.0 3896279:1.0 3904536:2.0 3909423:1.0 3918326:70000.0 3928482:501.0 3979446:16.0 4013774:1.0 4029384:1.0 4029897:1.0 4035637:20000.0 4045610:1.0 4075607:1.0 4084682:35.0 4096105:28.0 4113104:2.0 4116215:1.0 4121743:20000.0 4148225:4.0 4153504:7.0 4161235:11.0 4178991:1.0
1.0 22242:1.0 24993:1.0 57486:1.0 66133:1.0 79731:1.0 131154:5.0 145175:1.0 309682:3.0 435008:5.0 436757:1.0 578740:67.0 585138:67.0 619056:1.0 667374:1.0 700991:2.0 760320:3.0 821129:1.0 885757:1.0 919867:67.0 929878:67.0 939592:3.0 1008898:1.0 1019014:67.0 1050337:10000.0 1077457:1.0 1079224:1.0 1138899:61.0 1166104:2.0 1192707:2.0 1206213:67.0 1230351:5.0 1273620:1.0 1382010:1.0 1394411:1.0 1456864:2.0 1536656:12.0 1554608:1.0 1601459:10000.0 1625851:5.0 1642032:1.0 1711870:5.0 1716840:6.0 1733443:3.0 1772963:2.0 1842812:1.0 1873867:2.0 1879625:1.0 1918388:3.0 1981729:2.0 2005681:2.0 2092383:1.0 2099610:1.0 2163992:5.0 2173939:1.0 2180059:5.0 2210684:5.0 2243125:10000.0 2343191:1.0 2343340:1.0 2349835:2.0 2391301:3.0 2404062:6.0 2409788:1.0 2491365:6.0 2506302:1.0 2506526:1.0 2572341:2.0 2595518:3.0 2620410:67.0 2621755:10000.0 2622701:1.0 2634184:5.0 2659488:2.0 2734121:2.0 2734857:5.0 2744221:10000.0 2782786:1.0 2802840:1.0 2813897:67.0 2815084:67.0 2817276:1.0 2817547:1.0 2854115:2.0 2857282:2.0 2919818:2.0 2998252:1.0 3055673:1.0 3136260:2.0 3140768:2.0 3149795:67.0 3185641:2.0 3239639:6.0 3287210:67.0 3320733:8.0 3334615:10000.0 3335693:1.0 3392438:4.0 3402137:2.0 3433731:1.0 3481719:2.0 3490760:1.0 3505026:1.0 3553993:2.0 3559423:5.0 3562666:1.0 3625498:5.0 3643885:2.0 3666001:1.0 3671562:2.0 3815751:10000.0 3820712:3.0 3870296:67.0 3891374:61.0 3910692:1.0 3929434:10000.0 3941377:1.0 3999614:1.0 4084682:61.0 4121743:10000.0 4153504:1.0 4161235:4.0
0.0 52294:9.0 127501:1.0 131154:6.0 147398:2.0 165553:51.0 316839:594000.0 448798:1.0 589602:2.0 624924:3.0 638434:594000.0 705155:1.0 715933:3.0 721134:1.0 753075:4.0 755327:1.0 760320:1.0 795073:51.0 821129:1.0 850806:1.0 929878:51.0 932050:594000.0 933583:594000.0 1055511:1.0 1074012:594000.0 1109891:51.0 1138899:51.0 1206213:51.0 1257033:1.0 1382010:2.0 1456864:1.0 1465145:1.0 1468959:1.0 1649631:51.0 1711870:6.0 1716514:1.0 1716840:4.0 1721928:1.0 1873867:1.0 1918388:1.0 1927542:594000.0 2022304:1.0 2180059:1.0 2200537:4.0 2324731:5.0 2342393:51.0 2349835:1.0 2356204:1.0 2391301:4.0 2401222:1.0 2449278:1.0 2474424:51.0 2490364:6.0 2504543:1.0 2548704:1.0 2595518:1.0 2600131:3.0 2611209:51.0 2634184:2.0 2640263:6.0 2642919:6.0 2650929:1.0 2802840:1.0 2815084:51.0 2816938:1.0 2817276:2.0 2864785:1.0 2899158:5.0 2919818:2.0 2970879:6.0 3035341:1.0 3035536:51.0 3088375:2.0 3136260:1.0 3139661:1.0 3209128:1.0 3287210:51.0 3304868:594000.0 3320733:4.0 3334615:594000.0 3392438:3.0 3453314:1.0 3464650:4.0 3516828:2.0 3553993:3.0 3623282:1.0 3625498:2.0 3652393:3.0 3666001:1.0 3676175:594000.0 3711805:2.0 3822719:51.0 3883666:1.0 3961742:2.0 3994262:1.0 4029384:1.0 4158165:51.0 4161235:1.0 4172983:1.0 4179527:1.0
