0.0 37762:278.0 74816:278.0 104773:20000.0 127501:4.0 131154:24.0 147260:280000.0 155440:3.0 155512:20000.0 167546:3.0 172922:20000.0 182282:1.0 316839:420000.0 319637:100000.0 373423:13.0 404227:2.0 432472:280000.0 435008:4.0 440130:101.0 447940:123.0 448798:4.0 455255:224.0 578740:278.0 585138:278.0 606854:8.0 637510:1.0 667374:4.0 682968:3.0 710376:1.0 760320:3.0 795073:49.0 845216:1.0 850806:6.0 857581:140000.0 885757:5.0 926145:4.0 927980:1.0 929878:278.0 931876:40000.0 932050:420000.0 933583:420000.0 944028:278.0 1004475:123.0 1008898:4.0 1013564:1.0 1024334:1.0 1032139:2.0 1055426:3.0 1055511:4.0 1078556:1.0 1082844:2.0 1098845:1.0 1122473:1.0 1247721:27.0 1257033:4.0 1262025:1.0 1299824:1.0 1332992:2.0 1382010:4.0 1400585:5.0 1456864:3.0 1468959:4.0 1478155:2.0 1497220:2.0 1529580:1.0 1536656:23.0 1567443:1.0 1584688:49.0 1585808:1.0 1646439:1.0 1701010:1.0 1705022:1.0 1711870:24.0 1716840:12.0 1733443:1.0 1753003:1.0 1760366:280000.0 1769125:3.0 1811781:280000.0 1818468:5.0 1826310:1.0 1845277:1.0 1853943:1.0 1873867:5.0 1881493:1.0 1918388:6.0 1928296:1.0 1980899:3.0 1997444:2.0 2012993:1.0 2022304:3.0 2061440:278.0 2065143:2.0 2080826:27.0 2080827:18.0 2147707:1.0 2163992:4.0 2169129:23.0 2184948:2.0 2185635:280000.0 2200537:3.0 2210684:6.0 2220067:1.0 2243125:420000.0 2288062:278.0 2294002:1.0 2324731:55.0 2325507:1.0 2330527:100000.0 2343191:4.0 2349736:1.0 2349835:3.0 2356204:6.0 2357604:2.0 2370331:1.0 2391301:20.0 2393583:1.0 2401222:3.0 2404062:49.0 2422179:1.0 2432090:1.0 2460695:1.0 2475470:2.0 2490364:55.0 2504543:48.0 2540840:1.0 2558668:1.0 2580544:1.0 2595518:3.0 2596654:1.0 2599933:2.0 2600131:15.0 2620410:278.0 2621755:840000.0 2649517:20000.0 2663120:3.0 2679532:1.0 2726760:1.0 2744221:140000.0 2754243:2.0 2759455:4.0 2782786:3.0 2802840:8.0 2806823:1.0 2815084:278.0 2816938:48.0 2817276:12.0 2820536:3.0 2837279:400000.0 2855214:4.0 2913083:1.0 2919818:6.0 2932157:1.0 2947364:27.0 2956996:1.0 2981391:278.0 2984914:1.0 3013918:1.0 3027233:4.0 3055673:1.0 3067740:280000.0 3090242:1.0 3097563:1.0 3136260:3.0 3167947:4.0 3178570:1.0 3229782:2.0 3252765:20.0 3287210:278.0 3304868:420000.0 3319772:9.0 3334615:840000.0 3356444:1.0 3365548:4.0 3366590:1.0 3377788:3.0 3392438:9.0 3425861:2.0 3452539:2.0 3457275:2.0 3486280:7.0 3490760:5.0 3505026:3.0 3541744:22.0 3548620:8.0 3550779:1.0 3561576:8.0 3564028:1.0 3573608:140000.0 3592310:2.0 3604534:1.0 3604597:1.0 3628003:5.0 3652393:15.0 3666001:4.0 3669060:1.0 3676175:420000.0 3710435:1.0 3723050:3.0 3735230:100000.0 3765141:280000.0 3772015:3.0 3779837:20000.0 3815751:140000.0 3821365:3.0 3869266:1.0 4045495:1.0 4062260:4.0 4075320:1.0 4084682:101.0 4153504:8.0 4161235:20.0 4186128:6.0 4187541:1.0
0.0 37762:17.0 131154:2.0 167546:2.0 213517:1.0 336383:1.0 572822:2.0 600035:17.0 609501:17.0 667374:2.0 763562:1.0 850806:1.0 885757:1.0 889026:2.0 919867:17.0 927788:17.0 929878:17.0 1057681:40000.0 1109891:17.0 1184975:2.0 1536656:3.0 1539709:17.0 1624779:1.0 1711870:2.0 2022304:1.0 2119047:17.0 2178099:2.0 2180059:6.0 2210684:1.0 2243125:40000.0 2356204:1.0 2401222:1.0 2474538:6.0 2504543:1.0 2551226:2.0 2600131:2.0 2621755:40000.0 2634184:1.0 2802840:2.0 2815084:17.0 2816938:1.0 2966423:1.0 2981391:17.0 3004985:1.0 3121652:40000.0 3287210:17.0 3320733:6.0 3334615:40000.0 3342409:1.0 3490760:1.0 3505026:2.0 3573608:40000.0 3625498:1.0 3628003:17.0 3652393:2.0 3743595:17.0 3765094:2.0 3784435:40000.0 3815751:40000.0 4057075:40000.0 4153504:2.0 4158165:17.0
1.0 127501:2.0 147260:10000.0 167546:1.0 426693:10000.0 475359:1.0 600035:1.0 638434:10000.0 667374:2.0 682968:1.0 795436:10000.0 841969:20000.0 857581:10000.0 919867:1.0 927788:1.0 929878:1.0 932050:20000.0 933583:20000.0 943897:10000.0 1013564:1.0 1034778:1.0 1079224:1.0 1083643:1.0 1109891:1.0 1138899:1.0 1253476:1.0 1257033:2.0 1298108:1.0 1468959:2.0 1474635:10000.0 1539709:1.0 1567443:1.0 1655946:1.0 1701010:1.0 1760366:10000.0 1791133:20000.0 1811781:10000.0 1896793:2.0 1958955:1.0 2243125:20000.0 2548704:1.0 2596654:1.0 2621755:30000.0 2622701:1.0 2744221:10000.0 2782786:1.0 2802840:4.0 2815084:1.0 2902308:2.0 2913083:1.0 3055820:1.0 3067740:10000.0 3287210:1.0 3304868:20000.0 3334615:40000.0 3376241:10000.0 3396041:2.0 3505026:1.0 3573608:10000.0 3743595:1.0 3765141:10000.0 3815751:10000.0 3912618:1.0 4004435:20000.0 4063060:1.0 4153504:3.0 4158165:1.0
0.0 24993:1.0 52294:15.0 128124:1.0 131154:9.0 145175:1.0 145188:2.0 164376:1.0 229559:32.0 291796:5.0 336676:2.0 401837:1.0 440135:39.0 482027:1.0 509556:74.0 602666:1.0 606796:1.0 621025:1.0 645545:1.0 665174:1.0 667374:1.0 688568:147.0 690883:2.0 721134:7.0 770761:2.0 788172:10000.0 806791:2.0 828203:42.0 847229:1.0 850767:1.0 850806:25.0 877028:1.0 880926:1.0 893685:108.0 907061:1.0 927788:125.0 929878:147.0 930765:2.0 934612:4.0 1008898:1.0 1014814:7.0 1052268:39.0 1109891:147.0 1128912:1.0 1146805:1.0 1170627:2.0 1183469:5.0 1236008:1.0 1241911:28.0 1253978:1.0 1375188:12.0 1382010:1.0 1450451:1.0 1459163:1.0 1485021:1.0 1545669:147.0 1601459:10000.0 1636311:2.0 1711870:9.0 1716840:1.0 1736985:1.0 1809421:28.0 1842514:6.0 1892790:2.0 1909520:1.0 1917662:8.0 1918388:1.0 2018202:74.0 2022304:4.0 2039374:2.0 2053298:2.0 2067491:3.0 2119047:66.0 2120263:9.0 2158625:1.0 2180059:1.0 2200537:4.0 2240536:1.0 2243125:10000.0 2317803:2.0 2324731:10.0 2342393:39.0 2343191:1.0 2356204:11.0 2391301:3.0 2401222:4.0 2409788:1.0 2410340:2.0 2490364:17.0 2504543:13.0 2525409:1.0 2535753:3.0 2557370:1.0 2571751:5.0 2582173:8.0 2600131:15.0 2616352:10000.0 2621755:10000.0 2622454:2.0 2634184:1.0 2681082:1.0 2685712:1.0 2707727:1.0 2744221:10000.0 2753998:3.0 2782786:1.0 2786805:1.0 2802840:1.0 2803096:1.0 2805158:1.0 2815084:147.0 2816938:6.0 2817276:1.0 2820017:147.0 2865840:108.0 2955131:2.0 2955475:1.0 2966708:3.0 2970879:10.0 3008283:1.0 3036000:1.0 3184966:1.0 3250025:1.0 3250422:1.0 3287210:147.0 3293672:1.0 3320733:3.0 3334615:10000.0 3403343:1.0 3429889:2.0 3445093:12.0 3453314:5.0 3456720:3.0 3505026:1.0 3547591:1.0 3548556:1.0 3553993:1.0 3574585:2.0 3601024:1.0 3625498:1.0 3628003:39.0 3652393:15.0 3656623:34.0 3666001:1.0 3687049:34.0 3764284:22.0 3801044:1.0 3804786:7.0 3815751:10000.0 3822719:147.0 3863898:3.0 3880713:1.0 3941377:1.0 3983423:1.0 3999133:1.0 4016673:1.0 4018033:3.0 4121743:10000.0 4153504:1.0 4158165:147.0 4161235:3.0 4177365:1.0
0.0 13012:25.0 19078:1.0 22889:1.0 24993:2.0 30005:82.0 52294:74.0 88630:14.0 92948:1.0 126498:4.0 127501:2.0 128251:1.0 131154:36.0 135175:1.0 145175:2.0 145188:4.0 149044:4.0 150331:1.0 155588:2.0 165553:25.0 176447:58.0 181227:1.0 181620:1.0 190449:1.0 215292:1.0 229333:2.0 236276:1.0 271371:1.0 275666:1.0 293068:2.0 296197:1.0 312650:1.0 316839:200000.0 333549:3.0 347548:2.0 361449:5.0 364074:1.0 380462:3.0 384534:1.0 404224:1.0 408882:1.0 420875:1.0 439490:1.0 440130:37.0 440135:73.0 444205:1.0 447940:14.0 448798:2.0 450778:1.0 455255:80.0 475359:1.0 482285:1.0 509556:21.0 512533:2.0 519107:3.0 520366:1.0 534002:1.0 540294:5.0 560673:100000.0 561790:1.0 585975:1.0 589602:2.0 594065:1.0 609501:130.0 615308:1.0 636838:1.0 637442:2.0 659750:1.0 661921:2.0 667374:2.0 679640:58.0 688568:560.0 700991:1.0 702180:11.0 721134:37.0 722061:1.0 749490:1.0 753075:11.0 754717:26.0 756971:1.0 760320:2.0 778169:2.0 778594:6.0 786490:1.0 795073:6.0 799512:2.0 807125:1.0 810499:3.0 821129:3.0 826146:1.0 828203:36.0 830811:2.0 841316:2.0 850806:64.0 860997:1.0 885757:2.0 886005:1.0 889535:1.0 893685:195.0 902469:3.0 922191:5.0 927788:380.0 929878:560.0 932050:200000.0 933583:200000.0 952596:1.0 953783:24.0 997058:1.0 1004475:29.0 1007464:1.0 1008898:4.0 1010164:2.0 1014397:1.0 1023682:2.0 1027494:3.0 1052268:14.0 1055511:2.0 1068026:1.0 1075869:1.0 1088273:4.0 1101685:2.0 1102218:100000.0 1104536:1.0 1108280:1.0 1109891:560.0 1125558:2.0 1132432:4.0 1134236:2.0 1138899:66.0 1141561:1.0 1166104:1.0 1171970:1.0 1189548:1.0 1196370:1.0 1199371:2.0 1204237:2.0 1221240:58.0 1224947:1.0 1241911:5.0 1249376:1.0 1255102:1.0 1256227:1.0 1257033:2.0 1264923:2.0 1269370:1.0 1273603:1.0 1275429:3.0 1285996:1.0 1286211:1.0 1287720:1.0 1289775:1.0 1290886:1.0 1298108:66.0 1306211:1.0 1311833:1.0 1321249:1.0 1339193:1.0 1342216:1.0 1375188:12.0 1382010:4.0 1391935:1.0 1392145:1.0 1394133:3.0 1400585:2.0 1402493:2.0 1405045:1.0 1413208:1.0 1433620:4.0 1439513:3.0 1450451:1.0 1451968:200000.0 1456864:1.0 1468959:2.0 1477516:2.0 1477924:3.0 1482457:1.0 1486054:2.0 1522163:1.0 1522869:1.0 1523994:2.0 1528868:59.0 1532100:1.0 1536656:12.0 1536885:1.0 1546808:2.0 1547201:1.0 1556512:1.0 1567728:2.0 1581611:2.0 1582398:2.0 1601459:200000.0 1611150:1.0 1619811:2.0 1632036:6.0 1640927:1.0 1647188:2.0 1684138:2.0 1697693:1.0 1705421:1.0 1706328:2.0 1706558:1.0 1711870:36.0 1716840:30.0 1723778:1.0 1729049:2.0 1730738:1.0 1733443:2.0 1735599:1.0 1746621:1.0 1753782:14.0 1784591:1.0 1786301:100000.0 1805020:1.0 1809421:6.0 1818468:15.0 1819988:2.0 1829403:1.0 1830407:2.0 1830469:4.0 1865163:1.0 1869145:1.0 1873867:2.0 1891278:1.0 1892790:1.0 1895546:1.0 1915226:1.0 1918388:3.0 1966044:1.0 1974342:1.0 1998564:2.0 2000130:2.0 2008700:1.0 2013016:1.0 2018202:118.0 2022304:28.0 2031584:6.0 2055223:3.0 2056737:1.0 2074687:2.0 2079430:1.0 2086728:2.0 2087320:1.0 2096378:1.0 2106708:3.0 2119047:81.0 2133760:48.0 2138656:1.0 2142371:2.0 2177062:1.0 2180059:5.0 2185809:1.0 2186834:2.0 2197771:1.0 2198506:1.0 2199372:2.0 2200537:18.0 2205562:2.0 2205746:2.0 2207853:2.0 2209003:3.0 2210684:6.0 2226126:1.0 2226736:3.0 2241537:3.0 2243125:200000.0 2249031:1.0 2255253:2.0 2256880:2.0 2267569:1.0 2278939:3.0 2281201:2.0 2303923:100000.0 2308168:1.0 2317005:14.0 2324731:47.0 2325507:19.0 2336834:2.0 2342393:307.0 2343191:4.0 2349835:1.0 2356204:52.0 2361205:1.0 2371453:3.0 2372928:1.0 2376697:1.0 2387598:2.0 2391301:14.0 2400314:3.0 2401222:28.0 2404062:24.0 2409788:2.0 2415066:4.0 2418274:2.0 2441373:1.0 2442189:1.0 2442317:12.0 2459406:2.0 2475698:4.0 2490364:84.0 2491365:97.0 2504543:60.0 2517266:1.0 2519143:1.0 2520406:3.0 2530002:2.0 2541409:1.0 2543200:1.0 2543914:2.0 2548092:1.0 2552852:1.0 2565824:1.0 2566710:1.0 2570979:2.0 2571751:26.0 2581227:1.0 2582314:1.0 2587191:3.0 2595518:2.0 2598513:1.0 2599347:2.0 2600131:73.0 2611377:97.0 2614603:2.0 2620202:1.0 2621755:400000.0 2634184:8.0 2647572:19.0 2676544:1.0 2677458:13.0 2681082:2.0 2699861:1.0 2703806:3.0 2718222:560.0 2720025:2.0 2732227:1.0 2744221:200000.0 2753998:13.0 2764270:1.0 2771529:1.0 2782786:2.0 2787399:2.0 2802840:4.0 2806130:1.0 2815084:560.0 2816938:43.0 2817219:2.0 2817276:6.0 2824414:4.0 2827005:4.0 2829666:1.0 2834584:2.0 2834915:1.0 2839789:2.0 2843824:2.0 2844370:2.0 2849479:1.0 2865840:256.0 2869349:1.0 2876204:1.0 2895613:1.0 2911798:1.0 2913476:1.0 2919818:2.0 2924933:1.0 2925571:1.0 2938189:1.0 2950617:2.0 2955090:1.0 2958926:3.0 2970879:50.0 2976515:11.0 2985691:1.0 2985973:1.0 2995486:3.0 3008573:2.0 3018268:1.0 3018971:1.0 3025197:2.0 3035536:76.0 3035585:2.0 3038504:1.0 3053808:2.0 3080219:2.0 3080859:1.0 3093642:1.0 3101507:15.0 3128557:2.0 3130233:2.0 3136260:1.0 3142841:1.0 3152297:1.0 3156369:1.0 3160426:3.0 3161397:1.0 3187158:1.0 3205517:3.0 3206944:2.0 3214804:1.0 3215037:2.0 3216576:1.0 3220315:1.0 3238266:1.0 3239639:4.0 3241148:4.0 3255536:1.0 3263034:3.0 3283537:6.0 3287209:1.0 3287210:560.0 3292691:2.0 3302113:2.0 3304868:200000.0 3320733:11.0 3334615:400000.0 3358540:24.0 3369882:1.0 3382099:2.0 3385390:1.0 3392438:3.0 3397453:100000.0 3402137:1.0 3407372:2.0 3429226:1.0 3438524:1.0 3448783:1.0 3453314:22.0 3466609:2.0 3469006:2.0 3476909:1.0 3490760:2.0 3505026:2.0 3513517:100000.0 3534456:1.0 3574829:1.0 3575440:2.0 3584413:5.0 3607713:1.0 3621988:1.0 3625498:8.0 3628003:165.0 3648320:2.0 3652393:73.0 3656623:59.0 3661759:1.0 3666001:2.0 3667565:1.0 3671562:1.0 3676175:200000.0 3681764:4.0 3700040:1.0 3701062:2.0 3732476:1.0 3742758:16.0 3751180:2.0 3754809:3.0 3769544:2.0 3775551:1.0 3777190:1.0 3779822:1.0 3789931:1.0 3790715:1.0 3795776:1.0 3800531:47.0 3804786:17.0 3807162:1.0 3815751:200000.0 3822719:560.0 3847568:2.0 3855308:1.0 3859822:1.0 3863250:1.0 3867337:3.0 3881155:3.0 3886889:3.0 3891374:14.0 3912540:1.0 3920340:1.0 3924696:1.0 3930609:1.0 3949163:1.0 3954935:1.0 3959403:1.0 3965105:7.0 3968302:1.0 3984174:1.0 4028707:3.0 4029384:1.0 4037350:1.0 4046600:5.0 4060525:1.0 4065409:3.0 4083705:1.0 4084682:38.0 4108312:1.0 4121743:200000.0 4132524:1.0 4153504:4.0 4158165:560.0 4158601:1.0 4160303:1.0 4161235:6.0 4181265:560.0 4183384:19.0 4191690:1.0
0.0 52294:3.0 167546:1.0 359919:1.0 586183:1.0 600035:7.0 667374:1.0 682968:1.0 823901:1.0 857581:10000.0 893685:7.0 919867:7.0 929878:7.0 1021075:10000.0 1109891:7.0 1539709:7.0 1641916:2.0 1655946:1.0 1737962:1.0 2022304:1.0 2119047:7.0 2133760:7.0 2243125:10000.0 2401222:1.0 2428844:2.0 2600131:2.0 2621755:10000.0 2744221:10000.0 2782786:1.0 2802840:1.0 2815084:7.0 2865840:7.0 2970879:2.0 3287210:7.0 3334615:10000.0 3376241:10000.0 3453314:1.0 3505026:1.0 3573608:10000.0 3629986:1.0 3652393:2.0 3742758:7.0 3743595:7.0 3815751:10000.0 3870571:1.0 4153504:1.0 4158165:7.0
1.0 52294:8.0 66133:2.0 127501:1.0 131154:9.0 147260:470000.0 209967:1.0 227094:1.0 257423:1.0 312650:1.0 316839:470000.0 352600:1.0 403759:1.0 435008:2.0 448798:1.0 578740:150.0 585138:150.0 589602:1.0 604071:3.0 667374:1.0 721134:2.0 753075:5.0 754717:55.0 760320:1.0 761774:1.0 850806:2.0 887742:1.0 900075:2.0 929878:150.0 932050:470000.0 933583:470000.0 935656:1.0 967769:1.0 1008898:2.0 1013564:1.0 1019014:150.0 1044577:15.0 1055511:1.0 1132432:1.0 1138899:55.0 1146486:2.0 1166104:1.0 1206213:150.0 1220895:1.0 1257033:1.0 1257342:5.0 1273620:1.0 1382010:3.0 1382207:1.0 1456864:1.0 1468959:1.0 1507670:1.0 1513460:3.0 1518584:3.0 1567443:1.0 1601256:5.0 1680121:2.0 1701010:1.0 1711870:9.0 1716840:3.0 1760366:470000.0 1765759:1.0 1811781:470000.0 1820435:4.0 1853943:1.0 1873867:1.0 1918388:1.0 1933892:1.0 1962175:1.0 1976598:470000.0 2018202:95.0 2022304:3.0 2061440:150.0 2063368:2.0 2113314:1.0 2119047:55.0 2163992:2.0 2180059:1.0 2200537:10.0 2216205:1.0 2243125:470000.0 2324731:41.0 2342393:150.0 2343191:2.0 2349835:1.0 2356204:2.0 2391301:10.0 2401222:3.0 2409788:1.0 2490364:43.0 2504543:32.0 2521802:2.0 2540840:1.0 2558522:1.0 2593143:1.0 2595518:1.0 2596654:1.0 2600131:6.0 2611377:150.0 2620410:150.0 2621755:940000.0 2634184:3.0 2669762:15.0 2685608:1.0 2691373:470000.0 2802840:2.0 2815084:150.0 2816938:32.0 2817276:4.0 2913083:1.0 2919818:3.0 2921741:1.0 2948013:1.0 2970879:5.0 2984914:1.0 3055673:1.0 3067740:470000.0 3101507:95.0 3114606:26.0 3133181:470000.0 3166917:4.0 3287210:150.0 3297795:1.0 3304868:470000.0 3320733:3.0 3334615:940000.0 3358540:95.0 3366592:5.0 3392438:3.0 3425893:3.0 3431533:1.0 3453314:2.0 3455323:1.0 3468862:2.0 3573956:1.0 3625498:3.0 3639949:1.0 3641059:2.0 3652393:6.0 3652608:1.0 3666001:2.0 3671562:1.0 3676175:470000.0 3685471:17.0 3726006:1.0 3749864:1.0 3765141:470000.0 3815080:1.0 3821365:5.0 3822719:150.0 3839500:1.0 3864975:1.0 4023518:3.0 4029384:1.0 4153504:2.0 4161235:4.0
0.0 258:1.0 13012:61.0 24993:6.0 52294:24.0 61046:4.0 81337:3.0 84053:2.0 116096:62264.0 127501:12.0 131154:40.0 145175:6.0 145188:6.0 152364:1.0 161305:2.0 167546:5.0 168321:1.0 169673:2.0 172120:2.0 175449:100000.0 176447:62.0 183429:2.0 185212:2.0 200418:50000.0 218862:50000.0 238784:1.0 243243:2.0 243786:3.0 244564:1.0 252970:1.0 257738:1.0 281794:3.0 290078:4.0 316839:662264.0 338548:1.0 361694:2.0 365597:3.0 372950:4.0 374181:100000.0 374823:1.0 377860:1.0 404227:2.0 404606:1.0 422195:2.0 423822:192.0 439833:2.0 440135:41.0 448798:12.0 461210:2.0 475146:2.0 475359:61.0 495418:1.0 515781:50000.0 531298:1.0 549990:1.0 568855:1.0 583564:1.0 603675:1.0 629594:4.0 632081:1.0 667374:13.0 682968:5.0 689615:4.0 691208:1.0 696972:1.0 699104:2.0 700991:11.0 707264:2.0 710663:1.0 721134:10.0 743643:50000.0 745024:2.0 753075:10.0 754717:33.0 760320:11.0 772339:1.0 792000:1.0 796776:1.0 820973:1.0 828537:2.0 850806:19.0 855022:2.0 857581:190000.0 863233:2.0 869065:100000.0 874187:1.0 885757:2.0 885955:1.0 889026:2.0 893685:61.0 902469:115.0 905742:4.0 921152:2.0 927310:4.0 929054:20000.0 931416:2.0 931876:70000.0 932050:662264.0 933583:662264.0 938526:3.0 941885:2.0 944386:5.0 949757:1.0 953783:56.0 958432:1.0 988227:20000.0 989123:94324.0 997638:1.0 1008898:15.0 1010478:94324.0 1026063:1.0 1031199:3.0 1055511:12.0 1057681:94324.0 1109891:435.0 1123341:2.0 1125428:94324.0 1138899:94.0 1140612:2.0 1142246:4.0 1146523:1.0 1163997:1.0 1170627:3.0 1179996:2.0 1198728:4.0 1206213:62.0 1213202:1.0 1215260:5.0 1221240:62.0 1243802:3.0 1244606:2.0 1257033:12.0 1276042:52.0 1287602:20000.0 1308783:2.0 1344823:1.0 1356774:2.0 1361614:2.0 1362194:2.0 1363956:5.0 1372108:50000.0 1375188:6.0 1382010:17.0 1385359:1.0 1385948:1.0 1387467:1.0 1400585:30.0 1413154:1.0 1444214:1.0 1450451:2.0 1456864:11.0 1464910:2.0 1468959:12.0 1476509:1.0 1481721:1.0 1484365:2.0 1507471:50000.0 1516089:2.0 1516988:1.0 1528868:41.0 1534482:3.0 1536656:7.0 1547795:3.0 1560864:1.0 1566533:1.0 1590675:1.0 1601459:320000.0 1602080:3.0 1607812:50000.0 1610413:2.0 1625519:1.0 1632365:4.0 1633096:1.0 1633325:662264.0 1649021:1.0 1655946:1.0 1679138:1.0 1683572:1.0 1711870:40.0 1716840:44.0 1717267:2.0 1721142:2.0 1726360:3.0 1727217:1.0 1731173:12.0 1731304:1.0 1731426:1.0 1737930:4.0 1780779:2.0 1802238:100000.0 1805312:1.0 1805907:1.0 1818461:1.0 1818884:1.0 1829339:2.0 1847321:2.0 1850102:1.0 1864602:1.0 1873867:13.0 1911840:1.0 1918388:26.0 1918927:2.0 1925675:1.0 1961398:1.0 1961752:50000.0 1968391:1.0 1991096:1.0 2018202:152.0 2020135:20000.0 2022304:10.0 2029745:1.0 2054951:1.0 2083388:2.0 2093787:2.0 2100952:3.0 2119047:61.0 2119872:4.0 2133760:32.0 2158449:2.0 2166174:1.0 2169091:2.0 2180059:1.0 2180339:1.0 2182421:1.0 2196418:1.0 2200537:22.0 2202397:2.0 2210684:3.0 2232225:1.0 2240326:2.0 2243125:604324.0 2267444:2.0 2307905:1.0 2324731:17.0 2325507:2.0 2341237:1.0 2342105:1.0 2342393:312.0 2343191:15.0 2349835:11.0 2356204:10.0 2367061:2.0 2391301:61.0 2401222:10.0 2413802:1.0 2422865:2.0 2430200:50000.0 2457465:2.0 2490364:27.0 2491365:56.0 2504543:13.0 2517188:1.0 2566662:1.0 2571751:4.0 2576111:1.0 2595518:11.0 2596047:2.0 2600131:30.0 2602357:4.0 2611377:242.0 2615806:1.0 2621755:1266588.0 2634184:2.0 2640949:1.0 2647572:32.0 2660343:2.0 2670224:1.0 2681082:2.0 2683636:50000.0 2684106:2.0 2692159:1.0 2704650:1.0 2723376:50000.0 2743890:1.0 2744221:510000.0 2749166:5.0 2753946:5.0 2753998:1.0 2759455:9.0 2765445:3.0 2765520:3.0 2782786:11.0 2783892:1.0 2791660:1.0 2799998:1.0 2802840:25.0 2816938:10.0 2817276:29.0 2818521:1.0 2841063:2.0 2865840:90.0 2866810:1.0 2867742:1.0 2876334:4.0 2919818:21.0 2926204:2.0 2947938:2.0 2961172:4.0 2967787:1.0 2970879:16.0 2975932:2.0 2976515:3.0 2976715:1.0 2981952:1.0 2988921:2.0 2992132:2.0 3010724:1.0 3024595:20000.0 3028407:2.0 3043971:2.0 3051355:6.0 3053790:2.0 3056955:1.0 3068565:100000.0 3101507:96.0 3136260:11.0 3179046:1.0 3180653:1.0 3198410:1.0 3216995:2.0 3220592:1.0 3233015:2.0 3241799:2.0 3242215:3.0 3287210:435.0 3297531:1.0 3298111:1.0 3304868:662264.0 3320733:2.0 3320882:2.0 3334615:1266588.0 3338094:1.0 3340118:2.0 3340951:1.0 3345272:1.0 3358540:41.0 3359855:1.0 3376241:50000.0 3392438:37.0 3394182:2.0 3402137:11.0 3403035:2.0 3453314:8.0 3461818:1.0 3483106:2.0 3490760:2.0 3497474:1.0 3505026:13.0 3506813:2.0 3514148:435.0 3526181:1.0 3548620:19.0 3553993:1.0 3566931:1.0 3569434:50000.0 3573608:190000.0 3600014:100000.0 3607060:2.0 3625498:2.0 3627982:1.0 3628003:64.0 3633350:1.0 3638021:2.0 3642931:2.0 3652393:30.0 3656623:93.0 3657073:1.0 3659289:1.0 3665305:1.0 3666001:15.0 3666503:1.0 3667259:435.0 3676175:662264.0 3679241:1.0 3681184:2.0 3700842:435.0 3702957:435.0 3705241:3.0 3796373:1.0 3800531:101.0 3801235:2.0 3804786:3.0 3815751:604324.0 3822719:435.0 3825750:2.0 3836018:5.0 3839483:50000.0 3847849:2.0 3848446:1.0 3859381:4.0 3872678:1.0 3886813:2.0 3895652:5.0 3895763:2.0 3907897:100000.0 3913382:6.0 3918389:2.0 3924953:1.0 3937384:2.0 3952664:1.0 3954852:2.0 3954859:1.0 3968105:1.0 3969657:1.0 3994470:1.0 3996154:5.0 4008241:2.0 4029384:1.0 4029663:1.0 4030173:3.0 4031567:1.0 4035266:2.0 4042206:1.0 4059317:1.0 4063870:1.0 4071142:1.0 4073477:2.0 4075053:50000.0 4075785:1.0 4076091:1.0 4079743:1.0 4087524:2.0 4088131:1.0 4092385:3.0 4092873:4.0 4095804:1.0 4105671:177.0 4114537:2.0 4121743:320000.0 4125577:2.0 4127745:1.0 4139862:1.0 4144307:94324.0 4153504:25.0 4157434:1.0 4158165:435.0 4161235:58.0 4175994:1.0 4183384:34.0
0.0 127501:1.0 147260:28000.0 316839:28000.0 448798:1.0 667374:1.0 881876:28000.0 932050:28000.0 933583:28000.0 1013564:1.0 1055511:1.0 1257033:1.0 1468959:1.0 1567443:1.0 1701010:1.0 1760366:28000.0 1811781:28000.0 1852894:1.0 2064639:28000.0 2243125:28000.0 2596654:1.0 2621755:56000.0 2802840:2.0 2913083:1.0 3067740:28000.0 3207599:1.0 3226640:1.0 3304868:28000.0 3334615:56000.0 3676175:28000.0 3765141:28000.0 3810126:28000.0 4153504:2.0
0.0 1230:27.0 24993:1.0 25902:1.0 30005:50.0 32475:1.0 37762:178.0 52294:60.0 66133:10.0 83885:3.0 88630:12.0 118295:8.0 125467:1.0 127501:8.0 129525:2.0 131154:55.0 132534:2.0 143507:1.0 145175:1.0 145188:4.0 157368:2.0 159169:1.0 165553:54.0 167546:2.0 196959:2.0 202632:2.0 220852:6.0 221183:2.0 226390:1.0 229899:1.0 232913:2100000.0 234193:1.0 251208:3.0 260227:727.0 269130:4.0 276942:1.0 279205:1.0 316839:3200000.0 319637:30000.0 322086:2.0 328189:2.0 328967:3.0 336341:4.0 366368:1.0 401811:1.0 405135:2.0 423822:700.0 435736:1.0 436485:2.0 440135:31.0 443618:3.0 447940:49.0 448798:8.0 455255:43.0 457461:1.0 472116:13.0 475359:70.0 484989:1.0 491765:1.0 509493:2.0 532967:1.0 539103:3.0 560673:30000.0 579914:6.0 580097:1.0 609501:16.0 618941:3.0 627482:1.0 629174:1.0 661223:26.0 667374:6.0 679149:1.0 679640:178.0 680531:1046090.0 682968:2.0 700991:2.0 701540:1.0 702117:1.0 707289:1.0 710449:1.0 712754:1.0 721134:21.0 735070:3.0 753075:46.0 754717:57.0 760320:4.0 783998:2.0 787240:3.0 789380:1.0 789691:1.0 791752:2.0 793600:8.0 797117:10.0 813478:1.0 819550:3.0 821129:2.0 828830:1.0 835915:49.0 843348:1.0 847893:1.0 850338:3.0 850806:62.0 857581:30000.0 864535:1.0 867979:2.0 885757:2.0 893685:274.0 900398:1.0 903174:1.0 912260:1.0 932050:3200000.0 933583:3200000.0 935656:1.0 937392:1.0 946198:1.0 953783:46.0 987737:1.0 994823:1.0 1008898:13.0 1014473:2.0 1014814:112.0 1020578:1.0 1021578:2.0 1042505:1.0 1047998:1.0 1055511:8.0 1055709:10.0 1079224:1.0 1079295:1.0 1080735:2.0 1090653:727.0 1109891:727.0 1117274:10000.0 1132432:8.0 1138899:192.0 1140031:6.0 1141136:2.0 1142951:1.0 1148633:2.0 1150556:2.0 1151837:1.0 1161941:2.0 1167148:3138270.0 1170627:2.0 1173590:727.0 1177190:2.0 1178277:2.0 1228344:1.0 1257033:8.0 1260404:2.0 1261747:6.0 1262003:2092180.0 1266712:1.0 1267348:14.0 1278653:1.0 1291872:1.0 1294414:1.0 1298108:64.0 1302383:3.0 1305368:6.0 1360366:3.0 1375188:35.0 1382010:16.0 1392032:1.0 1395433:1.0 1411245:2.0 1416310:6.0 1417122:4.0 1418348:5.0 1421405:3.0 1450451:1.0 1450674:1.0 1456864:2.0 1458853:2.0 1467177:1.0 1468959:8.0 1469331:1.0 1474242:1.0 1488504:8.0 1512605:2.0 1516892:8.0 1518728:1.0 1528868:31.0 1530462:1.0 1536656:6.0 1545519:1.0 1547201:1.0 1566136:7.0 1601459:30000.0 1618349:1.0 1625443:2.0 1628614:2.0 1640927:1.0 1642228:2.0 1651819:1.0 1655917:1.0 1659548:1.0 1663368:1.0 1666234:6.0 1668564:9.0 1673786:2.0 1697423:1.0 1711870:55.0 1716840:54.0 1721262:2.0 1750248:8.0 1753782:16.0 1795850:1.0 1809421:7.0 1818468:20.0 1820080:12.0 1827117:1.0 1851930:2.0 1856264:727.0 1866555:1.0 1873867:14.0 1877468:5.0 1877558:1.0 1878599:13.0 1882308:2.0 1883898:1.0 1891278:6.0 1895366:1.0 1895490:2.0 1900906:1.0 1907135:1.0 1910431:2.0 1918388:7.0 1919030:4.0 1922757:8.0 1935953:1.0 1943558:1.0 1947834:2.0 1947892:1.0 1949364:1.0 1964139:3.0 1986317:3.0 1992356:1.0 1993337:1.0 1995895:2.0 1999156:1.0 2012066:2.0 2015802:2.0 2018202:273.0 2019815:1.0 2022304:18.0 2032727:1.0 2056981:1.0 2063855:5.0 2067248:3.0 2073126:1.0 2081753:1.0 2101977:1.0 2114048:2.0 2119047:4.0 2126755:8.0 2133760:85.0 2164539:30000.0 2180059:16.0 2187123:3.0 2189240:1.0 2194988:31.0 2196289:1.0 2200537:84.0 2208365:2.0 2210684:2.0 2214533:4.0 2215916:1.0 2223651:1.0 2229147:1.0 2243125:3198270.0 2269924:1.0 2273659:4.0 2282998:1.0 2284329:4.0 2284497:1.0 2307644:10.0 2315766:1.0 2324731:24.0 2325507:12.0 2342393:275.0 2343191:13.0 2348939:1.0 2349835:2.0 2355495:2.0 2356204:25.0 2362434:5.0 2364226:1.0 2373937:3.0 2391301:55.0 2401222:18.0 2404062:34.0 2409788:6.0 2422179:2.0 2422865:7.0 2429255:4.0 2431184:1.0 2442317:84.0 2457990:1.0 2458231:1.0 2458389:3.0 2462398:1.0 2466138:1.0 2477240:1.0 2480835:1.0 2485914:8.0 2488051:1.0 2490364:45.0 2491365:178.0 2492003:3.0 2493202:3138270.0 2504543:48.0 2523126:1.0 2523769:2.0 2536705:3.0 2540160:37.0 2551489:2.0 2560132:1.0 2564849:1.0 2566258:1.0 2567904:1.0 2571751:38.0 2581227:1.0 2591075:4.0 2592571:1.0 2595221:4.0 2595518:4.0 2600131:67.0 2601680:1.0 2601951:1.0 2611377:127.0 2613962:2.0 2618193:3138270.0 2621755:6398270.0 2622218:2.0 2622701:1.0 2623024:4.0 2627172:1.0 2634184:16.0 2649935:1.0 2667491:5.0 2681082:1.0 2704647:6.0 2709365:1.0 2727054:1.0 2729045:1.0 2736914:2.0 2739413:1.0 2744221:60000.0 2753602:1.0 2753998:12.0 2760079:2.0 2775063:1.0 2782786:3.0 2784791:1.0 2802840:14.0 2816716:1.0 2816938:22.0 2817276:25.0 2828322:1.0 2829971:1.0 2839646:2.0 2840080:2.0 2844390:1.0 2865840:337.0 2870096:2.0 2875065:2.0 2883008:3.0 2895122:1.0 2901478:1.0 2911530:3.0 2919818:3.0 2929263:1.0 2929848:4.0 2953180:2.0 2966507:4.0 2970879:40.0 2975932:15.0 2976515:14.0 2981391:178.0 2982518:2.0 2989158:4.0 2989677:3.0 2995485:12.0 3017885:2.0 3021847:1.0 3035536:54.0 3040138:4.0 3067338:2.0 3074617:3.0 3083956:3.0 3119360:2.0 3128292:1050000.0 3136260:2.0 3162138:1.0 3211068:2.0 3211938:4.0 3223585:1.0 3239639:34.0 3249321:6.0 3282554:5.0 3287210:727.0 3294361:1.0 3304868:3200000.0 3311233:1.0 3320733:43.0 3332802:30000.0 3334615:6398270.0 3344433:3.0 3348028:2.0 3356570:2.0 3358540:71.0 3363132:1.0 3375468:2.0 3392438:5.0 3402137:2.0 3418488:3.0 3427038:4.0 3437555:1.0 3445125:9.0 3449389:1.0 3453314:20.0 3460597:27.0 3463260:1.0 3463385:1.0 3464288:1.0 3471139:1.0 3490760:2.0 3497836:15.0 3505026:6.0 3553993:13.0 3570310:1.0 3573608:30000.0 3595445:2.0 3602912:2.0 3610484:1.0 3611626:20000.0 3613963:1.0 3625498:16.0 3628003:69.0 3628167:1.0 3632078:1.0 3632415:1.0 3646351:1.0 3651515:1.0 3652393:67.0 3656623:31.0 3657462:7.0 3657837:3.0 3665206:6.0 3666001:6.0 3670753:1.0 3676175:3200000.0 3678798:6.0 3679724:20000.0 3696091:1.0 3704398:1.0 3711632:2.0 3721173:1.0 3734122:2.0 3742758:85.0 3765287:1.0 3780523:2.0 3783375:2.0 3785724:1.0 3792656:5.0 3793797:1.0 3795776:1.0 3804584:2.0 3804786:26.0 3815751:3198270.0 3821890:10.0 3822719:727.0 3824531:1.0 3827062:1.0 3883538:4.0 3891374:11.0 3894847:1.0 3896279:1.0 3897474:5.0 3937774:1.0 3938459:3138270.0 3946466:1.0 3950787:1.0 3964450:3.0 3965042:1.0 3975970:1.0 3983076:1.0 4013052:1.0 4029384:6.0 4035182:2.0 4051072:1.0 4058809:1.0 4065901:1.0 4071602:4.0 4077768:1.0 4080508:3.0 4080521:2.0 4084682:15.0 4086024:1.0 4105438:1.0 4109788:2.0 4112172:1.0 4116793:1.0 4116881:1.0 4120801:727.0 4121743:30000.0 4128634:2.0 4136265:6.0 4144519:1.0 4153504:14.0 4158165:727.0 4161235:20.0 4173493:1.0 4183384:53.0 4191133:3200000.0 4193014:8.0
0.0 13012:195.0 16555:2.0 24993:1.0 30005:178.0 35800:2.0 37762:843.0 49535:3.0 49618:1.0 52294:3.0 69462:1.0 72361:2.0 81237:30000.0 81592:1.0 92443:3.0 103287:1.0 105067:1.0 110414:1.0 127501:3.0 127571:1.0 131154:154.0 134801:15.0 140270:1.0 143459:1.0 145175:1.0 156486:1.0 164069:1.0 165553:18.0 167546:4.0 196959:1.0 213923:3.0 222099:1.0 229559:49.0 251666:4.0 251762:1.0 252720:1.0 255518:565.0 270464:2.0 292963:6.0 304662:1.0 316184:3.0 316523:19.0 316839:300000.0 323811:2.0 342061:2.0 350759:2.0 378876:1.0 387552:2.0 391946:1.0 406088:1.0 409203:1.0 417787:5.0 442682:6.0 448798:3.0 451274:3.0 472116:1.0 478580:1.0 478608:1.0 486645:2.0 487677:2.0 498796:2.0 534590:1.0 545661:1.0 564226:2.0 578243:8.0 579844:2.0 584108:1.0 585115:1.0 592593:1.0 600253:1.0 629465:2.0 640803:2.0 651992:2.0 657714:1.0 667374:5.0 678782:30000.0 679640:304.0 682968:4.0 700991:1.0 705227:1.0 711365:2.0 721134:1.0 724286:1.0 739137:2.0 744416:16.0 753075:13.0 760320:10.0 760944:1.0 770337:2.0 777114:3.0 783335:6.0 786518:1.0 807245:1.0 821129:6.0 822491:1.0 828203:55.0 828323:12.0 835915:16.0 850806:45.0 853000:1.0 857581:180000.0 864090:2.0 867862:2.0 885757:38.0 893685:23.0 901659:1.0 902469:80.0 911224:2.0 927788:89.0 932050:300000.0 933583:300000.0 937466:2.0 958242:1.0 962401:1.0 971918:2.0 978541:1.0 983415:1.0 1008898:8.0 1014814:35.0 1033943:1.0 1040783:1.0 1047036:1.0 1050337:100000.0 1052268:21.0 1055511:3.0 1059163:1.0 1060881:200000.0 1069998:4.0 1070419:1.0 1077685:2.0 1099092:4.0 1109891:866.0 1112053:1.0 1116300:2.0 1119572:2.0 1138899:77.0 1143221:1.0 1149034:2.0 1168013:1.0 1170394:3.0 1170627:1.0 1184789:1.0 1184975:4.0 1194995:1.0 1197032:4.0 1203824:1.0 1204810:1.0 1206213:145.0 1213986:213.0 1216100:2.0 1230468:4.0 1231162:1.0 1252402:2.0 1257033:3.0 1257068:2.0 1260242:2.0 1264602:1.0 1270487:1.0 1298108:18.0 1303251:1.0 1303556:4.0 1321663:1.0 1322402:12.0 1326039:1.0 1328978:2.0 1332168:1.0 1345522:3.0 1368765:1.0 1375188:5.0 1377006:4.0 1382010:8.0 1395337:3.0 1400585:13.0 1406210:2.0 1441701:4.0 1446962:100000.0 1456864:1.0 1468959:3.0 1479572:3.0 1516393:8.0 1521720:1.0 1534779:1.0 1536656:116.0 1542629:1.0 1547428:8.0 1551938:2.0 1559105:866.0 1573227:3.0 1601459:100000.0 1609645:1.0 1614688:8.0 1627251:1.0 1633325:300000.0 1643261:4.0 1654712:1.0 1662434:2.0 1672681:1.0 1690257:1.0 1711870:154.0 1716840:67.0 1722050:1.0 1724630:3.0 1728877:1.0 1731173:3.0 1733443:1.0 1749052:1.0 1752124:2.0 1754505:5.0 1765765:6.0 1774660:1.0 1777577:2.0 1778868:4.0 1784751:1.0 1803351:2.0 1808740:1.0 1814468:2.0 1832833:1.0 1836284:50000.0 1849149:1.0 1850665:1.0 1856264:866.0 1873867:47.0 1874031:2.0 1878599:33.0 1899363:1.0 1910342:1.0 1918388:6.0 1919276:1.0 1926655:4.0 1935787:2.0 1942819:3.0 1961359:5.0 1961954:12.0 1965240:1.0 1977538:3.0 1992675:4.0 1999156:1.0 2018202:337.0 2022304:29.0 2031584:17.0 2040919:1.0 2044571:6.0 2056879:1.0 2062644:1.0 2069233:1.0 2089020:1.0 2092235:1.0 2108948:2.0 2114048:1.0 2119047:33.0 2133760:300.0 2153268:2.0 2173939:1.0 2174134:3.0 2200537:148.0 2210684:39.0 2237318:1.0 2243125:280000.0 2243951:1.0 2260745:5.0 2261651:2.0 2262734:2.0 2265913:5.0 2279672:2.0 2295103:3.0 2296809:1.0 2301438:2.0 2311488:1.0 2317005:101.0 2324731:62.0 2332628:1.0 2343191:8.0 2346587:9.0 2349835:1.0 2356204:39.0 2366918:1.0 2375802:1.0 2382663:4.0 2388945:50000.0 2391301:32.0 2396474:1.0 2401222:29.0 2404062:118.0 2406914:2.0 2409788:4.0 2416351:3.0 2422334:1.0 2422865:2.0 2437151:1.0 2438980:1.0 2445739:16.0 2466828:4.0 2490364:63.0 2491345:1.0 2491365:94.0 2492955:3.0 2494470:42.0 2504543:39.0 2509601:2.0 2517667:1.0 2520195:5.0 2534583:3.0 2537945:1.0 2540314:1.0 2552209:1.0 2552467:2.0 2568637:12.0 2570624:6.0 2571751:2.0 2591075:1.0 2595518:23.0 2598911:4.0 2600131:117.0 2603713:1.0 2607944:6.0 2613123:2.0 2614553:6.0 2616102:1.0 2619377:1.0 2621755:580000.0 2647572:15.0 2658060:1.0 2658337:2.0 2677458:72.0 2678677:1.0 2680232:2.0 2684492:1.0 2721686:2.0 2735899:2.0 2737070:3.0 2744221:100000.0 2748717:1.0 2767840:1.0 2769383:1.0 2773926:3.0 2782786:1.0 2797955:1.0 2802840:8.0 2816938:37.0 2817276:16.0 2820017:866.0 2823659:1.0 2861986:4.0 2865840:23.0 2891614:1.0 2895257:36.0 2904690:72.0 2911377:4.0 2919818:2.0 2928791:1.0 2935638:1.0 2959212:1.0 2970879:2.0 2975932:101.0 2976515:2.0 2981391:843.0 2990936:2.0 3003550:1.0 3004998:1.0 3024471:2.0 3035640:2.0 3056484:69.0 3066879:1.0 3069024:3.0 3101507:17.0 3107202:2.0 3120337:1.0 3121652:180000.0 3121975:4.0 3122338:4.0 3127823:1.0 3136260:1.0 3166490:1.0 3170067:2.0 3170543:1.0 3206843:100000.0 3210743:1.0 3230355:6.0 3234783:1.0 3252460:1.0 3254713:1.0 3265242:1.0 3280533:1.0 3280955:1.0 3287210:866.0 3304868:300000.0 3306289:1.0 3314074:1.0 3317408:1.0 3320733:6.0 3324262:1.0 3334615:580000.0 3347676:1.0 3351852:5.0 3359798:1.0 3389557:1.0 3392438:3.0 3399811:100000.0 3402137:1.0 3419035:1.0 3423812:1.0 3430584:6.0 3435536:3.0 3443533:4.0 3443540:1.0 3447386:1.0 3448209:2.0 3448893:2.0 3453314:1.0 3461309:4.0 3472783:6.0 3473247:1.0 3490760:38.0 3498014:1.0 3505026:5.0 3505968:1.0 3510785:2.0 3517448:1.0 3540089:1.0 3542026:6.0 3544049:4.0 3548291:1.0 3548460:4.0 3553993:2.0 3565793:1.0 3571940:1.0 3573608:180000.0 3605340:2.0 3609560:4.0 3609764:1.0 3615902:1.0 3619395:3.0 3628003:34.0 3632904:1.0 3634402:2.0 3647987:3.0 3652393:117.0 3666001:5.0 3676175:300000.0 3702957:866.0 3717976:1.0 3718405:3.0 3721617:1.0 3736630:2.0 3768016:1.0 3779305:4.0 3800531:23.0 3804786:2.0 3814877:2.0 3815751:280000.0 3822719:866.0 3824316:1.0 3828279:2.0 3836856:1.0 3841251:1.0 3842787:2.0 3847849:2.0 3860250:5.0 3875172:5.0 3891374:23.0 3900495:1.0 3902401:3.0 3907897:100000.0 3927937:1.0 3934914:1.0 3936443:4.0 3943830:1.0 3952959:2.0 3970466:2.0 3973815:1.0 3976804:1.0 3980451:6.0 3988599:1.0 4001795:5.0 4002365:1.0 4024138:10.0 4029384:5.0 4040345:1.0 4047335:2.0 4052577:1.0 4065872:1.0 4068676:4.0 4072534:2.0 4073751:1.0 4084682:34.0 4096907:4.0 4106594:2.0 4106963:1.0 4121743:100000.0 4126104:9.0 4153504:8.0 4153845:4.0 4158165:866.0 4161235:13.0 4167917:1.0 4172962:1.0 4181737:1.0
0.0 230:5.0 24993:3.0 110429:1.0 118304:2.0 127501:3.0 131154:14.0 136548:200000.0 145175:3.0 274588:3.0 286423:1.0 286490:1.0 313607:1.0 316839:250000.0 329072:1.0 353052:1.0 372017:3.0 407839:4.0 418733:2.0 448798:3.0 477153:3.0 488069:1.0 611957:3.0 663213:2.0 667374:3.0 669180:3.0 700991:3.0 726906:1.0 760320:6.0 795073:47.0 800337:1.0 821129:1.0 885757:3.0 932050:250000.0 933583:250000.0 942577:2.0 957481:1.0 962401:3.0 1008191:4.0 1043724:5.0 1055511:3.0 1079224:3.0 1109891:138.0 1138899:47.0 1206213:90.0 1257033:3.0 1274637:2.0 1319214:138.0 1378009:2.0 1380399:1.0 1403779:1.0 1427150:3.0 1455556:1.0 1456864:6.0 1459137:1.0 1468959:3.0 1477899:100000.0 1485073:2.0 1528868:47.0 1536656:9.0 1596118:1.0 1601459:250000.0 1607812:50000.0 1622628:2.0 1628803:2.0 1673711:4.0 1703809:100000.0 1711870:14.0 1715817:1.0 1716840:27.0 1733443:1.0 1755792:1.0 1816989:50000.0 1864129:138.0 1873867:6.0 1918388:11.0 1921732:2.0 1960471:1.0 1988684:1.0 2019665:2.0 2022304:3.0 2041971:2.0 2075654:50000.0 2095171:1.0 2109542:1.0 2133760:44.0 2184615:1.0 2210684:3.0 2243125:250000.0 2244551:3.0 2257135:2.0 2257586:3.0 2262038:2.0 2268487:4.0 2287279:1.0 2288525:1.0 2324731:6.0 2325507:9.0 2329564:100000.0 2343191:6.0 2349835:6.0 2372464:1.0 2401222:3.0 2428649:1.0 2452969:1.0 2490364:6.0 2491365:44.0 2501196:1.0 2504543:3.0 2508974:4.0 2545435:100000.0 2554026:2.0 2586701:138.0 2595518:6.0 2600131:9.0 2610684:1.0 2621755:500000.0 2622701:3.0 2654483:50000.0 2677458:44.0 2690631:2.0 2727723:1.0 2744221:250000.0 2766413:1.0 2782786:3.0 2789118:100000.0 2802840:6.0 2816938:3.0 2819664:2.0 2820017:138.0 2863831:1.0 2871129:1.0 2895257:47.0 2919818:9.0 2927071:1.0 2998252:6.0 3024505:1.0 3049606:3.0 3067715:2.0 3068768:3.0 3129522:1.0 3131737:2.0 3136260:6.0 3287210:138.0 3290734:1.0 3304868:250000.0 3311065:1.0 3319660:1.0 3334615:500000.0 3355263:1.0 3358540:47.0 3392438:15.0 3402137:3.0 3444770:2.0 3452547:1.0 3490760:2.0 3496281:100000.0 3498014:3.0 3499451:2.0 3505026:3.0 3528068:44.0 3590654:1.0 3603154:2.0 3617861:2.0 3633350:1.0 3643885:1.0 3652393:9.0 3656623:47.0 3658020:3.0 3666001:6.0 3676175:250000.0 3700842:138.0 3702957:138.0 3713845:2.0 3754190:3.0 3757243:2.0 3785696:1.0 3803067:1.0 3815751:250000.0 3822719:138.0 3892453:12.0 3896338:2.0 3957084:1.0 3959924:1.0 4101613:1.0 4121743:250000.0 4153504:6.0 4158165:138.0 4161235:18.0 4164825:1.0
1.0 22242:2.0 24993:2.0 30005:54.0 66133:11.0 131154:68.0 145175:2.0 147260:200000.0 263004:1.0 284806:1.0 285636:22.0 377446:1.0 385268:1.0 393064:4.0 416249:1.0 516311:12.0 619056:2.0 638434:200000.0 642137:4.0 654441:1.0 667374:4.0 679640:136.0 688568:228.0 700991:2.0 734441:1.0 736184:3.0 741807:1.0 760320:2.0 773029:1.0 784375:2.0 789957:1.0 828203:34.0 857132:6.0 885757:5.0 927788:228.0 962927:20000.0 966669:1.0 984062:1.0 986874:2.0 1008898:2.0 1028504:1.0 1050337:30000.0 1079224:21.0 1109891:228.0 1112149:4.0 1118570:1.0 1146368:2.0 1166104:2.0 1196058:1.0 1235913:1.0 1273620:2.0 1298108:10.0 1336951:4.0 1356070:1.0 1359295:6.0 1368471:200000.0 1382010:2.0 1400585:26.0 1455520:1.0 1456864:2.0 1536656:15.0 1540330:1.0 1566821:6.0 1586334:1.0 1601459:30000.0 1641936:30.0 1673100:1.0 1701010:2.0 1711870:68.0 1716840:13.0 1728094:3.0 1733515:1.0 1761934:4.0 1811781:200000.0 1818468:102.0 1873867:3.0 1881902:1.0 1918388:4.0 2018202:156.0 2068044:1.0 2119047:16.0 2173939:2.0 2180059:16.0 2200537:2.0 2210684:5.0 2243125:230000.0 2325507:6.0 2329604:2.0 2332318:2.0 2343191:2.0 2348736:200000.0 2349835:2.0 2368120:1.0 2391301:12.0 2409788:9.0 2440972:2.0 2524712:1.0 2540160:12.0 2546086:2.0 2548704:2.0 2565166:1.0 2595518:2.0 2596654:2.0 2600131:12.0 2613780:4.0 2614823:2.0 2621755:30000.0 2622701:21.0 2628885:12.0 2634184:20.0 2718222:228.0 2719953:1.0 2721010:1.0 2744221:30000.0 2754190:4.0 2782786:2.0 2802840:4.0 2813897:228.0 2817276:2.0 2891610:2.0 2913083:2.0 2917277:2.0 2919818:3.0 2926015:4.0 2998252:2.0 3006964:1.0 3039418:8.0 3041561:2.0 3070264:1.0 3101507:20.0 3136260:2.0 3148706:4.0 3155259:4.0 3188945:2.0 3201848:10000.0 3265977:6.0 3274460:200000.0 3282951:1.0 3287210:228.0 3320733:29.0 3334615:230000.0 3335129:1.0 3347352:1.0 3392438:5.0 3395834:9.0 3402137:2.0 3406531:1.0 3432126:1.0 3436434:2.0 3468998:10.0 3490697:228.0 3490760:5.0 3505026:2.0 3529134:1.0 3542122:4.0 3553993:4.0 3564593:1.0 3625498:20.0 3628003:50.0 3652393:12.0 3656623:22.0 3656857:1.0 3666001:2.0 3671562:2.0 3697926:1.0 3702957:228.0 3722275:5.0 3762276:2.0 3765141:200000.0 3815751:30000.0 3827391:2.0 3838745:6.0 3864693:1.0 3870296:228.0 3953220:1.0 3968145:5.0 4054955:4.0 4072504:1.0 4104530:8.0 4116411:1.0 4121743:30000.0 4153504:2.0 4158165:228.0 4161235:10.0 4181265:228.0 4183384:24.0
0.0 52294:3.0 90672:1.0 167546:1.0 308968:1.0 359919:2.0 417174:4.0 475359:40.0 518289:2.0 519405:1.0 667374:1.0 682968:1.0 721134:2.0 795073:40.0 828203:4.0 850806:11.0 857581:10000.0 893685:44.0 919867:44.0 922950:4.0 927788:40.0 929878:44.0 1041690:4.0 1068428:10000.0 1109891:44.0 1138899:40.0 1170627:1.0 1228318:4.0 1285292:4.0 1328185:10000.0 1361297:1.0 1375188:8.0 1539709:44.0 1620713:44.0 1750255:2.0 1809421:5.0 1824845:1.0 1980022:1.0 1982497:1.0 2019419:6.0 2022247:1.0 2022304:2.0 2102445:1.0 2133760:4.0 2178803:1.0 2197460:1.0 2243125:10000.0 2324731:1.0 2349776:1.0 2356204:2.0 2401222:2.0 2490364:3.0 2504543:6.0 2571751:2.0 2600131:4.0 2611377:40.0 2621755:10000.0 2667446:8.0 2744221:10000.0 2753998:1.0 2782786:1.0 2802840:1.0 2815084:44.0 2816938:2.0 2865840:4.0 2970879:2.0 2989677:1.0 3033645:1.0 3075916:1.0 3287210:44.0 3334615:10000.0 3427470:1.0 3453314:1.0 3460475:1.0 3477167:4.0 3486777:1.0 3505026:1.0 3573608:10000.0 3652393:4.0 3742758:4.0 3743595:44.0 3751088:1.0 3804786:4.0 3815751:10000.0 3870571:2.0 3910524:44.0 3930217:1.0 4061677:1.0 4084005:1.0 4153504:1.0
0.0 7700:1.0 13012:147.0 22242:12.0 24993:1.0 43944:1.0 76503:1.0 77565:4.0 79205:2.0 84598:1.0 86383:1.0 127501:6.0 131154:52.0 132791:2.0 145175:1.0 167546:4.0 172757:1.0 202793:1.0 210116:12.0 210365:1.0 227646:1.0 245419:1.0 296183:1.0 309991:2.0 316618:1.0 316839:250000.0 321021:1.0 328967:1.0 340412:2.0 390023:2.0 404227:1.0 413153:1.0 421202:17.0 422002:5.0 443618:1.0 447940:69.0 448798:6.0 455255:109.0 475547:3.0 481210:2.0 488709:16.0 508865:10000.0 513459:1.0 524185:1.0 541456:2.0 549112:150000.0 578740:539.0 581549:2.0 585138:539.0 603913:1.0 604322:1.0 604934:2.0 611957:6.0 615564:2.0 616305:2.0 619056:12.0 632140:1.0 640410:2.0 644536:1.0 664049:3.0 667374:6.0 669180:6.0 682968:4.0 700991:7.0 727745:2.0 728638:1.0 754717:93.0 760320:8.0 768397:1.0 775078:1.0 821129:7.0 828203:65.0 845996:2.0 857581:90000.0 868197:3.0 885757:11.0 904913:1.0 904954:2.0 923351:2.0 927582:16.0 929062:1.0 929878:539.0 931876:20000.0 932050:250000.0 933583:250000.0 934903:1.0 938965:2.0 940660:1.0 944386:1.0 944953:2.0 954603:2.0 963269:2.0 977931:5.0 980861:1.0 992926:1.0 1003723:1.0 1008898:11.0 1052268:78.0 1055511:6.0 1055525:10000.0 1077426:1.0 1078242:1.0 1079224:11.0 1082309:2.0 1087748:2.0 1093683:2.0 1099196:3.0 1102502:2.0 1135760:1.0 1138899:158.0 1174738:2.0 1193483:1.0 1206213:474.0 1227196:1.0 1257033:6.0 1262619:3.0 1325015:1.0 1334880:10000.0 1377153:1.0 1382010:13.0 1400585:70.0 1404477:1.0 1412873:1.0 1413534:10.0 1418606:2.0 1427150:6.0 1446610:2.0 1448844:1.0 1454000:1.0 1456864:6.0 1468959:6.0 1496965:1.0 1501364:1.0 1516792:1.0 1533116:1.0 1534297:1.0 1536656:33.0 1541343:10000.0 1565371:20000.0 1579735:1.0 1584688:32.0 1585558:1.0 1598779:2.0 1601459:10000.0 1619788:1.0 1646005:50000.0 1666157:4.0 1673711:65.0 1705135:10000.0 1711870:52.0 1716840:35.0 1720091:2.0 1725688:2.0 1727719:2.0 1753782:109.0 1756735:7.0 1758360:1.0 1765003:1.0 1786744:2.0 1805691:1.0 1819440:1.0 1827388:1.0 1835510:13.0 1851142:2.0 1871195:6.0 1872795:13.0 1873867:8.0 1887560:1.0 1904240:1.0 1918388:9.0 1990703:3.0 2022304:8.0 2029233:1.0 2029239:1.0 2031584:92.0 2046677:2.0 2061440:255.0 2076789:2.0 2084020:1.0 2112716:1.0 2119047:78.0 2141743:1.0 2157790:10000.0 2161474:1.0 2180059:2.0 2195069:1.0 2210684:11.0 2219789:1.0 2223383:1.0 2224777:2.0 2240536:1.0 2243125:250000.0 2244955:1.0 2270800:2.0 2283254:2.0 2292286:1.0 2309319:2.0 2309445:7.0 2311907:150000.0 2324731:122.0 2325507:5.0 2327360:5.0 2343191:11.0 2344285:60000.0 2349835:6.0 2356534:4.0 2369751:1.0 2370331:1.0 2386305:1.0 2391301:36.0 2401222:8.0 2404062:124.0 2408297:1.0 2429130:50000.0 2470946:1.0 2471156:2.0 2490364:122.0 2493202:150000.0 2504543:98.0 2505294:1.0 2505506:1.0 2547262:3.0 2557785:3.0 2559448:1.0 2574849:1.0 2595518:8.0 2600131:33.0 2609129:14.0 2616352:10000.0 2617155:1.0 2618193:150000.0 2620410:539.0 2621755:500000.0 2622701:11.0 2628059:1.0 2634184:3.0 2651239:2.0 2662769:1.0 2668639:1.0 2679725:1.0 2685038:16.0 2735291:5.0 2736385:1.0 2737964:1.0 2741556:2.0 2744221:100000.0 2759455:2.0 2764611:1.0 2764849:8.0 2781230:3.0 2782786:5.0 2802840:12.0 2811161:1.0 2813897:539.0 2815084:539.0 2816938:98.0 2817276:12.0 2822157:1.0 2828033:7.0 2841174:3.0 2861551:6.0 2866220:8.0 2896605:1.0 2904690:65.0 2918805:1.0 2919818:12.0 2928356:1.0 2972280:1.0 2998252:12.0 3009529:1.0 3017254:2.0 3023309:1.0 3060501:1.0 3070679:1.0 3099607:1.0 3103545:2.0 3112845:1.0 3113145:150000.0 3115323:1.0 3136260:5.0 3136278:3.0 3149795:284.0 3156240:4.0 3181002:1.0 3181607:1.0 3212346:6.0 3215733:17.0 3221138:2.0 3226334:2.0 3232475:2.0 3272899:1.0 3276619:2.0 3287210:539.0 3304868:250000.0 3320733:2.0 3334543:2.0 3334615:500000.0 3342268:1.0 3352816:1.0 3357194:2.0 3358540:39.0 3366931:10000.0 3389746:1.0 3392438:18.0 3402137:7.0 3410806:1.0 3448062:1.0 3452876:3.0 3480516:1.0 3486580:1.0 3490760:11.0 3503502:10000.0 3505026:6.0 3517051:2.0 3519201:230000.0 3523708:14.0 3524505:1.0 3537376:2.0 3548908:1.0 3555136:1.0 3564028:1.0 3573608:90000.0 3579341:1.0 3610178:1.0 3616748:2.0 3622750:1.0 3625498:3.0 3628003:148.0 3639073:1.0 3652393:33.0 3666001:5.0 3676175:250000.0 3698436:1.0 3719825:1.0 3731011:20000.0 3732974:1.0 3754190:6.0 3760749:539.0 3814299:2.0 3815751:250000.0 3822719:539.0 3856214:2.0 3859288:3.0 3869344:1.0 3870296:539.0 3880955:1.0 3888121:2.0 3891374:65.0 3892453:24.0 3925335:7.0 3948136:1.0 3960343:150000.0 3965146:14.0 3979719:1.0 4029384:6.0 4034744:1.0 4067491:2.0 4084682:76.0 4092850:1.0 4095591:2.0 4121743:10000.0 4131348:10000.0 4132628:1.0 4134242:6.0 4134266:1.0 4149005:1.0 4153504:12.0 4160144:6.0 4161235:30.0
